solid ascii
 facet normal -0.649515 0.74958 -0.127516
  outer loop
   vertex 0.837392 -1.81528 -0.01
   vertex 1.67363 -1.09068 -0.01
   vertex 1.19271 -1.59951 -0.55149
  endloop
 endfacet
 facet normal 0.74748 -0.588014 0.309051
  outer loop
   vertex -0.966756 1.14513 -5.29763
   vertex -1.22839 0.372489 -6.13489
   vertex -0.589796 1.04539 -6.39913
  endloop
 endfacet
 facet normal 0.949127 0.0759708 0.305591
  outer loop
   vertex -1.22839 0.372489 -6.13489
   vertex -1.3827 -0.487052 -5.44195
   vertex -1.02911 -0.524605 -6.53081
  endloop
 endfacet
 facet normal -0.965669 0.252161 0.0624422
  outer loop
   vertex 1.5641 -0.71176 -4.09287
   vertex 1.56216 -1.02257 -2.86777
   vertex 1.77748 -4.35358e-16 -3.66727
  endloop
 endfacet
 facet normal -0.90815 0.359253 0.214945
  outer loop
   vertex 1.30292 -3.19124e-16 -6.06946
   vertex 0.914416 -0.694124 -6.55077
   vertex 1.08211 -1.0555 -5.23827
  endloop
 endfacet
 facet normal 0.432212 0.901535 0.0206569
  outer loop
   vertex -1.30951 -1.51137 -0.01
   vertex -1.29876 -1.51652 -0.01
   vertex -0.332618 -1.95951 -0.891577
  endloop
 endfacet
 facet normal 0.432218 0.901532 0.020665
  outer loop
   vertex -0.332618 -1.95951 -0.891577
   vertex -1.27909 -1.49222 -1.48165
   vertex -1.30951 -1.51137 -0.01
  endloop
 endfacet
 facet normal 0.341883 0.917574 0.202912
  outer loop
   vertex -0.714673 -1.09898 -6.04183
   vertex -0.911543 -1.19274 -5.28614
   vertex -0.091242 -1.49058 -5.32143
  endloop
 endfacet
 facet normal 0.415414 0.90963 -0.00181987
  outer loop
   vertex -1.29876 -1.51652 -0.01
   vertex -0.285168 -1.97942 -0.01
   vertex -0.332618 -1.95951 -0.891577
  endloop
 endfacet
 facet normal -0.143951 0.712874 0.686359
  outer loop
   vertex 1.22465e-16 -2.99952e-32 -8
   vertex -0.218393 -0.878783 -7.13307
   vertex 0.58301 -0.636433 -7.21671
  endloop
 endfacet
 facet normal -0.821814 0.361598 0.440305
  outer loop
   vertex 0.914416 -0.694124 -6.55077
   vertex 0.865466 -2.11978e-16 -7.21218
   vertex 0.58301 -0.636433 -7.21671
  endloop
 endfacet
 facet normal -0.416688 0.900276 0.125994
  outer loop
   vertex 0.407388 -1.79082 -3.16734
   vertex 0.966816 -1.65433 -2.29248
   vertex 1.08392 -1.40179 -3.70968
  endloop
 endfacet
 facet normal 0.963036 -0.000960642 0.269371
  outer loop
   vertex -1.3827 -0.487052 -5.44195
   vertex -1.47818 0.437132 -5.0973
   vertex -1.66429 -0.0396596 -4.43363
  endloop
 endfacet
 facet normal 0.253971 0.924893 0.28297
  outer loop
   vertex 0.0570751 -1.25098 -6.23767
   vertex -0.714673 -1.09898 -6.04183
   vertex -0.091242 -1.49058 -5.32143
  endloop
 endfacet
 facet normal -0.652948 -0.753543 -0.0763677
  outer loop
   vertex 1.67776 1.08641 -0.01
   vertex 0.835678 1.81608 -0.01
   vertex 1.26103 1.53642 -0.887348
  endloop
 endfacet
 facet normal 0.271186 -0.751206 0.601788
  outer loop
   vertex -0.766743 0.238112 -7.32711
   vertex 0.358493 0.888505 -7.0223
   vertex -0.589796 1.04539 -6.39913
  endloop
 endfacet
 facet normal 0.0597834 0.989363 0.132612
  outer loop
   vertex 0.393746 -1.63072 -4.35564
   vertex -0.605173 -1.59219 -4.19275
   vertex 0.407388 -1.79082 -3.16734
  endloop
 endfacet
 facet normal -0.767884 0.621207 0.156382
  outer loop
   vertex 1.5641 -0.71176 -4.09287
   vertex 1.08392 -1.40179 -3.70968
   vertex 1.56216 -1.02257 -2.86777
  endloop
 endfacet
 facet normal 0.964112 -0.257967 0.0627859
  outer loop
   vertex -1.69569 0.975646 -1.66256
   vertex -1.77069 0.908925 -0.785015
   vertex -1.9821 0.0556461 -1.04459
  endloop
 endfacet
 facet normal 0.317496 -0.912474 0.258044
  outer loop
   vertex -0.966756 1.14513 -5.29763
   vertex 0.0800065 1.4395 -5.54466
   vertex -0.69368 1.56014 -4.16612
  endloop
 endfacet
 facet normal -0.73001 -0.681547 0.0507748
  outer loop
   vertex 1.19771 1.51853 -2.03786
   vertex 1.63412 1.11224 -1.217
   vertex 1.26103 1.53642 -0.887348
  endloop
 endfacet
 facet normal 0.985924 0.145045 0.0831661
  outer loop
   vertex -1.77995 -0.75957 -2.01924
   vertex -1.9113 0.224452 -2.17831
   vertex -1.9821 0.0556461 -1.04459
  endloop
 endfacet
 facet normal 0.436579 0.899584 0.0121281
  outer loop
   vertex -0.532751 -1.84412 -2.24644
   vertex -1.27909 -1.49222 -1.48165
   vertex -0.332618 -1.95951 -0.891577
  endloop
 endfacet
 facet normal -0.793375 -0.595307 0.127147
  outer loop
   vertex 1.79672 0.667607 -2.28421
   vertex 1.63412 1.11224 -1.217
   vertex 1.19771 1.51853 -2.03786
  endloop
 endfacet
 facet normal 0.972327 0.0134752 0.233236
  outer loop
   vertex -1.3827 -0.487052 -5.44195
   vertex -1.22839 0.372489 -6.13489
   vertex -1.47818 0.437132 -5.0973
  endloop
 endfacet
 facet normal 0.910881 0.410942 0.0377179
  outer loop
   vertex -1.8242 -0.118697 -3.24522
   vertex -1.28518 -1.33528 -3.00759
   vertex -1.42037 -0.920485 -4.26192
  endloop
 endfacet
 facet normal 0.0843445 -0.928332 0.362057
  outer loop
   vertex -0.589796 1.04539 -6.39913
   vertex 0.358493 0.888505 -7.0223
   vertex 0.0800065 1.4395 -5.54466
  endloop
 endfacet
 facet normal -0.444505 0.847489 0.290133
  outer loop
   vertex 0.0570751 -1.25098 -6.23767
   vertex 1.08211 -1.0555 -5.23827
   vertex 0.914416 -0.694124 -6.55077
  endloop
 endfacet
 facet normal -0.141535 -0.9844 -0.104523
  outer loop
   vertex 0.821653 1.82165 -0.01
   vertex -0.277521 1.97968 -0.01
   vertex 0.202245 1.98237 -0.68493
  endloop
 endfacet
 facet normal -0.3848 -0.906438 0.174065
  outer loop
   vertex 1.0203 1.50615 -3.32388
   vertex 0.226906 1.72899 -3.91734
   vertex 1.04953 1.21953 -4.75182
  endloop
 endfacet
 facet normal 0.71967 -0.692481 0.0504489
  outer loop
   vertex -1.69569 0.975646 -1.66256
   vertex -1.04055 1.61944 -2.17135
   vertex -1.07795 1.66608 -0.997625
  endloop
 endfacet
 facet normal 0.739419 -0.673138 0.012016
  outer loop
   vertex -1.69569 0.975646 -1.66256
   vertex -1.07795 1.66608 -0.997625
   vertex -1.77069 0.908925 -0.785015
  endloop
 endfacet
 facet normal -0.882508 0.46802 0.0462278
  outer loop
   vertex 1.68128 -1.08261 -0.01
   vertex 1.68506 -1.07547 -0.01
   vertex 1.90002 -0.587111 -0.850718
  endloop
 endfacet
 facet normal -0.882507 0.468021 0.0462284
  outer loop
   vertex 1.90002 -0.587111 -0.850718
   vertex 1.51985 -1.25711 -1.32507
   vertex 1.68128 -1.08261 -0.01
  endloop
 endfacet
 facet normal -0.116063 0.99323 -0.00477791
  outer loop
   vertex 0.830076 -1.8194 -0.01
   vertex 0.747235 -1.83436 -1.10816
   vertex 0.817781 -1.82084 -0.01
  endloop
 endfacet
 facet normal -0.116067 0.99323 -0.00477762
  outer loop
   vertex 0.817781 -1.82084 -0.01
   vertex 0.747235 -1.83436 -1.10816
   vertex -0.332618 -1.95951 -0.891577
  endloop
 endfacet
 facet normal 0.771392 0.575148 0.272321
  outer loop
   vertex -0.911543 -1.19274 -5.28614
   vertex -0.714673 -1.09898 -6.04183
   vertex -1.3827 -0.487052 -5.44195
  endloop
 endfacet
 facet normal -0.442897 0.847071 0.293792
  outer loop
   vertex 0.0570751 -1.25098 -6.23767
   vertex 0.914416 -0.694124 -6.55077
   vertex 0.58301 -0.636433 -7.21671
  endloop
 endfacet
 facet normal 0.0735232 0.994556 0.0738456
  outer loop
   vertex 0.247051 -1.92447 -1.94069
   vertex -0.532751 -1.84412 -2.24644
   vertex -0.332618 -1.95951 -0.891577
  endloop
 endfacet
 facet normal -0.745892 -0.665946 0.01271
  outer loop
   vertex 1.68211 1.08154 -0.01
   vertex 1.67776 1.08641 -0.01
   vertex 1.26103 1.53642 -0.887348
  endloop
 endfacet
 facet normal -0.745896 -0.665941 0.0127144
  outer loop
   vertex 1.26103 1.53642 -0.887348
   vertex 1.63412 1.11224 -1.217
   vertex 1.68211 1.08154 -0.01
  endloop
 endfacet
 facet normal -0.0851813 -0.995978 0.0277798
  outer loop
   vertex 0.388096 1.8581 -2.51978
   vertex 0.633195 1.87573 -1.13639
   vertex -0.28808 1.94594 -1.44411
  endloop
 endfacet
 facet normal -0.987237 0.154096 0.0402116
  outer loop
   vertex 1.86582 -0.573644 -1.742
   vertex 1.90002 -0.587111 -0.850718
   vertex 1.97641 -4.8408e-16 -1.22519
  endloop
 endfacet
 facet normal -0.725561 0.688155 -0.00224672
  outer loop
   vertex 1.67363 -1.09068 -0.01
   vertex 1.68128 -1.08261 -0.01
   vertex 1.51985 -1.25711 -1.32507
  endloop
 endfacet
 facet normal -0.725567 0.688148 -0.00224509
  outer loop
   vertex 1.67363 -1.09068 -0.01
   vertex 1.51985 -1.25711 -1.32507
   vertex 1.19271 -1.59951 -0.55149
  endloop
 endfacet
 facet normal 0.306997 -0.93265 0.189517
  outer loop
   vertex 0.0800065 1.4395 -5.54466
   vertex -0.966756 1.14513 -5.29763
   vertex -0.589796 1.04539 -6.39913
  endloop
 endfacet
 facet normal -0.957269 -0.28108 -0.0680421
  outer loop
   vertex 1.99902 0.00576706 -0.01
   vertex 1.68479 1.07591 -0.01
   vertex 1.90459 0.560011 -0.971051
  endloop
 endfacet
 facet normal -0.350068 0.885906 0.30434
  outer loop
   vertex 0.393746 -1.63072 -4.35564
   vertex 1.08211 -1.0555 -5.23827
   vertex -0.091242 -1.49058 -5.32143
  endloop
 endfacet
 facet normal -0.959098 -0.249478 0.133763
  outer loop
   vertex 1.79672 0.667607 -2.28421
   vertex 1.54329 0.86383 -3.73534
   vertex 1.77748 -4.35358e-16 -3.66727
  endloop
 endfacet
 facet normal 0.733232 -0.673784 0.0915698
  outer loop
   vertex -1.69569 0.975646 -1.66256
   vertex -1.66963 0.84849 -2.80684
   vertex -1.04055 1.61944 -2.17135
  endloop
 endfacet
 facet normal -0.419364 -0.905374 0.0665707
  outer loop
   vertex 1.0203 1.50615 -3.32388
   vertex 1.19771 1.51853 -2.03786
   vertex 0.388096 1.8581 -2.51978
  endloop
 endfacet
 facet normal 0.643424 -0.755742 0.1219
  outer loop
   vertex -0.966756 1.14513 -5.29763
   vertex -0.69368 1.56014 -4.16612
   vertex -1.45763 0.937951 -3.9911
  endloop
 endfacet
 facet normal -0.353177 0.917532 0.182761
  outer loop
   vertex 1.08211 -1.0555 -5.23827
   vertex 0.0570751 -1.25098 -6.23767
   vertex -0.091242 -1.49058 -5.32143
  endloop
 endfacet
 facet normal -0.245587 -0.969359 -0.00544975
  outer loop
   vertex 0.829091 1.81976 -0.01
   vertex 0.821653 1.82165 -0.01
   vertex 0.202245 1.98237 -0.68493
  endloop
 endfacet
 facet normal -0.245583 -0.96936 -0.00545369
  outer loop
   vertex 0.202245 1.98237 -0.68493
   vertex 0.633195 1.87573 -1.13639
   vertex 0.829091 1.81976 -0.01
  endloop
 endfacet
 facet normal 0.933245 0.0503289 0.355697
  outer loop
   vertex -0.766743 0.238112 -7.32711
   vertex -1.22839 0.372489 -6.13489
   vertex -1.02911 -0.524605 -6.53081
  endloop
 endfacet
 facet normal 0.963438 -0.221976 0.150047
  outer loop
   vertex -1.8242 -0.118697 -3.24522
   vertex -1.66963 0.84849 -2.80684
   vertex -1.9113 0.224452 -2.17831
  endloop
 endfacet
 facet normal 0.0231723 -0.995129 0.0958221
  outer loop
   vertex -0.28808 1.94594 -1.44411
   vertex -0.479295 1.80136 -2.89936
   vertex 0.388096 1.8581 -2.51978
  endloop
 endfacet
 facet normal 0.989762 0.138001 0.0364169
  outer loop
   vertex -1.8242 -0.118697 -3.24522
   vertex -1.9113 0.224452 -2.17831
   vertex -1.77995 -0.75957 -2.01924
  endloop
 endfacet
 facet normal -0.142251 0.989376 0.0299967
  outer loop
   vertex -0.285168 -1.97942 -0.01
   vertex 0.817781 -1.82084 -0.01
   vertex -0.332618 -1.95951 -0.891577
  endloop
 endfacet
 facet normal 0.357798 -0.932541 0.0484573
  outer loop
   vertex -0.28808 1.94594 -1.44411
   vertex -1.07795 1.66608 -0.997625
   vertex -1.04055 1.61944 -2.17135
  endloop
 endfacet
 facet normal -0.121816 0.991964 -0.0341728
  outer loop
   vertex 0.247051 -1.92447 -1.94069
   vertex -0.332618 -1.95951 -0.891577
   vertex 0.747235 -1.83436 -1.10816
  endloop
 endfacet
 facet normal 0.645808 -0.739156 0.191263
  outer loop
   vertex -1.10307 1.47639 -3.10744
   vertex -1.45763 0.937951 -3.9911
   vertex -0.69368 1.56014 -4.16612
  endloop
 endfacet
 facet normal 0.964669 -0.246283 0.0935852
  outer loop
   vertex -1.66429 -0.0396596 -4.43363
   vertex -1.47818 0.437132 -5.0973
   vertex -1.45763 0.937951 -3.9911
  endloop
 endfacet
 facet normal 0.783238 0.57509 0.236241
  outer loop
   vertex -0.911543 -1.19274 -5.28614
   vertex -1.3827 -0.487052 -5.44195
   vertex -1.42037 -0.920485 -4.26192
  endloop
 endfacet
 facet normal -0.693084 0.717394 0.0705671
  outer loop
   vertex 0.966816 -1.65433 -2.29248
   vertex 1.56216 -1.02257 -2.86777
   vertex 1.08392 -1.40179 -3.70968
  endloop
 endfacet
 facet normal 0.947566 0.288988 0.136401
  outer loop
   vertex -1.42037 -0.920485 -4.26192
   vertex -1.3827 -0.487052 -5.44195
   vertex -1.66429 -0.0396596 -4.43363
  endloop
 endfacet
 facet normal 0.818638 -0.526301 0.229866
  outer loop
   vertex -1.22839 0.372489 -6.13489
   vertex -0.966756 1.14513 -5.29763
   vertex -1.47818 0.437132 -5.0973
  endloop
 endfacet
 facet normal 0.526535 0.841692 0.119651
  outer loop
   vertex -0.622345 -1.73074 -3.14252
   vertex -0.605173 -1.59219 -4.19275
   vertex -1.28518 -1.33528 -3.00759
  endloop
 endfacet
 facet normal 0.838641 -0.538962 -0.0787525
  outer loop
   vertex -1.31559 1.50382 -0.01
   vertex -1.9171 0.567866 -0.01
   vertex -1.77069 0.908925 -0.785015
  endloop
 endfacet
 facet normal -0.817632 -0.57574 0.000576597
  outer loop
   vertex 1.38553 1.25096 -2.87164
   vertex 1.79672 0.667607 -2.28421
   vertex 1.19771 1.51853 -2.03786
  endloop
 endfacet
 facet normal -0.900437 0.333991 0.278682
  outer loop
   vertex 1.5641 -0.71176 -4.09287
   vertex 1.5853 -3.88287e-16 -4.8774
   vertex 1.08211 -1.0555 -5.23827
  endloop
 endfacet
 facet normal -0.956309 0.280798 -0.0813966
  outer loop
   vertex 1.68506 -1.07547 -0.01
   vertex 1.99882 -0.00690135 -0.01
   vertex 1.90002 -0.587111 -0.850718
  endloop
 endfacet
 facet normal -0.115928 -0.985715 0.122174
  outer loop
   vertex 0.633195 1.87573 -1.13639
   vertex 0.202245 1.98237 -0.68493
   vertex -0.28808 1.94594 -1.44411
  endloop
 endfacet
 facet normal -0.647687 -0.755754 0.0966283
  outer loop
   vertex 1.19771 1.51853 -2.03786
   vertex 1.0203 1.50615 -3.32388
   vertex 1.38553 1.25096 -2.87164
  endloop
 endfacet
 facet normal 0.340552 0.909871 0.236979
  outer loop
   vertex -0.605173 -1.59219 -4.19275
   vertex -0.091242 -1.49058 -5.32143
   vertex -0.911543 -1.19274 -5.28614
  endloop
 endfacet
 facet normal 0.948791 -0.310875 0.056151
  outer loop
   vertex -1.66963 0.84849 -2.80684
   vertex -1.69569 0.975646 -1.66256
   vertex -1.9113 0.224452 -2.17831
  endloop
 endfacet
 facet normal 0.760524 0.60872 0.225972
  outer loop
   vertex -1.3827 -0.487052 -5.44195
   vertex -0.714673 -1.09898 -6.04183
   vertex -1.02911 -0.524605 -6.53081
  endloop
 endfacet
 facet normal 0.651925 0.428727 0.625449
  outer loop
   vertex -0.218393 -0.878783 -7.13307
   vertex -0.766743 0.238112 -7.32711
   vertex -1.02911 -0.524605 -6.53081
  endloop
 endfacet
 facet normal 0.604205 0.681829 0.412367
  outer loop
   vertex -0.714673 -1.09898 -6.04183
   vertex -0.218393 -0.878783 -7.13307
   vertex -1.02911 -0.524605 -6.53081
  endloop
 endfacet
 facet normal 0.615203 0.76588 0.18696
  outer loop
   vertex -0.605173 -1.59219 -4.19275
   vertex -1.42037 -0.920485 -4.26192
   vertex -1.28518 -1.33528 -3.00759
  endloop
 endfacet
 facet normal -0.978008 -0.18218 0.101541
  outer loop
   vertex 1.79672 0.667607 -2.28421
   vertex 1.77748 -4.35358e-16 -3.66727
   vertex 1.90403 -4.66352e-16 -2.44845
  endloop
 endfacet
 facet normal -0.774313 0.616965 0.140686
  outer loop
   vertex 1.5641 -0.71176 -4.09287
   vertex 1.08211 -1.0555 -5.23827
   vertex 1.08392 -1.40179 -3.70968
  endloop
 endfacet
 facet normal 0.753282 -0.655801 0.0499063
  outer loop
   vertex -1.04055 1.61944 -2.17135
   vertex -1.66963 0.84849 -2.80684
   vertex -1.10307 1.47639 -3.10744
  endloop
 endfacet
 facet normal 0.279761 -0.759339 0.587484
  outer loop
   vertex 0.358493 0.888505 -7.0223
   vertex -0.766743 0.238112 -7.32711
   vertex 1.22465e-16 -2.99952e-32 -8
  endloop
 endfacet
 facet normal 0.519928 0.852381 0.055861
  outer loop
   vertex -0.622345 -1.73074 -3.14252
   vertex -1.28518 -1.33528 -3.00759
   vertex -0.532751 -1.84412 -2.24644
  endloop
 endfacet
 facet normal 0.360573 -0.931636 0.0451809
  outer loop
   vertex -0.28808 1.94594 -1.44411
   vertex -1.04055 1.61944 -2.17135
   vertex -0.479295 1.80136 -2.89936
  endloop
 endfacet
 facet normal 0.963399 -0.259338 0.0678699
  outer loop
   vertex -1.9171 0.567866 -0.01
   vertex -1.91959 0.558604 -0.01
   vertex -1.9821 0.0556461 -1.04459
  endloop
 endfacet
 facet normal 0.963399 -0.259337 0.0678695
  outer loop
   vertex -1.9821 0.0556461 -1.04459
   vertex -1.77069 0.908925 -0.785015
   vertex -1.9171 0.567866 -0.01
  endloop
 endfacet
 facet normal 0.496289 0.863801 0.0868628
  outer loop
   vertex -1.28518 -1.33528 -3.00759
   vertex -1.27909 -1.49222 -1.48165
   vertex -0.532751 -1.84412 -2.24644
  endloop
 endfacet
 facet normal -0.900522 0.264984 0.344738
  outer loop
   vertex 0.865466 -2.11978e-16 -7.21218
   vertex 0.914416 -0.694124 -6.55077
   vertex 1.30292 -3.19124e-16 -6.06946
  endloop
 endfacet
 facet normal 0.0570427 0.991697 0.115253
  outer loop
   vertex 0.393746 -1.63072 -4.35564
   vertex -0.091242 -1.49058 -5.32143
   vertex -0.605173 -1.59219 -4.19275
  endloop
 endfacet
 facet normal -0.881175 0.471016 0.0409303
  outer loop
   vertex 1.86582 -0.573644 -1.742
   vertex 1.51985 -1.25711 -1.32507
   vertex 1.90002 -0.587111 -0.850718
  endloop
 endfacet
 facet normal 0.945608 0.290425 0.146553
  outer loop
   vertex -1.8242 -0.118697 -3.24522
   vertex -1.42037 -0.920485 -4.26192
   vertex -1.66429 -0.0396596 -4.43363
  endloop
 endfacet
 facet normal -0.983313 -0.172366 0.0581818
  outer loop
   vertex 1.97641 -4.8408e-16 -1.22519
   vertex 1.79672 0.667607 -2.28421
   vertex 1.90403 -4.66352e-16 -2.44845
  endloop
 endfacet
 facet normal -0.313088 0.945847 0.0857355
  outer loop
   vertex 0.966816 -1.65433 -2.29248
   vertex 0.247051 -1.92447 -1.94069
   vertex 0.747235 -1.83436 -1.10816
  endloop
 endfacet
 facet normal -0.904768 -0.409532 0.116952
  outer loop
   vertex 1.04953 1.21953 -4.75182
   vertex 1.11272 0.733444 -5.96512
   vertex 1.5853 -3.88287e-16 -4.8774
  endloop
 endfacet
 facet normal 0.973897 0.226651 0.0124155
  outer loop
   vertex -1.77995 -0.75957 -2.01924
   vertex -1.9821 0.0556461 -1.04459
   vertex -1.75322 -0.935733 -0.899971
  endloop
 endfacet
 facet normal -0.324734 0.943875 0.0603923
  outer loop
   vertex 0.407388 -1.79082 -3.16734
   vertex 0.247051 -1.92447 -1.94069
   vertex 0.966816 -1.65433 -2.29248
  endloop
 endfacet
 facet normal -0.908067 0.359364 0.215108
  outer loop
   vertex 1.30292 -3.19124e-16 -6.06946
   vertex 1.08211 -1.0555 -5.23827
   vertex 1.5853 -3.88287e-16 -4.8774
  endloop
 endfacet
 facet normal -0.732379 -0.513457 0.447194
  outer loop
   vertex 1.11272 0.733444 -5.96512
   vertex 0.358493 0.888505 -7.0223
   vertex 0.865466 -2.11978e-16 -7.21218
  endloop
 endfacet
 facet normal -0.896217 -0.281221 0.34309
  outer loop
   vertex 1.11272 0.733444 -5.96512
   vertex 0.865466 -2.11978e-16 -7.21218
   vertex 1.30292 -3.19124e-16 -6.06946
  endloop
 endfacet
 facet normal 0.434192 -0.895577 0.0970562
  outer loop
   vertex -0.479295 1.80136 -2.89936
   vertex -1.10307 1.47639 -3.10744
   vertex -0.69368 1.56014 -4.16612
  endloop
 endfacet
 facet normal 0.135147 -0.977288 0.163226
  outer loop
   vertex 0.226906 1.72899 -3.91734
   vertex -0.479295 1.80136 -2.89936
   vertex -0.69368 1.56014 -4.16612
  endloop
 endfacet
 facet normal -0.219615 0.875066 0.43131
  outer loop
   vertex 0.0570751 -1.25098 -6.23767
   vertex 0.58301 -0.636433 -7.21671
   vertex -0.218393 -0.878783 -7.13307
  endloop
 endfacet
 facet normal -0.703255 -0.687815 0.179842
  outer loop
   vertex 1.54329 0.86383 -3.73534
   vertex 1.38553 1.25096 -2.87164
   vertex 1.0203 1.50615 -3.32388
  endloop
 endfacet
 facet normal 0.744033 -0.567835 0.352105
  outer loop
   vertex -1.22839 0.372489 -6.13489
   vertex -0.766743 0.238112 -7.32711
   vertex -0.589796 1.04539 -6.39913
  endloop
 endfacet
 facet normal 0.415005 -0.908735 -0.044391
  outer loop
   vertex -0.292582 1.9765 -0.01
   vertex -1.3074 1.51305 -0.01
   vertex -1.07795 1.66608 -0.997625
  endloop
 endfacet
 facet normal 0.430704 -0.895989 0.108157
  outer loop
   vertex -1.04055 1.61944 -2.17135
   vertex -1.10307 1.47639 -3.10744
   vertex -0.479295 1.80136 -2.89936
  endloop
 endfacet
 facet normal -0.954277 0.255217 0.155625
  outer loop
   vertex 1.56216 -1.02257 -2.86777
   vertex 1.86582 -0.573644 -1.742
   vertex 1.90403 -4.66352e-16 -2.44845
  endloop
 endfacet
 facet normal -0.956909 -0.24745 0.151966
  outer loop
   vertex 1.54329 0.86383 -3.73534
   vertex 1.5853 -3.88287e-16 -4.8774
   vertex 1.77748 -4.35358e-16 -3.66727
  endloop
 endfacet
 facet normal -0.988716 0.137903 0.0585015
  outer loop
   vertex 1.90403 -4.66352e-16 -2.44845
   vertex 1.86582 -0.573644 -1.742
   vertex 1.97641 -4.8408e-16 -1.22519
  endloop
 endfacet
 facet normal -0.487732 -0.872006 0.0414968
  outer loop
   vertex 0.829091 1.81976 -0.01
   vertex 0.633195 1.87573 -1.13639
   vertex 0.835678 1.81608 -0.01
  endloop
 endfacet
 facet normal -0.487726 -0.87201 0.0414955
  outer loop
   vertex 0.835678 1.81608 -0.01
   vertex 0.633195 1.87573 -1.13639
   vertex 1.26103 1.53642 -0.887348
  endloop
 endfacet
 facet normal -0.955247 0.278688 0.0991783
  outer loop
   vertex 1.77748 -4.35358e-16 -3.66727
   vertex 1.56216 -1.02257 -2.86777
   vertex 1.90403 -4.66352e-16 -2.44845
  endloop
 endfacet
 facet normal 0.839276 0.53937 -0.0685213
  outer loop
   vertex -1.91714 -0.567602 -0.01
   vertex -1.31465 -1.5051 -0.01
   vertex -1.75322 -0.935733 -0.899971
  endloop
 endfacet
 facet normal 0.666818 0.432778 0.606678
  outer loop
   vertex -0.766743 0.238112 -7.32711
   vertex -0.218393 -0.878783 -7.13307
   vertex 1.22465e-16 -2.99952e-32 -8
  endloop
 endfacet
 facet normal 0.960669 -0.253943 0.112375
  outer loop
   vertex -1.8242 -0.118697 -3.24522
   vertex -1.66429 -0.0396596 -4.43363
   vertex -1.45763 0.937951 -3.9911
  endloop
 endfacet
 facet normal -0.968015 0.198277 0.15373
  outer loop
   vertex 1.5853 -3.88287e-16 -4.8774
   vertex 1.5641 -0.71176 -4.09287
   vertex 1.77748 -4.35358e-16 -3.66727
  endloop
 endfacet
 facet normal -0.365867 -0.910026 0.19492
  outer loop
   vertex 1.04953 1.21953 -4.75182
   vertex 0.226906 1.72899 -3.91734
   vertex 0.0800065 1.4395 -5.54466
  endloop
 endfacet
 facet normal 0.819022 -0.528253 0.223948
  outer loop
   vertex -1.47818 0.437132 -5.0973
   vertex -0.966756 1.14513 -5.29763
   vertex -1.45763 0.937951 -3.9911
  endloop
 endfacet
 facet normal -0.446013 -0.838609 0.312742
  outer loop
   vertex 1.11272 0.733444 -5.96512
   vertex 1.04953 1.21953 -4.75182
   vertex 0.0800065 1.4395 -5.54466
  endloop
 endfacet
 facet normal 0.135609 -0.977486 0.161652
  outer loop
   vertex 0.226906 1.72899 -3.91734
   vertex -0.69368 1.56014 -4.16612
   vertex 0.0800065 1.4395 -5.54466
  endloop
 endfacet
 facet normal 0.760053 -0.643955 0.0874141
  outer loop
   vertex -1.66963 0.84849 -2.80684
   vertex -1.45763 0.937951 -3.9911
   vertex -1.10307 1.47639 -3.10744
  endloop
 endfacet
 facet normal 0.962103 -0.224142 0.155298
  outer loop
   vertex -1.66963 0.84849 -2.80684
   vertex -1.8242 -0.118697 -3.24522
   vertex -1.45763 0.937951 -3.9911
  endloop
 endfacet
 facet normal -0.354811 -0.92634 0.126501
  outer loop
   vertex 0.226906 1.72899 -3.91734
   vertex 1.0203 1.50615 -3.32388
   vertex 0.388096 1.8581 -2.51978
  endloop
 endfacet
 facet normal 0.026211 -0.99569 0.088962
  outer loop
   vertex -0.479295 1.80136 -2.89936
   vertex 0.226906 1.72899 -3.91734
   vertex 0.388096 1.8581 -2.51978
  endloop
 endfacet
 facet normal 0.257474 0.917783 0.302292
  outer loop
   vertex -0.218393 -0.878783 -7.13307
   vertex -0.714673 -1.09898 -6.04183
   vertex 0.0570751 -1.25098 -6.23767
  endloop
 endfacet
 facet normal 0.0569007 0.991678 0.115485
  outer loop
   vertex 0.247051 -1.92447 -1.94069
   vertex 0.407388 -1.79082 -3.16734
   vertex -0.532751 -1.84412 -2.24644
  endloop
 endfacet
 facet normal 0.99818 0 -0.0603063
  outer loop
   vertex -1.91959 0.558604 -0.01
   vertex -1.91959 -0.557538 -0.01
   vertex -1.9821 0.0556461 -1.04459
  endloop
 endfacet
 facet normal 0.745751 -0.662473 0.0706003
  outer loop
   vertex -1.31559 1.50382 -0.01
   vertex -1.77069 0.908925 -0.785015
   vertex -1.3074 1.51305 -0.01
  endloop
 endfacet
 facet normal 0.745748 -0.662476 0.0706044
  outer loop
   vertex -1.3074 1.51305 -0.01
   vertex -1.77069 0.908925 -0.785015
   vertex -1.07795 1.66608 -0.997625
  endloop
 endfacet
 facet normal 0.968513 0.235414 0.0810126
  outer loop
   vertex -1.91959 -0.557538 -0.01
   vertex -1.91714 -0.567602 -0.01
   vertex -1.75322 -0.935733 -0.899971
  endloop
 endfacet
 facet normal 0.968513 0.235414 0.0810123
  outer loop
   vertex -1.75322 -0.935733 -0.899971
   vertex -1.9821 0.0556461 -1.04459
   vertex -1.91959 -0.557538 -0.01
  endloop
 endfacet
 facet normal -0.868484 -0.410208 0.278326
  outer loop
   vertex 1.04953 1.21953 -4.75182
   vertex 1.5853 -3.88287e-16 -4.8774
   vertex 1.54329 0.86383 -3.73534
  endloop
 endfacet
 facet normal -0.904197 -0.425291 0.0394275
  outer loop
   vertex 1.79672 0.667607 -2.28421
   vertex 1.90459 0.560011 -0.971051
   vertex 1.63412 1.11224 -1.217
  endloop
 endfacet
 facet normal -0.429136 -0.898993 0.0874836
  outer loop
   vertex 0.633195 1.87573 -1.13639
   vertex 0.388096 1.8581 -2.51978
   vertex 1.19771 1.51853 -2.03786
  endloop
 endfacet
 facet normal -0.902131 -0.430743 0.02491
  outer loop
   vertex 1.68479 1.07591 -0.01
   vertex 1.68211 1.08154 -0.01
   vertex 1.63412 1.11224 -1.217
  endloop
 endfacet
 facet normal -0.90213 -0.430744 0.0249099
  outer loop
   vertex 1.63412 1.11224 -1.217
   vertex 1.90459 0.560011 -0.971051
   vertex 1.68479 1.07591 -0.01
  endloop
 endfacet
 facet normal -0.850193 -0.520649 0.0780764
  outer loop
   vertex 1.54329 0.86383 -3.73534
   vertex 1.79672 0.667607 -2.28421
   vertex 1.38553 1.25096 -2.87164
  endloop
 endfacet
 facet normal -0.416628 0.900291 0.126081
  outer loop
   vertex 0.407388 -1.79082 -3.16734
   vertex 1.08392 -1.40179 -3.70968
   vertex 0.393746 -1.63072 -4.35564
  endloop
 endfacet
 facet normal 0.95787 -0.286691 0.0171306
  outer loop
   vertex -1.9821 0.0556461 -1.04459
   vertex -1.9113 0.224452 -2.17831
   vertex -1.69569 0.975646 -1.66256
  endloop
 endfacet
 facet normal 0.0606917 0.991 0.119316
  outer loop
   vertex -0.532751 -1.84412 -2.24644
   vertex 0.407388 -1.79082 -3.16734
   vertex -0.622345 -1.73074 -3.14252
  endloop
 endfacet
 facet normal -0.596438 0.802578 0.0114209
  outer loop
   vertex 0.966816 -1.65433 -2.29248
   vertex 0.747235 -1.83436 -1.10816
   vertex 1.51985 -1.25711 -1.32507
  endloop
 endfacet
 facet normal -0.730869 -0.671903 0.119904
  outer loop
   vertex 1.04953 1.21953 -4.75182
   vertex 1.54329 0.86383 -3.73534
   vertex 1.0203 1.50615 -3.32388
  endloop
 endfacet
 facet normal 0.773331 0.633539 0.0242314
  outer loop
   vertex -1.30951 -1.51137 -0.01
   vertex -1.27909 -1.49222 -1.48165
   vertex -1.31465 -1.5051 -0.01
  endloop
 endfacet
 facet normal 0.773323 0.633548 0.0242313
  outer loop
   vertex -1.31465 -1.5051 -0.01
   vertex -1.27909 -1.49222 -1.48165
   vertex -1.75322 -0.935733 -0.899971
  endloop
 endfacet
 facet normal 0.803938 0.59191 0.0576695
  outer loop
   vertex -1.27909 -1.49222 -1.48165
   vertex -1.28518 -1.33528 -3.00759
   vertex -1.77995 -0.75957 -2.01924
  endloop
 endfacet
 facet normal -0.468849 0.861329 0.195684
  outer loop
   vertex 0.393746 -1.63072 -4.35564
   vertex 1.08392 -1.40179 -3.70968
   vertex 1.08211 -1.0555 -5.23827
  endloop
 endfacet
 facet normal 0.796546 0.59986 0.0753904
  outer loop
   vertex -1.27909 -1.49222 -1.48165
   vertex -1.77995 -0.75957 -2.01924
   vertex -1.75322 -0.935733 -0.899971
  endloop
 endfacet
 facet normal 0.626922 0.771796 0.106295
  outer loop
   vertex -0.911543 -1.19274 -5.28614
   vertex -1.42037 -0.920485 -4.26192
   vertex -0.605173 -1.59219 -4.19275
  endloop
 endfacet
 facet normal -0.487411 -0.872238 0.0403896
  outer loop
   vertex 1.26103 1.53642 -0.887348
   vertex 0.633195 1.87573 -1.13639
   vertex 1.19771 1.51853 -2.03786
  endloop
 endfacet
 facet normal -0.645913 0.281615 0.70957
  outer loop
   vertex 0.865466 -2.11978e-16 -7.21218
   vertex 1.22465e-16 -2.99952e-32 -8
   vertex 0.58301 -0.636433 -7.21671
  endloop
 endfacet
 facet normal 0.882776 0.428668 0.192223
  outer loop
   vertex -1.28518 -1.33528 -3.00759
   vertex -1.8242 -0.118697 -3.24522
   vertex -1.77995 -0.75957 -2.01924
  endloop
 endfacet
 facet normal -0.879075 0.474261 0.0479924
  outer loop
   vertex 1.86582 -0.573644 -1.742
   vertex 1.56216 -1.02257 -2.86777
   vertex 1.51985 -1.25711 -1.32507
  endloop
 endfacet
 facet normal -0.681698 0.72587 0.0916586
  outer loop
   vertex 1.56216 -1.02257 -2.86777
   vertex 0.966816 -1.65433 -2.29248
   vertex 1.51985 -1.25711 -1.32507
  endloop
 endfacet
 facet normal 0.344455 -0.938566 0.0210874
  outer loop
   vertex -0.284654 1.97941 -0.01
   vertex -0.292582 1.9765 -0.01
   vertex -1.07795 1.66608 -0.997625
  endloop
 endfacet
 facet normal 0.344459 -0.938564 0.0210835
  outer loop
   vertex -0.284654 1.97941 -0.01
   vertex -1.07795 1.66608 -0.997625
   vertex -0.28808 1.94594 -1.44411
  endloop
 endfacet
 facet normal -0.490617 0.871012 0.0251387
  outer loop
   vertex 0.830076 -1.8194 -0.01
   vertex 0.837392 -1.81528 -0.01
   vertex 1.19271 -1.59951 -0.55149
  endloop
 endfacet
 facet normal -0.490614 0.871014 0.0251418
  outer loop
   vertex 1.19271 -1.59951 -0.55149
   vertex 0.747235 -1.83436 -1.10816
   vertex 0.830076 -1.8194 -0.01
  endloop
 endfacet
 facet normal -0.573247 0.811049 0.116567
  outer loop
   vertex 0.747235 -1.83436 -1.10816
   vertex 1.19271 -1.59951 -0.55149
   vertex 1.51985 -1.25711 -1.32507
  endloop
 endfacet
 facet normal 0.0608952 0.98944 0.131529
  outer loop
   vertex 0.407388 -1.79082 -3.16734
   vertex -0.605173 -1.59219 -4.19275
   vertex -0.622345 -1.73074 -3.14252
  endloop
 endfacet
 facet normal -0.935774 -0.274207 0.221671
  outer loop
   vertex 1.30292 -3.19124e-16 -6.06946
   vertex 1.5853 -3.88287e-16 -4.8774
   vertex 1.11272 0.733444 -5.96512
  endloop
 endfacet
 facet normal -0.486571 -0.844635 0.22325
  outer loop
   vertex 1.11272 0.733444 -5.96512
   vertex 0.0800065 1.4395 -5.54466
   vertex 0.358493 0.888505 -7.0223
  endloop
 endfacet
 facet normal -0.989833 0.140953 0.0190614
  outer loop
   vertex 1.99981 -4.89812e-16 -0.01
   vertex 1.97641 -4.8408e-16 -1.22519
   vertex 1.99882 -0.00690135 -0.01
  endloop
 endfacet
 facet normal -0.989834 0.140944 0.0190613
  outer loop
   vertex 1.99882 -0.00690135 -0.01
   vertex 1.97641 -4.8408e-16 -1.22519
   vertex 1.90002 -0.587111 -0.850718
  endloop
 endfacet
 facet normal -0.985215 -0.157229 0.0680468
  outer loop
   vertex 1.79672 0.667607 -2.28421
   vertex 1.97641 -4.8408e-16 -1.22519
   vertex 1.90459 0.560011 -0.971051
  endloop
 endfacet
 facet normal -0.990567 -0.135693 0.0190753
  outer loop
   vertex 1.99981 -4.89812e-16 -0.01
   vertex 1.99902 0.00576706 -0.01
   vertex 1.90459 0.560011 -0.971051
  endloop
 endfacet
 facet normal -0.990567 -0.135692 0.0190755
  outer loop
   vertex 1.99981 -4.89812e-16 -0.01
   vertex 1.90459 0.560011 -0.971051
   vertex 1.97641 -4.8408e-16 -1.22519
  endloop
 endfacet
 facet normal -0.591786 -0.4766 0.650109
  outer loop
   vertex 0.358493 0.888505 -7.0223
   vertex 1.22465e-16 -2.99952e-32 -8
   vertex 0.865466 -2.11978e-16 -7.21218
  endloop
 endfacet
 facet normal 0.0382701 -0.998997 0.0232257
  outer loop
   vertex -0.284654 1.97941 -0.01
   vertex -0.28808 1.94594 -1.44411
   vertex -0.277521 1.97968 -0.01
  endloop
 endfacet
 facet normal 0.0382617 -0.998998 0.0232257
  outer loop
   vertex -0.277521 1.97968 -0.01
   vertex -0.28808 1.94594 -1.44411
   vertex 0.202245 1.98237 -0.68493
  endloop
 endfacet
endsolid
