5.38034661146 8.20766700687 8.10000038147
5.92713521263 8.06535544787 8.10000038147
3.23090840951 6.20338422382 8.10000038147
3.26241993904 6.75970983505 8.10000038147
3.51820959514 7.26414479453 8.10000038147
3.82177895008 7.73970676829 8.10000038147
7.89313057664 6.96085653208 8.10000038147
8.31697324199 6.5850615777 8.10000038147
6.95254809981 7.58923485797 8.10000038147
7.42349369901 7.27683292602 8.10000038147
7.91646543966 3.52868123066 8.10000038147
7.42762608216 3.2485070356 8.10000038147
6.45243732399 7.85430695169 8.10000038147
5.2508756887 2.67196932321 8.10000038147
4.70372413912 2.74492992478 8.10000038147
8.69133614272 5.55194071831 8.10000038147
8.70127624877 4.98601367043 8.10000038147
3.24849603504 5.07441402837 8.10000038147
3.27085167133 5.63938895161 8.10000038147
8.60201541528 6.10681636223 8.10000038147
3.39846743006 4.53590429235 8.10000038147
8.56656074267 4.43653964215 8.10000038147
3.88282057175 3.51438918387 8.10000038147
3.62279239086 4.01571573703 8.10000038147
4.28283616182 8.05720362723 8.10000038147
4.81892557054 8.23320446664 8.10000038147
4.2543027503 3.08782365429 8.10000038147
5.80309109404 2.79064376695 8.10000038147
8.30345218891 3.93911513043 8.10000038147
6.8838217691 3.09781974996 8.10000038147
6.3321918674 2.98089118079 8.10000038147
