<?xml version="1.0"?>
<VTKFile type="PolyData" version="0.1" byte_order="LittleEndian" compressor="vtkZLibDataCompressor">
  <PolyData>
    <Piece NumberOfPoints="426" NumberOfVerts="0" NumberOfLines="0" NumberOfStrips="0" NumberOfPolys="801">
      <PointData Vectors="Normals">
        <DataArray type="Float32" Name="Normals" NumberOfComponents="3" format="ascii" RangeMin="0.99999996132" RangeMax="1.0000000382">
          0.21092401445 0.96551167965 0.15263785422 0.31721076369 0.91911172867 0.2336897701
          0.4996547401 0.85348874331 0.1479934901 0.47178599238 0.84620702267 0.24769259989
          -0.082817040384 0.97565293312 0.20308293402 -0.015121198259 0.96910721064 0.2461758405
          0.12716320157 0.95865476131 0.25457918644 -0.32002320886 0.89553236961 0.30920368433
          -0.19034305215 0.93329238892 0.30452397466 -0.29766735435 0.88665890694 0.35387864709
          -0.40883603692 0.82408106327 0.39210140705 -0.47915744781 0.79164284468 0.37909069657
          -0.48070561886 0.77608603239 0.40818205476 -0.56045013666 0.73830509186 0.37523496151
          -0.67708742619 0.59593766928 0.43175336719 -0.57610285282 0.69866240025 0.4242361784
          -0.62237811089 0.62996840477 0.46452695131 -0.53512388468 0.72721534967 0.42988395691
          -0.84755921364 0.34057822824 0.40700104833 -0.77609652281 0.44613328576 0.44568970799
          -0.70033729076 0.54175418615 0.46479040384 -0.96923202276 -0.10249646753 0.22379405797
          -0.94430315495 0.037324883044 0.32695329189 -0.94146150351 0.024650702253 0.33621805906
          -0.92912971973 0.076304130256 0.36179503798 -0.89130246639 0.21521618962 0.39907634258
          -0.95998334885 -0.2710159719 0.070585370064 -0.97713690996 -0.16888082027 0.1291616559
          -0.9762250185 -0.052816808224 0.21022625268 -0.96021300554 -0.27910450101 -0.0095758410171
          -0.898655653 -0.42841804028 -0.094212368131 -0.93539559841 -0.34725767374 -0.066687352955
          -0.77746325731 -0.60181939602 -0.18265907466 -0.8208681345 -0.53863185644 -0.18987156451
          -0.9015763402 -0.41026318073 -0.1372743845 -0.71403819323 -0.66227793694 -0.22701847553
          -0.78771346807 -0.58766072989 -0.18483066559 -0.53732991219 -0.80159980059 -0.26213407516
          -0.62422257662 -0.74500471354 -0.23518951237 -0.71757864952 -0.66034841537 -0.2214064151
          -0.48065003753 -0.83421254158 -0.27030536532 -0.28218233585 -0.91714245081 -0.2814655602
          -0.36134499311 -0.89796286821 -0.25118210912 0.028859525919 -0.96874320507 -0.24638129771
          -0.047191720456 -0.95733726025 -0.28509345651 -0.21804660559 -0.93940252066 -0.26453468204
          0.17250791192 -0.95747321844 -0.23127064109 0.30690735579 -0.93394905329 -0.18315853179
          0.30179435015 -0.93389368057 -0.19173622131 0.54228061438 -0.83046108484 -0.12753869593
          0.43078166246 -0.88879954815 -0.15640507638 0.52679258585 -0.84137690067 -0.12072507292
          0.63345754147 -0.76726698875 -0.10016432405 0.71593433619 -0.69423246384 -0.074022479355
          0.72237175703 -0.68691563606 -0.07953594625 0.79744660854 -0.60300600529 -0.02150914073
          0.82823967934 -0.55995005369 -0.021794838831 0.78051495552 -0.62444239855 -0.029464043677
          0.92831003666 -0.37066808343 0.029080333188 0.9038502574 -0.42683666945 0.02941419743
          0.99150544405 -0.091709338129 0.092230066657 0.96878057718 -0.24754349887 0.013651981018
          0.99364751577 -0.094847120345 0.060569275171 0.97519665956 0.027051417157 0.21968099475
          0.98649060726 0.023743046448 0.16208796203 0.98915410042 -0.0075511089526 0.14668726921
          0.95510470867 0.19524866343 0.22282931209 0.97830486298 0.092073149979 0.18558591604
          0.96118080616 0.16106250882 0.22403205931 0.9323105216 0.2859723866 0.22139762342
          0.8701813221 0.46314293146 0.16817578673 0.87834876776 0.40632098913 0.251806885
          0.77644908428 0.59232443571 0.21512459219 0.69539803267 0.71442872286 0.077544800937
          0.71008205414 0.68155986071 0.17680381238 0.63469952345 0.74094611406 0.21944341063
          0.96270030737 -0.22857987881 0.14477337897 0.95434403419 0.15567193925 0.25493857265
          0.90985018015 0.38922226429 0.14380088449 0.62511324883 -0.77562725544 -0.087382912636
          0.4009745121 -0.90768635273 -0.12379398942 -0.70927870274 0.61295557022 0.34815102816
          -0.95875567198 -0.23907192051 0.15372765064 -0.90352618694 -0.42853286862 -0.00022055977024
          -0.22731420398 0.9556787014 0.18710012734 -0.42236557603 0.86869460344 0.25879919529
          -0.30176076293 -0.92220532894 -0.24182185531 -0.60747796297 -0.75943696499 -0.23286487162
          0.46618655324 0.88463020325 -0.0099762491882 0.18918161094 0.98066788912 0.050008311868
          0.078386589885 -0.98110723495 -0.17687317729 -0.95179116726 0.056553855538 0.30148839951
          -0.8971862793 0.34450435638 0.27635765076 -0.57815134525 0.77596771717 0.25222039223
          -0.76603764296 0.61602193117 0.1835847348 -0.95398163795 0.2968301475 0.042554162443
          -0.98880505562 -0.027258047834 0.14670236409 -0.63559120893 0.7652207613 0.10227884352
          -0.83101189137 0.55333465338 -0.056921236217 -0.94208294153 0.24806378782 -0.22570793331
          -0.99233621359 -0.055920515209 -0.11018976569 -0.94795024395 -0.31780233979 0.019800566137
          -0.95508205891 -0.010100628249 -0.29616931081 -0.94279277325 -0.28175213933 -0.17820629478
          -0.86311906576 0.45057785511 -0.22804626822 -0.73352950811 0.67542880774 -0.07569963485
          -0.44314903021 0.87832218409 0.17935748398 -0.52194625139 0.84824055433 0.089778155088
          -0.87410318851 -0.48247727752 -0.05620752275 -0.88518279791 -0.4644767344 0.026697220281
          -0.94178110361 -0.20804463327 -0.26413214207 -0.87859380245 -0.44535776973 -0.17242223024
          -0.81546866894 -0.57782834768 -0.033545594662 -0.79139959812 -0.60590225458 -0.081050246954
          -0.9051913619 -0.37560501695 -0.19887042046 -0.80670535564 -0.57809996605 -0.12258436531
          -0.96694272757 0.018657179549 -0.25431013107 -0.96311175823 -0.17434737086 -0.20498479903
          -0.92490911484 -0.33684375882 -0.17629367113 -0.86522763968 -0.47548633814 -0.15904054046
          -0.96903866529 -0.16703785956 -0.18183079362 -0.98083019257 0.026654757559 -0.19303287566
          -0.69600057602 -0.71549880505 -0.060371201485 -0.77915030718 -0.61304587126 -0.13076557219
          -0.6891078949 -0.72294336557 -0.049831774086 -0.63451141119 -0.76472425461 -0.11221461743
          -0.85256487131 -0.49609097838 -0.16439846158 -0.71515166759 -0.67958199978 -0.16348206997
          -0.5299128294 -0.84802728891 -0.0064907362685 -0.56741839647 -0.82330346107 -0.014413094148
          -0.42479592562 -0.89805352688 -0.11422923207 -0.51246541739 -0.83951634169 -0.18053126335
          -0.78143978119 -0.60002267361 -0.17124433815 -0.60689043999 -0.77523374557 -0.17520444095
          -0.33624482155 -0.91874682903 -0.20698726177 -0.24806304276 -0.94682103395 -0.20492596924
          -0.29454836249 -0.95552068949 0.014880725183 -0.15441307425 -0.98160940409 -0.11224792153
          0.025355687365 -0.97642409801 -0.21436662972 -0.048536781222 -0.97031384706 -0.23692861199
          -0.49420323968 -0.85661256313 -0.1482500881 -0.13527473807 -0.9793022871 -0.15055839717
          0.19590069354 -0.94926786423 -0.24599480629 0.13906149566 -0.97645813227 -0.16489805281
          0.11409110576 -0.99219667912 -0.050288796425 0.27201867104 -0.94551473856 -0.17890703678
          0.35158312321 -0.91340428591 -0.20513880253 0.41564318538 -0.87866193056 -0.23493404686
          0.014987559989 -0.99384856224 -0.10972871631 -0.28387892246 -0.94799548388 -0.14393514395
          0.33934625983 -0.93921303749 0.052182268351 0.4808062613 -0.86872798204 -0.11889946461
          0.60117483139 -0.77353864908 -0.20056599379 0.54571282864 -0.81174594164 -0.20800502598
          0.53013348579 -0.83342319727 0.15609054267 0.66120654345 -0.74897181988 -0.042978160083
          0.76078635454 -0.63522881269 -0.13299793005 0.70401608944 -0.68257653713 -0.19608810544
          0.50736242533 -0.84964203835 -0.14384630322 0.67561161518 -0.71826767921 -0.1662542969
          0.84864354134 -0.50967496634 -0.14154724777 0.80644023418 -0.56497877836 -0.17450839281
          0.79636585712 -0.57699328661 -0.18132889271 0.66850733757 -0.7284463048 -0.14987967908
          0.91383081675 -0.3640871644 -0.17987146974 0.94528198242 -0.29975357652 -0.12880139053
          0.90269696712 -0.42944335938 -0.026768986136 0.97826182842 -0.20478315651 -0.032675266266
          0.99452877045 -0.0037282828707 -0.10439653695 0.99552673101 0.091303773224 -0.024292357266
          0.9861484766 -0.13053478301 0.10233233124 0.98427283764 0.16239582002 0.069531165063
          0.94049984217 0.33864730597 0.027893329039 0.91643756628 0.39656117558 0.053678788245
          0.9609323144 0.18156582117 0.20890887082 0.89587450027 0.42578455806 0.12695039809
          0.84580916166 0.52621275187 0.087789319456 0.82609295845 0.55619561672 0.090647123754
          0.94173693657 -0.18650196493 0.27990818024 0.91818541288 -0.37168893218 0.13705047965
          0.96478682756 -0.17586965859 -0.19559212029 0.98466253281 0.0794172436 -0.15534675121
          0.95506948233 0.29627135396 -0.0080976001918 0.80006217957 0.57290905714 0.17797669768
          0.85130852461 0.46009069681 0.2521713376 0.76667255163 0.62908750772 0.12830486894
          0.77992415428 0.61834579706 0.096782065928 0.75381612778 0.58006119728 0.3086912334
          0.72160291672 0.63357067108 0.27906537056 0.70966333151 0.69828927517 0.093648694456
          0.69005513191 0.7014709115 0.17822051048 0.79441380501 0.59361487627 0.12856172025
          0.70095610619 0.70575588942 0.10280617326 0.5304210186 0.84164601564 0.10141755641
          0.52444857359 0.85061794519 0.03745386377 0.67071950436 0.73719912767 0.081686809659
          0.47068870068 0.88209587336 0.018949288875 0.18586282432 0.97900724411 -0.083664774895
          0.24818304181 0.96865195036 -0.010889342055 -0.64860862494 0.76014006138 -0.038651652634
          -0.84955340624 0.49510133266 -0.18202672899 0.50528693199 0.82712572813 0.24606525898
          0.26357868314 0.95762366056 0.11611709744 0.0074066668749 0.9992710948 -0.037449553609
          -0.05443475768 0.98553478718 -0.16049306095 0.074904069304 0.98540574312 -0.15285594761
          -0.16256971657 0.95310664177 -0.25526219606 -0.2963989079 0.90101695061 -0.31672722101
          -0.22808086872 0.95616412163 -0.18365547061 -0.27658757567 0.91642153263 -0.28925922513
          -0.39612925053 0.83374458551 -0.38464468718 -0.4659191072 0.76176697016 -0.45014491677
          -0.42284658551 0.85157543421 -0.30987098813 -0.49789938331 0.80081510544 -0.33285340667
          -0.55737262964 0.69928610325 -0.4475876689 0.0074688917957 0.99279302359 0.11960858852
          0.24844050407 0.92535436153 0.28635054827 -0.57868438959 0.69988512993 -0.4186707437
          -0.58952832222 0.60857719183 -0.5311216116 -0.68474012613 0.55376392603 -0.47378945351
          -0.66128993034 0.66875708103 -0.33979341388 -0.53819739819 0.78899651766 -0.29635801911
          -0.32248181105 0.89892691374 -0.29653990269 -0.72337341309 0.61539161205 -0.31308797002
          -0.79700678587 0.47811874747 -0.36902925372 -0.29673275352 0.88866597414 -0.34960332513
          -0.53399121761 0.76113826036 -0.36813303828 -0.74372315407 0.5262247324 -0.41226613522
          -0.85371941328 0.37085697055 -0.36555203795 -0.7940582633 0.35165026784 -0.49579590559
          -0.87424236536 0.2576200068 -0.41149997711 -0.85530585051 0.28725850582 -0.43120113015
          -0.9039182663 0.16261699796 -0.39558506012 -0.51875013113 0.69878232479 -0.49254599214
          -0.24698911607 0.85642409325 -0.45335873961 0.05395161733 0.9126676321 -0.4051258564
          3.497677244e-05 0.94611603022 -0.32382777333 -0.89747405052 0.032394140959 -0.43987601995
          -0.85454851389 0.14214333892 -0.4995418489 -0.91957104206 -0.031389568001 -0.39166790247
          -0.90422773361 0.1189403981 -0.41015288234 0.72337716818 0.63204967976 0.27791845798
          0.64376038313 0.69327718019 0.32394343615 0.6672295332 0.67216396332 0.32093667984
          -0.80755668879 0.19774244726 -0.55565285683 -0.70626491308 0.42242228985 -0.56811028719
          -0.39388969541 0.91322332621 0.10427893698 -0.29056248069 0.94145011902 0.17101210356
          0.18708880246 -0.97030287981 0.15332995355 0.42233201861 -0.86921542883 0.25709956884
          -0.87098914385 -0.044353179634 -0.48929610848 -0.88076835871 -0.099766395986 -0.46291878819
          0.89341849089 0.31584152579 0.31944873929 0.81510961056 0.50137245655 0.29021030664
          0.6850129962 -0.68575900793 0.24595077336 0.58120840788 -0.73829323053 0.34222784638
          -0.51144111156 0.85841053724 -0.039488747716 -0.71655958891 0.68313747644 -0.14094516635
          0.89511585236 -0.38929969072 -0.21728634834 0.80110937357 -0.56850898266 -0.18714000285
          -0.21829433739 0.81621962786 -0.53491407633 0.079127348959 0.88164079189 -0.46524012089
          0.39650419354 0.8611921072 -0.31801351905 0.44041824341 0.823176682 -0.35834613442
          0.10606644303 0.84173262119 -0.52937328815 0.49687081575 0.76890575886 -0.40237215161
          0.79068028927 0.5516435504 -0.26554477215 0.72273916006 0.64272868633 -0.2540627718
          0.63499373198 0.59519195557 -0.49247285724 0.86448985338 0.39424264431 -0.31181737781
          0.92479711771 0.32916492224 -0.19078986347 0.96396625042 0.18764194846 -0.18857239187
          0.96804559231 0.080934353173 -0.23735500872 0.912715137 0.18646687269 -0.36356726289
          0.24238741398 0.71218162775 -0.65882140398 -0.18411411345 0.76719737053 -0.61441856623
          0.47070088983 -0.87634640932 -0.1022624895 0.68003422022 -0.72044169903 -0.13607798517
          0.89542299509 -0.40906825662 -0.17572954297 0.80984038115 -0.57059204578 -0.13632047176
          0.48443239927 -0.8687505722 -0.10294508934 0.67376613617 -0.73118525743 -0.10680466145
          0.66503304243 0.71910309792 -0.20154842734 0.86769944429 0.46457314491 -0.17683161795
          0.97069340944 0.16444090009 -0.1752525717 0.98718231916 0.011128583923 -0.15920825303
          0.89965450764 -0.41890650988 -0.12304117531 0.80072742701 -0.58841145039 -0.1122834608
          0.41040930152 -0.90443021059 -0.1164913848 0.63129627705 -0.76031535864 -0.15292346478
          -0.50277370214 0.64279133081 -0.57796013355 -0.73699098825 0.43818187714 -0.51462697983
          0.89513647556 -0.41653451324 -0.15883851051 0.75674676895 -0.60567039251 -0.2459629029
          0.27557247877 -0.93784874678 -0.21094927192 0.55108898878 -0.76088446379 -0.34257227182
          0.20850239694 -0.97113728523 -0.11584112048 -0.0032176459208 -0.98265075684 -0.18543758988
          0.84189027548 -0.40455985069 -0.35714438558 0.64062780142 -0.6011826992 -0.47767701745
          0.16391541064 -0.89856117964 -0.40708661079 0.33741647005 -0.71493375301 -0.61238861084
          0.37749457359 -0.48134806752 -0.79107642174 0.65528780222 -0.44506168365 -0.6103425622
          -0.28039869666 -0.73919916153 -0.61234074831 -0.19338400662 -0.41611242294 -0.88851171732
          0.35305896401 -0.12640613317 -0.92702257633 -0.21735459566 -0.047652225941 -0.9749288559
          -0.59812104702 0.04326788336 -0.80023694038 -0.69032078981 -0.19882290065 -0.69564837217
          -0.28946188092 -0.90694367886 -0.30604737997 -0.72088974714 -0.53049200773 -0.44597777724
          0.80980968475 0.58526498079 0.040904983878 0.87660318613 0.4773811698 0.060614023358
          0.87051331997 0.48234280944 0.097734063864 -0.86492174864 -0.059406336397 -0.49837866426
          -0.75228321552 0.16128264368 -0.63879406452 -0.87053793669 -0.33696520329 -0.35863372684
          -0.67083501816 -0.67265754938 -0.31226944923 -0.836822927 0.25234678388 -0.4858482182
          -0.90948826075 -0.0097073307261 -0.41561627388 -0.62447947264 -0.75315862894 -0.20682710409
          -0.75465518236 -0.61406445503 -0.23112852871 -0.70031839609 -0.69028520584 -0.18182525039
          -0.55290430784 -0.77201998234 -0.3134995997 -0.17831711471 -0.96456670761 -0.19445836544
          -0.011073383503 0.96968311071 -0.24411475658 0.38747361302 0.91784721613 -0.08614321053
          0.36022153497 -0.92208814621 0.14139991999 0.56304252148 -0.80348658562 0.19337128103
          0.7002248168 -0.67092788219 0.24401012063 0.70740944147 -0.59129971266 0.38721638918
          -0.59989476204 0.23948179185 -0.76339685917 -0.20365658402 0.33704423904 -0.9191980958
          -0.2705963254 0.96136444807 0.050557065755 -0.14159247279 0.96842491627 0.20519447327
          -0.87027752399 -0.31722530723 -0.37680914998 -0.90600514412 -0.26942232251 -0.32644492388
          -0.85917371511 0.47008278966 -0.2020957768 -0.94986283779 0.23760560155 -0.20323438942
          -0.92754930258 0.24042029679 -0.28609508276 -0.56620669365 0.7769318819 -0.27529406548
          -0.37947207689 0.91245317459 -0.15306909382 -0.70610570908 0.50983971357 -0.49140426517
          -0.7673342824 0.56057238579 -0.31137862802 0.2376858592 -0.96726834774 -0.088867127895
          0.091056503356 -0.99015599489 -0.10630070418 -0.60908550024 -0.7875778079 -0.093466795981
          -0.73183834553 -0.67788273096 -0.069911949337 -0.41785931587 -0.90565621853 -0.071975238621
          -0.37010300159 -0.92793941498 0.044183932245 -0.13506008685 -0.97199463844 -0.19231531024
          -0.493362993 -0.80133843422 -0.33830413222 -0.77746814489 -0.45902729034 -0.42992705107
          -0.82341754436 -0.42632937431 -0.37446865439 0.78436779976 -0.082987308502 -0.61471962929
          0.37390363216 0.40655314922 -0.83361297846 -0.051403649151 0.98214197159 0.18098278344
          -0.24002727866 0.95455348492 0.17667634785 -0.018992578611 0.97371667624 0.22696937621
          0.1065730527 0.9575676918 0.26778036356 -0.7653208375 -0.52502518892 -0.37233388424
          -0.44507285953 -0.85036343336 -0.2806995213 0.11600523442 -0.98919391632 0.089656129479
          -0.088147506118 -0.99085915089 0.1021181494 -0.035021364689 -0.99814909697 0.04971774295
          0.50283670425 -0.86433190107 -0.0092513030395 0.1757889986 -0.98319524527 -0.049247279763
          0.17807784677 0.97564274073 0.12809962034 -0.034236248583 0.99224114418 0.11952126771
          0.35979005694 0.89619231224 0.25959661603 -0.91537284851 -0.041134890169 -0.40050029755
          -0.84306585789 0.20674818754 -0.49648275971 -0.96211856604 0.054523725063 -0.26712363958
          -0.94953393936 -0.20559734106 -0.23688617349 0.80867874622 0.58183008432 -0.086673952639
          0.92315077782 0.37473502755 -0.08582688123 0.96875733137 -0.1523001045 -0.19573944807
          0.64723861217 0.759503901 -0.065084986389 0.35703927279 0.90629786253 -0.22615741193
          0.95638430119 -0.25022578239 -0.15071871877 0.97660195827 -0.15812267363 -0.14575946331
          -0.87667554617 0.33679589629 -0.34352362156 -0.52866280079 0.83726513386 -0.139652282
          -0.18122878671 0.98279815912 -0.035551752895 -0.87857031822 -0.20871916413 -0.42959347367
          -0.87732028961 -0.17849013209 -0.44547766447 0.82476222515 -0.48364511132 0.29300972819
          0.81250816584 -0.58068537712 0.051332082599 0.84673023224 -0.36036393046 0.39138954878
          0.81583368778 -0.48419120908 0.31618708372 0.6862911582 -0.72665584087 0.031237725168
          0.85124987364 -0.51263004541 0.11217910051 0.9076114893 -0.19433432817 0.37212300301
          0.90880632401 -0.31938570738 0.26844713092 -0.88688564301 -0.41589328647 -0.20116324723
          -0.83514690399 -0.49796420336 -0.23358370364 -0.49864590168 -0.84939414263 -0.17286381125
          -0.68638068438 -0.71285015345 -0.14396578074 -0.14156782627 -0.9899135232 0.0054608527571
          -0.19170312583 -0.97082668543 -0.14403277636 0.92274439335 -0.022737946361 -0.3847411871
          0.95869445801 -0.13914376497 -0.24808064103 -0.09577909857 0.65193784237 -0.75219905376
          -0.44278007746 0.54731839895 -0.71020305157 0.90635353327 -0.42080637813 0.038016650826
          -0.70561915636 0.67337733507 -0.22060036659 -0.93495929241 0.27299961448 -0.22654439509
          0.76532328129 0.33588442206 -0.54905545712 0.93656784296 -0.0027629612014 0.35047546029
          0.91725003719 0.20267981291 0.34288966656 0.95171022415 -0.0097710657865 0.30684235692
          -0.70957589149 0.35555446148 -0.6083445549 -0.89713805914 -0.23659813404 -0.37304770947
          0.51762884855 0.77876979113 0.35436984897 -0.9268117547 -0.33282017708 -0.17392729223
          0.4278357327 0.90213537216 0.055752329528 0.59198850393 0.78290086985 0.19135269523
          0.31213387847 -0.94622826576 -0.084997184575 0.32966601849 -0.93612676859 -0.12242140621
          0.63336122036 0.7738558054 -0.00084405217785 0.71376031637 0.69044739008 0.1175948903
          0.78589469194 0.61810928583 0.017618082464 0.811429739 0.57068055868 0.12611690164
          -0.81708186865 -0.57203549147 -0.071781970561 0.91669869423 0.32606068254 0.2309717983
        </DataArray>
      </PointData>
      <CellData>
      </CellData>
      <Points>
        <DataArray type="Float32" Name="Points" NumberOfComponents="3" format="ascii" RangeMin="0.86217053548" RangeMax="4.7809673588">
          0.19514140487 1.0038905144 -0.25352621078 0.32980805635 0.89850878716 -0.021851668134
          0.45377030969 0.89116060734 -0.22077390552 0.35352218151 0.88882559538 -0.021851668134
          -0.18011939526 1.0276246071 -0.28133291006 0.0076563591138 0.96464037895 -0.021851668134
          0.038266066462 0.96317642927 -0.021851668134 -0.49822199345 0.94163680077 -0.24241580069
          -0.29105782509 0.92033272982 -0.021851668134 -0.31823217869 0.91403222084 -0.021851668134
          -0.59020853043 0.79105591774 -0.021851668134 -0.71930378675 0.8090941906 -0.20396089554
          -0.61217623949 0.77966845036 -0.021851668134 -0.92661619186 0.72627270222 -0.32255101204
          -1.0537240505 0.52960652113 -0.18308180571 -0.86821746826 0.59183877707 -0.021851668134
          -0.88662129641 0.57580780983 -0.021851668134 -0.84847426414 0.60639214516 -0.021851668134
          -1.2520885468 0.30499410629 -0.26586419344 -1.0945436954 0.3352907896 -0.021851668134
          -1.0772471428 0.3608725667 -0.021851668134 -1.2837610245 -0.20019710064 -0.22127090394
          -1.3178896904 0.0086380997673 -0.30106279254 -1.207030654 0.010353676043 -0.021851668134
          -1.2072794437 0.031626015902 -0.021851668134 -1.2030172348 0.055745653808 -0.021851668134
          -1.2398045063 -0.45830070972 -0.28236079216 -1.2317814827 -0.30548164248 -0.021851668134
          -1.236308217 -0.2835316062 -0.021851668134 -1.1994924545 -0.60592508316 -0.021851668134
          -1.1388401985 -0.71903091669 -0.27882501483 -1.1916227341 -0.62620162964 -0.021851668134
          -0.99074262381 -0.94158959389 -0.37318021059 -1.0810904503 -0.92774623632 -0.021851668134
          -1.0907953978 -0.91059553623 -0.021851668134 -0.89846640825 -1.1128307581 -0.21105250716
          -1.0672197342 -0.94613736868 -0.021851668134 -0.70614492893 -1.2674654722 -0.24947370589
          -0.87617218494 -1.1968611479 -0.021851668134 -0.89311307669 -1.1820846796 -0.021851668134
          -0.64055782557 -1.3790100813 -0.021851668134 -0.46899458766 -1.4000740051 -0.20072829723
          -0.61627024412 -1.3908456564 -0.021851668134 -0.1861820966 -1.4212200642 -0.25414079428
          -0.3128734231 -1.4841502905 -0.021851668134 -0.34048962593 -1.4802730083 -0.021851668134
          -0.01689856872 -1.4468282461 -0.021851668134 0.1192400977 -1.3599896431 -0.24548199773
          0.0097269928083 -1.4412927628 -0.021851668134 0.4014261961 -1.2144043446 -0.26052638888
          0.28205445409 -1.3204302788 -0.021851668134 0.30664151907 -1.3079960346 -0.021851668134
          0.5457084775 -1.1264426708 -0.021851668134 0.60262340307 -1.0454585552 -0.23292499781
          0.56301832199 -1.1115474701 -0.021851668134 0.7373238802 -0.87822961807 -0.38588151336
          0.75859171152 -0.86094015837 -0.021851668134 0.74511659145 -0.87731015682 -0.021851668134
          0.85471069813 -0.67374497652 -0.21297420561 0.76959943771 -0.84080213308 -0.021851668134
          0.90479159355 -0.41285660863 -0.15566830337 0.87879228592 -0.56895959377 -0.021851668134
          0.88480871916 -0.53674817085 -0.021851668134 0.92681288719 -0.12687839568 -0.28104630113
          0.88650423288 -0.22157010436 -0.021851668134 0.88615006208 -0.25528410077 -0.021851668134
          0.88658857346 0.24891470373 -0.25560370088 0.85816299915 0.080104954541 -0.021851668134
          0.85530030727 0.11049471051 -0.021851668134 0.78421843052 0.40168708563 -0.021851668134
          0.78121948242 0.55613380671 -0.2490939945 0.7752250433 0.42826452851 -0.021851668134
          0.6213285327 0.68319559097 -0.021851668134 0.63051682711 0.75829821825 -0.34106460214
          0.6075271368 0.69944280386 -0.021851668134 0.59089070559 0.71478843689 -0.021851668134
          0.93233209848 -0.45846268535 -0.42248821259 0.96640497446 0.096703700721 -0.46313279867
          0.90898048878 0.35502108932 -0.49944859743 0.50330078602 -1.1018879414 -0.48300421238
          0.21951000392 -1.2770091295 -0.51835769415 -1.1638002396 0.57975631952 -0.4424700141
          -1.3443777561 -0.21344310045 -0.52508372068 -1.1953786612 -0.58272469044 -0.49625131488
          -0.41985440254 1.0166213512 -0.46261620522 -0.72571092844 0.91634017229 -0.48753869534
          -0.44760370255 -1.3307814598 -0.47938859463 -0.74780017138 -1.1523567438 -0.48594900966
          0.37115681171 0.9383109808 -0.45860299468 0.078062601388 1.0407602787 -0.51879119873
          -0.091797299683 -1.3546714783 -0.52206540108 -1.3730032444 0.13173300028 -0.47291830182
          -1.3585455418 0.36180388927 -0.56880432367 -1.0234367847 0.77837371826 -0.6220908165
          -1.2611329556 0.60470688343 -0.74609202147 -1.4258179665 0.35353669524 -0.88240462542
          -1.4400146008 0.083965197206 -0.725677073 -1.0940792561 0.80178648233 -0.94240117073
          -1.3009543419 0.59238141775 -1.0624979734 -1.3933758736 0.33695280552 -1.1874016523
          -1.4461584091 0.067386999726 -1.0403516293 -1.3883123398 -0.20310719311 -0.8737617135
          -1.3612525463 0.085427701473 -1.3617993593 -1.3641266823 -0.20290750265 -1.2036178112
          -1.2541568279 0.57299590111 -1.3168102503 -1.1200577021 0.78232902288 -1.2594784498
          -0.8315731883 0.94658541679 -0.81773430109 -0.8898383975 0.96720200777 -1.1396524906
          -1.2666105032 -0.45926690102 -1.0266046524 -1.2565296888 -0.47442469001 -0.72882008553
          -1.2745214701 -0.18535849452 -1.5238633156 -1.2224453688 -0.46459570527 -1.3560578823
          -1.1509592533 -0.64502972364 -0.8798803091 -1.1047437191 -0.6819897294 -1.1580777168
          -1.1537563801 -0.44775649905 -1.6717480421 -1.0397912264 -0.71045511961 -1.4999650717
          -1.2545177937 0.10370399803 -1.6809415817 -1.197537303 -0.17341689765 -1.829118371
          -1.1110571623 -0.40877380967 -1.9477665424 -1.0458886623 -0.61160337925 -1.8035951853
          -1.1510262489 -0.15959529579 -2.1006779671 -1.1908982992 0.10917239636 -1.9916700125
          -0.90594160557 -0.89395678043 -1.2278801203 -0.90775609016 -0.82152509689 -1.8179044724
          -0.81518030167 -0.96582591534 -1.5307252407 -0.68569272757 -1.059261322 -1.8255492449
          -0.97521269321 -0.64782112837 -2.0921456814 -0.77331072092 -0.91642099619 -2.0997121334
          -0.56296092272 -1.1685910225 -1.5476933718 -0.65939640999 -1.0925955772 -1.2731769085
          -0.41952449083 -1.2331175804 -1.8111383915 -0.51880139112 -1.1248135567 -2.0989868641
          -0.83678299189 -0.77841991186 -2.3294682503 -0.62078219652 -0.99360412359 -2.3693785667
          -0.32863840461 -1.1557668447 -2.3673915863 -0.2234621048 -1.2618933916 -2.0721476078
          -0.27935731411 -1.308667779 -1.5639792681 -0.1118754968 -1.335386157 -1.7890658379
          0.094440802932 -1.3057301044 -2.0209226608 -0.013985799626 -1.2237727642 -2.3320169449
          -0.46080899239 -1.0374833345 -2.6734213829 -0.12399700284 -1.1455469131 -2.6517128944
          0.3086270988 -1.2165616751 -2.2641553879 0.21617770195 -1.1376713514 -2.6493558884
          0.1997088939 -1.3498456478 -1.72790277 0.41386190057 -1.2734740973 -1.9516261816
          0.49529349804 -1.1016305685 -2.4907417297 0.6123740077 -1.139611721 -2.1748716831
          0.061280701309 -1.1190035343 -2.9365949631 -0.26502358913 -1.0938421488 -2.9453423023
          0.49633070827 -1.2761800289 -1.6335606575 0.71033769846 -1.164999485 -1.8594329357
          0.88970458508 -0.99594348669 -2.0745208263 0.79535317421 -0.97198361158 -2.3864071369
          0.78030949831 -1.131067872 -1.5436395407 0.96971029043 -0.99536627531 -1.759395957
          1.1254836321 -0.80062359571 -1.960473299 1.0454727411 -0.79240131378 -2.2771420479
          0.70671582222 -0.96737581491 -2.6772696972 0.96664851904 -0.78962421417 -2.5922307968
          1.2549113035 -0.57036727667 -2.157181263 1.1837092638 -0.57109391689 -2.4731228352
          1.1137462854 -0.57435059547 -2.7926476002 0.89665871859 -0.78988772631 -2.9133434296
          1.293176651 -0.32404389977 -2.6493859291 1.3483040333 -0.32135859132 -2.3439087868
          1.2957061529 -0.56080460548 -1.8353152275 1.3831887245 -0.30317211151 -2.0204071999
          1.3690917492 -0.031700700521 -2.5513944626 1.3927067518 -0.032850299031 -2.1991512775
          1.3756978512 -0.29244580865 -1.6927528381 1.3819416761 -0.012200700119 -1.8770446777
          1.3215905428 0.24221530557 -2.3524079323 1.3066169024 0.25021588802 -2.0548329353
          1.3332219124 -0.016951499507 -1.5028268099 1.2733570337 0.26352030039 -1.7360631227
          1.1820143461 0.49202129245 -2.2229571342 1.148963213 0.50027167797 -1.9199966192
          1.302862525 -0.34867268801 -1.3634855747 1.295994997 -0.53189188242 -1.5664144754
          1.3077526093 -0.11920960248 -2.8429234028 1.3130319118 0.15005239844 -2.9001727104
          1.3060182333 0.31678929925 -2.6471641064 1.0969996452 0.50822860003 -1.5903265476
          1.1906247139 0.28958189487 -1.3924949169 0.95845901966 0.73005467653 -1.790361166
          1.0010954142 0.72313398123 -2.1101078987 1.022539854 0.48581638932 -1.3020913601
          0.88376402855 0.71764439344 -1.430619359 0.80081629753 0.94246828556 -1.9821352959
          0.74911361933 0.94019430876 -1.6546212435 1.0613754988 0.71075427532 -2.4427998066
          0.84753888845 0.93339270353 -2.3062198162 0.56970900297 1.1322865486 -1.8509846926
          0.61554348469 1.1247304678 -2.1770882607 0.89983868599 0.94514757395 -2.6208055019
          0.66072028875 1.1099135876 -2.4993298054 0.37246280909 1.2180286646 -2.3774468899
          0.33403098583 1.2428580523 -2.0527477264 -0.9304997921 0.95276361704 -1.4601690769
          -1.1224542856 0.68942528963 -1.5906977654 0.51372158527 1.1045483351 -1.5253363848
          0.28520449996 1.2417056561 -1.7283713818 0.036335799843 1.2827843428 -1.9269372225
          0.07296589762 1.2494094372 -2.2494959831 0.40780690312 1.1795917749 -2.699950695
          0.1087872982 1.1819700003 -2.5676167011 -0.18522199988 1.1534276009 -2.4253776073
          -0.2161245048 1.2304005623 -2.1072645187 0.14193849266 1.0911527872 -2.8857448101
          -0.13643789291 1.0364636183 -2.7278563976 -0.41787961125 0.97495889664 -2.5755732059
          -0.46410059929 1.0952649117 -2.2724924088 -0.095716200769 0.92294687033 -3.0325870514
          -0.34898030758 0.82440632582 -2.856069088 -0.020735800266 1.2725492716 -1.6230355501
          0.19892780483 1.1906621456 -1.3786487579 -0.68594872952 0.88778829575 -2.4152059555
          -0.61137878895 0.72909969091 -2.6959135532 -0.52860218287 0.56705641747 -2.9676578045
          -0.30060219765 0.70173609257 -3.1526327133 -0.066548600793 0.82772099972 -3.3425683975
          0.17192159593 1.0026987791 -3.1977143288 -0.27225920558 0.60014021397 -3.4595286846
          -0.46407780051 0.43854519725 -3.2562451363 0.19933900237 0.90601682663 -3.5133917332
          -0.04176799953 0.728918612 -3.6498739719 -0.2304314971 0.48457300663 -3.7527070045
          -0.40604731441 0.31817480922 -3.551337719 -0.65494632721 0.2732565999 -3.051776886
          -0.55910599232 0.13669450581 -3.3310968876 -0.31894001365 0.18956820667 -3.8418784142
          -0.46670868993 0.0058467001654 -3.6139485836 0.0095726000145 0.5938115716 -3.9460937977
          0.24165080488 0.7843875885 -3.8123059273 0.49827080965 0.89629197121 -3.6456489563
          0.45387539268 1.0186679363 -3.3384447098 -0.59526318312 -0.21040859818 -3.3821041584
          -0.72139012814 -0.045097500086 -3.1038610935 -0.45781040192 -0.28891679645 -3.6788218021
          -0.3713093996 -0.10311999917 -3.871414423 0.85872858763 0.5637294054 -1.1125284433
          0.67406648397 0.91743969917 -1.380515337 0.68242049217 0.77559697628 -1.1623922586
          -0.8548732996 0.10842750221 -2.8524887562 -0.7673085928 0.43474158645 -2.7948796749
          -0.67082208395 1.1046158075 -1.3337355852 -0.60514777899 1.0711534023 -1.0177097321
          0.22983250022 -1.3141311407 -1.4086754322 0.54342067242 -1.1888519526 -1.3241845369
          -0.87900537252 -0.22066350281 -2.8784484863 -0.7370365262 -0.36810919642 -3.1014499664
          1.2117315531 0.10108959675 -1.1986883879 1.0377675295 0.31248998642 -1.055316329
          1.0140558481 -0.92237019539 -1.4619116783 0.79187887907 -0.99079608917 -1.2426766157
          -0.74197602272 1.0821167231 -1.6025500298 -0.93094110489 0.90922522545 -1.7626131773
          1.211379528 -0.33087641001 -2.9830236435 1.036999464 -0.57118630409 -3.1141619682
          0.30418008566 0.63388812542 -4.0888795853 0.54411607981 0.74875867367 -3.9314587116
          0.74383270741 0.92173022032 -3.435230732 0.79267328978 0.77805250883 -3.7257502079
          0.59966510534 0.59195381403 -4.2035117149 0.83902412653 0.62825369835 -4.0103721619
          1.0327693224 0.55379039049 -3.7557992935 0.99304997921 0.71360838413 -3.4770965576
          0.89722192287 0.44820091128 -4.247323513 1.0541790724 0.37318399549 -3.9998998642
          1.1549687386 0.43041080236 -3.48209548 1.1576733589 0.26126530766 -3.7256309986
          1.1305508614 0.1238000989 -3.9305005074 1.0519653559 0.15287460387 -4.1698927879
          0.67672652006 0.41118320823 -4.4574432373 0.38981470466 0.45803809166 -4.3643569946
          0.62369769812 -0.97329282761 -2.9973728657 0.82479250431 -0.79360872507 -3.2299582958
          1.1307461262 -0.33320018649 -3.3045692444 0.96437937021 -0.57475727797 -3.4292495251
          0.5865432024 -0.95744520426 -3.3391129971 0.76022487879 -0.79760539532 -3.5522882938
          0.94641268253 0.8614205122 -3.1963043213 1.1399681568 0.60013908148 -3.2155849934
          1.2424504757 0.29059898853 -3.2048947811 1.2061681747 0.12148260325 -3.469137907
          1.0768932104 -0.34326779842 -3.6123468876 0.91603428125 -0.59305787086 -3.7477788925
          0.50983858109 -0.96155387163 -3.6655640602 0.70455509424 -0.80864739418 -3.8732059002
          0.10944409668 0.42847040296 -4.2503643036 -0.13667540252 0.31362318993 -4.0644822121
          1.0384730101 -0.35870608687 -3.9165565968 0.85029160976 -0.59784168005 -4.0690550804
          0.43387770653 -0.94725888968 -3.9857583046 0.6122918129 -0.79188889265 -4.1870837212
          0.33850041032 -1.0423556566 -3.4380321503 0.21841140091 -1.0133532286 -3.7540280819
          0.96043807268 -0.33313289285 -4.2679767609 0.733086586 -0.55740511417 -4.3765335083
          0.35489749908 -0.88658291101 -4.2606124878 0.46202579141 -0.71260797977 -4.4661364555
          0.56052541733 -0.45501831174 -4.6376829147 0.79075551033 -0.33609700203 -4.5333647728
          0.14237579703 -0.77969521284 -4.4397230148 0.24891449511 -0.55061852932 -4.6663694382
          0.64989131689 -0.15618020296 -4.7340149879 0.33531159163 -0.24457600713 -4.7390317917
          0.10318069905 -0.29924559593 -4.6088037491 -0.028421200812 -0.49162900448 -4.491622448
          0.1020250991 -0.91609030962 -4.1044449806 -0.11675400287 -0.70111620426 -4.258161068
          1.097427249 0.73466080427 -2.7340965271 1.2167505026 0.53439807892 -2.7011928558
          1.1969662905 0.51886200905 -2.4657077789 -0.21013939381 -0.38294950128 -4.2604656219
          -0.06956910342 -0.17074480653 -4.4107503891 -0.27535030246 -0.57628542185 -4.005314827
          -0.14286570251 -0.80101060867 -3.9786250591 -0.99158519506 0.27885130048 -2.6062760353
          -1.0235335827 -0.065066501498 -2.6249372959 -0.51166278124 -0.96202552319 -2.9603455067
          -0.68333011866 -0.8260346055 -2.812912941 -0.70442759991 -0.87245821953 -2.5646660328
          -0.39746171236 -0.97257238626 -3.2168684006 -0.091886200011 -1.0746046305 -3.2219278812
          0.4221701026 1.1135987043 -3.0152411461 0.67181742191 1.1038324833 -2.8260097504
          0.30318450928 -1.2241435051 -1.0868468285 0.57015258074 -1.0590742826 -1.0084583759
          0.80782830715 -0.8395857811 -0.95533162355 1.0105645657 -0.75716042519 -1.1908268929
          0.1374758929 -0.034845698625 -4.5779342651 0.40643239021 0.069973900914 -4.7158646584
          -0.43033289909 1.211399436 -1.5718481541 -0.36772841215 1.1656291485 -1.2145015001
          -0.81770259142 -0.54159730673 -2.8699295521 -0.97059619427 -0.38926580548 -2.624386549
          -1.0591051579 0.67269778252 -1.9464766979 -1.1868778467 0.39418908954 -1.8251874447
          -1.2717319727 0.37139970064 -1.498637557 -0.71260631084 1.0006818771 -2.1163260937
          -0.47564440966 1.1764035225 -1.953062892 -0.86374872923 0.61673891544 -2.5319399834
          -0.93711149693 0.73501110077 -2.2396771908 0.34897691011 -1.0849359035 -2.9304361343
          0.21284000576 -1.0860589743 -3.1979820728 -0.76174098253 -1.038143158 -0.97868400812
          -0.99241387844 -0.83442389965 -0.92365127802 -0.4888626039 -1.2042018175 -1.0279841423
          -0.38765010238 -1.2460343838 -1.3172981739 0.058269698173 -1.0491844416 -3.4858219624
          -0.23165899515 -0.95192921162 -3.4825820923 -0.47290429473 -0.7427803278 -3.4188284874
          -0.63506948948 -0.72296398878 -3.1256732941 0.90738421679 -0.094901800156 -4.5399856567
          0.71208381653 0.16042870283 -4.660577774 -0.29878669977 1.1044667959 -0.9091438055
          -0.53064882755 1.0386093855 -0.7132666111 -0.13882419467 1.2229772806 -1.3665069342
          -0.057651698589 1.1422302723 -1.1263669729 -0.31887340546 -0.74911630154 -3.6840775013
          -0.07360240072 -0.93350172043 -3.7695260048 0.063059397042 -1.2967404127 -1.1513870955
          -0.095507003367 -1.3259191513 -1.35505867 0.010920300148 -1.3549026251 -1.5723713636
          0.3784635067 -1.1671956778 -0.77151948214 0.042781099677 -1.2988131046 -0.83856731653
          0.012044600211 1.0641486645 -0.81683921814 -0.21842630208 1.0629324913 -0.60361790657
          0.24264919758 1.0407117605 -1.0471357107 -0.33711978793 -0.31404620409 -3.9805734158
          -0.22544969618 -0.028134299442 -4.1355662346 -1.1290125847 0.1173427999 -2.3057491779
          -1.0856134892 -0.24063210189 -2.3609583378 1.086483717 0.74166119099 -2.9921479225
          1.2340384722 0.48568549752 -2.9233515263 1.2480932474 -0.047833800316 -3.1730847359
          0.9139149785 0.94378328323 -2.9112586975 0.69616359472 1.0389226675 -3.1303088665
          1.1688632965 -0.14623479545 -3.4878671169 1.1574879885 -0.055138599128 -3.7371551991
          -1.0402238369 0.44647368789 -2.3825011253 -0.71092361212 1.0751166344 -1.8435800076
          -0.22748939693 1.2623485327 -1.8247491121 -0.49591979384 -0.50367200375 -3.5368616581
          -0.61352831125 -0.46514761448 -3.3228108883 1.1898958683 -0.66796559095 -1.3975507021
          1.1711522341 -0.7746245265 -1.6557739973 1.1759654284 -0.47957590222 -1.156919241
          0.99676901102 -0.58264958858 -0.91739392281 0.6413667202 -0.9672241807 -0.7090741992
          0.8608968854 -0.70041251183 -0.64740550518 1.1249245405 -0.29243949056 -0.90324217081
          0.99855452776 -0.42893689871 -0.68890148401 -0.98456501961 -0.52616941929 -2.3566555977
          -0.85069799423 -0.67591929436 -2.593300581 -0.60724312067 -1.18770051 -0.74080967903
          -0.8757557869 -0.98845309019 -0.68275147676 -0.18910899758 -1.2928956747 -1.0751572847
          -0.30403620005 -1.2983858585 -0.77603882551 1.0214303732 -0.04879559949 -4.3041152954
          1.095225811 -0.094599500299 -4.0580339432 0.4897249043 0.28212448955 -4.5787477493
          0.23137539625 0.26271849871 -4.518535614 0.85587161779 -0.68503540754 -0.41284298897
          -0.89829611778 0.87735849619 -2.0051348209 -1.1211329699 0.40507090092 -2.1391510963
          0.91578757763 0.1925598979 -4.4226660728 1.2539420128 -0.16566249728 -1.1751441956
          1.1344120502 0.025938799605 -0.94060468674 1.0369315147 -0.12724819779 -0.63289362192
          -0.01828270033 0.13620710373 -4.3500137329 -0.38833209872 -0.50609320402 -3.7727975845
          0.47765129805 0.99677741528 -1.2220270634 -1.0750143528 -0.39846709371 -2.1706357002
          0.30160659552 0.96933430433 -0.74427497387 0.50271421671 0.86410349607 -0.96747851372
          0.43156850338 -1.0405317545 -3.1672961712 0.47786429524 -1.0639127493 -2.7381637096
          0.56233590841 0.79676550627 -0.6730582118 0.71746510267 0.65410631895 -0.90276169777
          0.76913917065 0.59308987856 -0.57732582092 0.88307017088 0.44898441434 -0.81114900112
          -1.0874507427 -0.7485921979 -0.61490041018 1.0103336573 0.20020380616 -0.72203862667
        </DataArray>
      </Points>
      <Verts>
        <DataArray type="Int64" Name="connectivity" format="ascii" RangeMin="0" RangeMax="1266">
        </DataArray>
        <DataArray type="Int64" Name="offsets" format="ascii" RangeMin="3" RangeMax="7209">
        </DataArray>
      </Verts>
      <Lines>
        <DataArray type="Int64" Name="connectivity" format="ascii" RangeMin="0" RangeMax="1266">
        </DataArray>
        <DataArray type="Int64" Name="offsets" format="ascii" RangeMin="3" RangeMax="7209">
        </DataArray>
      </Lines>
      <Strips>
        <DataArray type="Int64" Name="connectivity" format="ascii" RangeMin="0" RangeMax="1266">
        </DataArray>
        <DataArray type="Int64" Name="offsets" format="ascii" RangeMin="3" RangeMax="7209">
        </DataArray>
      </Strips>
      <Polys>
        <DataArray type="Int64" Name="connectivity" format="ascii" RangeMin="0" RangeMax="1266">
          0 1 2 3 2 1
          4 0 5 6 5 0
          4 7 8 9 8 7
          7 10 11 11 10 12
          13 14 15 16 15 14
          11 13 17 15 17 13
          18 14 19 20 19 14
          21 22 23 24 23 22
          18 25 22 24 22 25
          26 27 21 28 21 27
          26 29 30 31 30 29
          32 33 30 34 30 33
          32 33 35 36 35 33
          37 38 35 39 35 38
          37 40 41 42 41 40
          43 44 41 45 41 44
          43 46 47 48 47 46
          47 49 50 51 50 49
          49 52 53 54 53 52
          55 56 53 57 53 56
          55 56 58 58 56 59
          58 60 61 62 61 60
          63 60 64 60 65 64
          63 66 67 68 67 66
          66 69 70 71 70 69
          70 72 73 74 73 72
          2 75 73 74 73 75
          75 3 2 6 1 0
          8 5 4 10 9 7
          17 12 11 20 16 14
          25 19 18 28 23 21
          29 27 26 34 31 30
          39 36 35 40 38 37
          45 42 41 46 44 43
          50 48 47 52 51 49
          57 54 53 61 59 58
          65 62 60 67 64 63
          69 68 66 72 71 70
          60 58 76 60 76 63
          66 77 63 66 78 77
          66 78 70 49 79 80
          49 53 79 49 47 80
          14 81 18 14 13 81
          26 21 82 26 83 82
          26 83 30 7 84 85
          7 84 4 7 11 85
          37 41 86 37 87 86
          37 35 87 0 88 89
          0 88 2 0 89 4
          43 90 86 43 41 86
          43 47 90 18 91 22
          18 91 92 18 92 81
          81 93 13 81 93 94
          81 94 92 92 95 94
          92 91 96 92 96 95
          94 93 97 94 98 95
          94 97 98 95 99 98
          95 99 100 95 100 96
          96 82 101 96 91 82
          96 101 100 100 102 103
          100 99 102 100 103 101
          98 104 105 98 105 97
          98 104 99 97 106 107
          97 107 105 97 93 106
          101 108 103 101 109 108
          101 82 109 103 102 110
          103 110 111 103 111 108
          108 112 113 108 112 109
          108 113 111 111 114 110
          111 113 115 111 115 114
          110 102 116 110 117 114
          110 116 117 114 118 117
          114 119 118 114 119 115
          117 120 121 117 120 118
          117 121 116 115 113 122
          115 119 123 115 124 123
          115 122 124 123 125 124
          123 126 127 123 119 126
          123 127 125 124 128 129
          124 128 125 124 129 122
          125 128 130 125 131 127
          125 130 131 127 132 126
          127 133 131 127 132 133
          131 133 134 131 135 130
          131 134 135 130 136 128
          130 137 135 130 136 137
          135 137 138 135 139 134
          135 138 139 134 140 141
          134 141 139 134 133 140
          139 142 138 139 143 141
          139 143 142 138 144 145
          138 145 142 138 144 137
          142 146 147 142 146 143
          142 147 145 141 143 148
          141 148 149 141 149 140
          145 144 150 145 151 147
          145 150 151 147 152 151
          147 146 153 147 153 152
          151 154 150 151 155 154
          151 155 152 152 155 156
          152 157 153 152 156 157
          153 158 159 153 158 146
          153 159 157 157 156 160
          157 161 159 157 160 161
          159 162 161 159 163 162
          159 158 163 161 164 165
          161 165 160 161 164 162
          160 166 167 160 167 165
          160 166 156 165 168 169
          165 169 167 165 164 168
          167 170 171 167 166 170
          167 171 169 169 172 173
          169 172 168 169 173 171
          171 174 170 171 174 175
          171 175 173 173 172 176
          173 177 175 173 176 177
          170 178 174 170 179 166
          170 179 178 168 180 181
          168 182 181 168 180 164
          168 172 182 175 183 177
          175 184 183 175 174 184
          177 185 183 177 176 186
          177 186 185 183 187 184
          183 187 188 183 188 185
          185 189 186 185 190 189
          185 190 188 186 191 192
          186 176 191 186 192 189
          189 193 194 189 194 192
          189 190 193 192 195 191
          192 196 195 192 196 194
          194 196 197 194 198 193
          194 197 198 105 199 107
          105 104 200 105 200 199
          193 190 201 193 201 202
          193 202 198 198 203 204
          198 204 197 198 203 202
          197 205 206 197 206 204
          197 196 205 204 207 206
          204 208 207 204 203 208
          206 209 205 206 209 210
          206 210 207 207 211 210
          207 212 211 207 208 212
          210 209 213 210 214 211
          210 213 214 202 203 215
          202 216 201 202 215 216
          211 217 212 211 218 217
          211 218 214 214 219 220
          214 220 213 214 218 219
          213 221 220 213 222 221
          213 222 209 220 223 221
          220 219 224 220 224 223
          221 225 226 221 226 223
          221 222 225 223 227 228
          223 228 224 223 227 226
          224 219 229 224 229 230
          224 230 228 228 231 232
          228 227 231 228 232 230
          226 227 233 226 234 225
          226 233 234 225 235 234
          225 236 235 225 222 236
          230 237 238 230 237 232
          230 238 229 232 239 240
          232 240 231 232 237 239
          188 241 187 188 242 243
          188 242 190 188 241 243
          229 244 238 229 245 219
          229 245 244 107 246 199
          107 247 246 107 106 247
          150 248 249 150 249 154
          150 144 248 238 250 244
          238 251 237 238 251 250
          184 252 174 184 252 253
          184 187 253 154 155 254
          154 255 249 154 254 255
          199 256 246 199 256 257
          199 257 200 162 258 259
          162 164 258 162 259 163
          234 260 261 234 260 233
          234 261 235 235 262 263
          235 262 236 235 263 261
          261 260 264 261 264 265
          261 265 263 263 266 265
          263 262 267 263 267 266
          265 268 264 265 268 269
          265 269 266 266 270 267
          266 271 269 266 271 270
          269 272 273 269 272 271
          269 273 268 264 268 274
          264 275 260 264 275 274
          163 276 277 163 158 276
          163 277 259 259 278 279
          259 279 277 259 278 258
          277 280 276 277 280 281
          277 281 279 267 282 283
          267 262 282 267 283 270
          270 284 283 270 285 284
          270 271 285 279 286 287
          279 287 281 279 278 286
          281 280 288 281 288 289
          281 289 287 233 260 290
          233 291 290 233 227 291
          287 292 286 287 292 293
          287 293 289 289 294 295
          289 294 288 289 295 293
          288 296 297 288 297 294
          288 296 280 293 298 299
          293 299 295 293 292 298
          295 300 294 295 301 299
          295 300 301 299 302 301
          299 303 302 299 303 298
          301 300 304 301 305 302
          301 304 305 302 306 307
          302 307 305 302 303 306
          305 308 307 305 309 304
          305 308 309 304 300 310
          304 311 309 304 310 311
          191 312 195 191 313 312
          191 313 314 191 314 176
          309 315 311 309 316 315
          309 308 316 311 317 315
          311 318 317 311 318 310
          244 245 319 244 320 250
          244 319 320 140 321 149
          140 321 322 140 323 133
          140 323 322 149 321 324
          149 325 148 149 324 325
          205 326 209 205 327 326
          205 327 196 249 328 248
          249 329 255 249 329 328
          255 330 331 255 329 330
          255 331 254 307 332 333
          307 308 332 307 333 306
          246 256 334 246 335 247
          246 334 335 250 336 337
          250 251 336 250 337 320
          200 338 339 200 340 339
          200 104 340 200 338 257
          212 341 217 212 342 341
          212 208 342 217 218 343
          217 344 341 217 343 344
          148 345 143 148 345 346
          148 346 325 122 347 129
          122 113 348 122 348 347
          129 349 347 129 350 349
          129 128 350 325 351 346
          325 351 352 325 352 324
          324 353 352 324 354 353
          324 321 354 306 355 356
          306 356 333 306 303 355
          247 357 335 247 358 357
          247 106 358 335 359 360
          335 359 334 335 360 357
          352 361 353 352 362 361
          352 351 362 248 363 364
          248 365 364 248 363 328
          248 365 144 328 366 367
          328 366 329 328 363 367
          357 368 360 357 369 368
          357 369 358 360 370 368
          360 359 216 360 216 370
          315 371 372 315 316 372
          315 371 317 320 373 374
          320 374 337 320 373 319
          283 375 282 283 375 376
          283 376 284 284 181 376
          284 377 285 284 377 181
          282 375 378 282 379 262
          282 378 379 286 380 278
          286 381 292 286 380 381
          319 382 373 319 245 343
          319 382 343 334 383 342
          334 383 256 334 384 215
          334 359 215 334 384 342
          353 385 361 353 385 386
          353 386 354 254 387 331
          254 388 387 254 388 155
          331 389 390 331 390 330
          331 387 389 330 329 391
          330 391 392 330 392 390
          390 393 389 390 394 393
          390 394 392 337 395 374
          337 395 396 337 396 336
          347 397 398 347 397 349
          347 398 348 349 399 350
          349 400 399 349 397 400
          298 401 355 298 303 355
          298 401 402 298 402 292
          333 403 356 333 404 332
          333 403 404 336 322 396
          336 251 354 336 322 354
          392 55 391 392 394 76
          392 405 76 392 405 55
          341 383 342 341 406 383
          341 406 344 344 382 407
          344 382 343 344 338 407
          344 406 338 258 180 377
          258 180 164 258 377 278
          356 403 274 356 408 355
          356 274 408 389 178 409
          389 409 393 389 178 387
          393 410 409 393 411 410
          393 394 411 332 412 404
          332 316 412 332 308 316
          317 371 413 317 413 361
          317 318 361 116 102 340
          116 340 339 116 339 121
          121 407 339 121 120 373
          121 373 407 201 414 216
          201 242 190 201 242 414
          126 415 118 126 119 118
          126 132 395 126 415 395
          376 313 182 376 182 181
          376 313 312 376 375 312
          231 372 240 231 372 291
          231 227 291 310 297 294
          310 297 362 310 300 294
          310 318 362 195 327 196
          195 378 312 195 378 327
          368 416 370 368 89 369
          368 89 416 370 417 416
          370 414 216 370 414 417
          276 418 280 276 419 158
          276 418 345 276 419 345
          236 379 262 236 379 326
          236 222 326 391 79 55
          391 366 329 391 79 366
          404 275 290 404 290 412
          404 403 275 412 316 372
          412 372 291 412 291 290
          416 420 417 416 88 89
          416 88 420 417 421 420
          417 414 243 417 243 421
          420 88 73 420 73 422
          420 422 421 421 241 243
          421 423 422 421 241 423
          350 364 399 350 136 364
          350 136 128 374 415 120
          374 120 373 374 415 395
          396 323 132 396 323 322
          396 132 395 348 424 398
          348 112 424 348 112 113
          398 87 32 398 87 397
          398 32 424 346 418 345
          346 296 351 346 418 296
          285 380 377 285 380 381
          285 381 271 399 363 364
          399 363 367 399 367 400
          400 90 367 400 90 86
          400 86 397 240 371 239
          240 371 372 409 178 174
          409 252 174 409 252 410
          410 252 253 410 253 425
          410 425 411 411 394 76
          411 76 63 411 77 63
          411 77 425 425 423 253
          425 78 77 425 78 423
          253 241 187 253 241 423
          239 371 413 239 385 413
          239 385 237 13 11 85
          13 85 93 424 30 32
          424 83 109 424 83 30
          424 112 109 22 21 82
          22 91 82 358 84 369
          358 84 85 358 85 106
          181 180 377 367 80 366
          367 90 80 182 313 314
          182 314 172 143 419 146
          143 419 345 343 218 245
          339 338 407 407 382 373
          342 384 208 422 73 70
          422 78 423 422 78 70
          55 53 79 55 405 58
          216 359 215 215 384 203
          32 35 87 354 321 322
          354 251 386 386 251 237
          386 385 237 257 383 256
          257 406 383 257 406 338
          340 99 102 340 104 99
          4 84 369 4 89 369
          290 275 260 2 88 73
          355 401 408 408 268 274
          408 401 273 408 273 268
          76 405 58 109 83 82
          366 79 80 80 47 90
          219 218 245 146 419 158
          133 323 132 397 87 86
          280 418 296 278 380 377
          312 375 378 176 314 172
          209 222 326 326 379 327
          361 318 362 361 385 413
          362 297 351 351 296 297
          156 388 155 156 388 166
          387 179 388 387 179 178
          106 85 93 364 365 136
          292 381 402 402 272 273
          402 272 381 402 401 273
          243 242 414 271 272 381
          208 384 203 327 378 379
          166 179 388 274 403 275
          137 365 144 137 365 136
          118 415 120
        </DataArray>
        <DataArray type="Int64" Name="offsets" format="ascii" RangeMin="3" RangeMax="7209">
          3 6 9 12 15 18
          21 24 27 30 33 36
          39 42 45 48 51 54
          57 60 63 66 69 72
          75 78 81 84 87 90
          93 96 99 102 105 108
          111 114 117 120 123 126
          129 132 135 138 141 144
          147 150 153 156 159 162
          165 168 171 174 177 180
          183 186 189 192 195 198
          201 204 207 210 213 216
          219 222 225 228 231 234
          237 240 243 246 249 252
          255 258 261 264 267 270
          273 276 279 282 285 288
          291 294 297 300 303 306
          309 312 315 318 321 324
          327 330 333 336 339 342
          345 348 351 354 357 360
          363 366 369 372 375 378
          381 384 387 390 393 396
          399 402 405 408 411 414
          417 420 423 426 429 432
          435 438 441 444 447 450
          453 456 459 462 465 468
          471 474 477 480 483 486
          489 492 495 498 501 504
          507 510 513 516 519 522
          525 528 531 534 537 540
          543 546 549 552 555 558
          561 564 567 570 573 576
          579 582 585 588 591 594
          597 600 603 606 609 612
          615 618 621 624 627 630
          633 636 639 642 645 648
          651 654 657 660 663 666
          669 672 675 678 681 684
          687 690 693 696 699 702
          705 708 711 714 717 720
          723 726 729 732 735 738
          741 744 747 750 753 756
          759 762 765 768 771 774
          777 780 783 786 789 792
          795 798 801 804 807 810
          813 816 819 822 825 828
          831 834 837 840 843 846
          849 852 855 858 861 864
          867 870 873 876 879 882
          885 888 891 894 897 900
          903 906 909 912 915 918
          921 924 927 930 933 936
          939 942 945 948 951 954
          957 960 963 966 969 972
          975 978 981 984 987 990
          993 996 999 1002 1005 1008
          1011 1014 1017 1020 1023 1026
          1029 1032 1035 1038 1041 1044
          1047 1050 1053 1056 1059 1062
          1065 1068 1071 1074 1077 1080
          1083 1086 1089 1092 1095 1098
          1101 1104 1107 1110 1113 1116
          1119 1122 1125 1128 1131 1134
          1137 1140 1143 1146 1149 1152
          1155 1158 1161 1164 1167 1170
          1173 1176 1179 1182 1185 1188
          1191 1194 1197 1200 1203 1206
          1209 1212 1215 1218 1221 1224
          1227 1230 1233 1236 1239 1242
          1245 1248 1251 1254 1257 1260
          1263 1266 1269 1272 1275 1278
          1281 1284 1287 1290 1293 1296
          1299 1302 1305 1308 1311 1314
          1317 1320 1323 1326 1329 1332
          1335 1338 1341 1344 1347 1350
          1353 1356 1359 1362 1365 1368
          1371 1374 1377 1380 1383 1386
          1389 1392 1395 1398 1401 1404
          1407 1410 1413 1416 1419 1422
          1425 1428 1431 1434 1437 1440
          1443 1446 1449 1452 1455 1458
          1461 1464 1467 1470 1473 1476
          1479 1482 1485 1488 1491 1494
          1497 1500 1503 1506 1509 1512
          1515 1518 1521 1524 1527 1530
          1533 1536 1539 1542 1545 1548
          1551 1554 1557 1560 1563 1566
          1569 1572 1575 1578 1581 1584
          1587 1590 1593 1596 1599 1602
          1605 1608 1611 1614 1617 1620
          1623 1626 1629 1632 1635 1638
          1641 1644 1647 1650 1653 1656
          1659 1662 1665 1668 1671 1674
          1677 1680 1683 1686 1689 1692
          1695 1698 1701 1704 1707 1710
          1713 1716 1719 1722 1725 1728
          1731 1734 1737 1740 1743 1746
          1749 1752 1755 1758 1761 1764
          1767 1770 1773 1776 1779 1782
          1785 1788 1791 1794 1797 1800
          1803 1806 1809 1812 1815 1818
          1821 1824 1827 1830 1833 1836
          1839 1842 1845 1848 1851 1854
          1857 1860 1863 1866 1869 1872
          1875 1878 1881 1884 1887 1890
          1893 1896 1899 1902 1905 1908
          1911 1914 1917 1920 1923 1926
          1929 1932 1935 1938 1941 1944
          1947 1950 1953 1956 1959 1962
          1965 1968 1971 1974 1977 1980
          1983 1986 1989 1992 1995 1998
          2001 2004 2007 2010 2013 2016
          2019 2022 2025 2028 2031 2034
          2037 2040 2043 2046 2049 2052
          2055 2058 2061 2064 2067 2070
          2073 2076 2079 2082 2085 2088
          2091 2094 2097 2100 2103 2106
          2109 2112 2115 2118 2121 2124
          2127 2130 2133 2136 2139 2142
          2145 2148 2151 2154 2157 2160
          2163 2166 2169 2172 2175 2178
          2181 2184 2187 2190 2193 2196
          2199 2202 2205 2208 2211 2214
          2217 2220 2223 2226 2229 2232
          2235 2238 2241 2244 2247 2250
          2253 2256 2259 2262 2265 2268
          2271 2274 2277 2280 2283 2286
          2289 2292 2295 2298 2301 2304
          2307 2310 2313 2316 2319 2322
          2325 2328 2331 2334 2337 2340
          2343 2346 2349 2352 2355 2358
          2361 2364 2367 2370 2373 2376
          2379 2382 2385 2388 2391 2394
          2397 2400 2403
        </DataArray>
      </Polys>
    </Piece>
  </PolyData>
</VTKFile>
