solid ascii
 facet normal 0.970615 0.0845787 -0.225286
  outer loop
   vertex 3.15156 0.623909 -2.77735
   vertex 3.26372 0 -2.52837
   vertex 3.07209 0 -3.35396
  endloop
 endfacet
 facet normal 0.98363 0.0905513 -0.155799
  outer loop
   vertex 3.3416 0.615733 -1.67876
   vertex 3.39631 0 -1.69122
   vertex 3.26372 0 -2.52837
  endloop
 endfacet
 facet normal 0.979651 0.108801 -0.168661
  outer loop
   vertex 3.26372 0 -2.52837
   vertex 3.15156 0.623909 -2.77735
   vertex 3.3416 0.615733 -1.67876
  endloop
 endfacet
 facet normal 0.949262 0.084292 -0.30298
  outer loop
   vertex 2.90747 0.612793 -3.69926
   vertex 3.07209 0 -3.35396
   vertex 2.81441 0 -4.1613
  endloop
 endfacet
 facet normal 0.960058 0.113908 -0.255567
  outer loop
   vertex 3.07209 0 -3.35396
   vertex 2.90747 0.612793 -3.69926
   vertex 3.15156 0.623909 -2.77735
  endloop
 endfacet
 facet normal 0.991723 0.0899711 -0.0916019
  outer loop
   vertex 3.3416 0.615733 -1.67876
   vertex 3.47427 0 -0.847218
   vertex 3.39631 0 -1.69122
  endloop
 endfacet
 facet normal 0.998712 0.0406657 -0.0303301
  outer loop
   vertex 3.49929 0.0100419 -0.01
   vertex 3.4997 0 -0.01
   vertex 3.47427 0 -0.847218
  endloop
 endfacet
 facet normal 0.998713 0.0406597 -0.0303301
  outer loop
   vertex 3.49929 0.0100419 -0.01
   vertex 3.47427 0 -0.847218
   vertex 3.47187 0.39641 -0.394755
  endloop
 endfacet
 facet normal 0.984247 0.135534 -0.113528
  outer loop
   vertex 3.47187 0.39641 -0.394755
   vertex 3.47427 0 -0.847218
   vertex 3.3654 0.889475 -0.729234
  endloop
 endfacet
 facet normal 0.98965 0.129373 -0.0620952
  outer loop
   vertex 3.3654 0.889475 -0.729234
   vertex 3.47427 0 -0.847218
   vertex 3.3416 0.615733 -1.67876
  endloop
 endfacet
 facet normal 0.229543 0.0950797 -0.968643
  outer loop
   vertex 0 0 -7
   vertex 0.578359 0.578359 -6.80617
   vertex 0.817923 0 -6.80617
  endloop
 endfacet
 facet normal 0.994808 0.0979798 0.0275085
  outer loop
   vertex 3.43374 0.675561 -0.01
   vertex 3.49929 0.0100419 -0.01
   vertex 3.47187 0.39641 -0.394755
  endloop
 endfacet
 facet normal 0.734227 0.678226 -0.0303273
  outer loop
   vertex 2.47466 2.47466 -0.01
   vertex 2.48132 2.46745 -0.01
   vertex 2.73167 2.17906 -0.398333
  endloop
 endfacet
 facet normal 0.734224 0.678229 -0.0303314
  outer loop
   vertex 2.47466 2.47466 -0.01
   vertex 2.73167 2.17906 -0.398333
   vertex 2.45668 2.45668 -0.847218
  endloop
 endfacet
 facet normal 0.772724 0.634158 0.0272167
  outer loop
   vertex 2.48132 2.46745 -0.01
   vertex 2.90566 1.95038 -0.01
   vertex 2.73167 2.17906 -0.398333
  endloop
 endfacet
 facet normal 0.916549 0.0691563 -0.393898
  outer loop
   vertex 2.62709 0.523523 -4.50525
   vertex 2.81441 0 -4.1613
   vertex 2.47984 0 -4.93979
  endloop
 endfacet
 facet normal 0.934543 0.112605 -0.337565
  outer loop
   vertex 2.62709 0.523523 -4.50525
   vertex 2.90747 0.612793 -3.69926
   vertex 2.81441 0 -4.1613
  endloop
 endfacet
 facet normal 0.852399 0.156438 -0.498942
  outer loop
   vertex 2.05196 0 -5.67079
   vertex 2.18624 0.906042 -5.1573
   vertex 2.47984 0 -4.93979
  endloop
 endfacet
 facet normal 0.858943 0.161697 -0.485872
  outer loop
   vertex 2.18624 0.906042 -5.1573
   vertex 2.62709 0.523523 -4.50525
   vertex 2.47984 0 -4.93979
  endloop
 endfacet
 facet normal 0.759269 0.120832 -0.639461
  outer loop
   vertex 1.50681 0 -6.31808
   vertex 1.68242 0.696941 -5.97787
   vertex 2.05196 0 -5.67079
  endloop
 endfacet
 facet normal 0.814301 0.190126 -0.548421
  outer loop
   vertex 2.05196 0 -5.67079
   vertex 1.68242 0.696941 -5.97787
   vertex 2.18624 0.906042 -5.1573
  endloop
 endfacet
 facet normal 0.576702 0.0700827 -0.813943
  outer loop
   vertex 1.25226 0.518703 -6.45377
   vertex 1.50681 0 -6.31808
   vertex 0.817923 0 -6.80617
  endloop
 endfacet
 facet normal 0.701004 0.162347 -0.694433
  outer loop
   vertex 1.50681 0 -6.31808
   vertex 1.25226 0.518703 -6.45377
   vertex 1.68242 0.696941 -5.97787
  endloop
 endfacet
 facet normal 0.468025 0.193862 -0.862189
  outer loop
   vertex 0.578359 0.578359 -6.80617
   vertex 1.25226 0.518703 -6.45377
   vertex 0.817923 0 -6.80617
  endloop
 endfacet
 facet normal 0.763504 0.639271 -0.0916193
  outer loop
   vertex 2.78786 1.94094 -1.68596
   vertex 2.40156 2.40156 -1.69122
   vertex 2.45668 2.45668 -0.847218
  endloop
 endfacet
 facet normal 0.789242 0.610747 -0.0639174
  outer loop
   vertex 2.99655 1.76989 -0.74349
   vertex 2.78786 1.94094 -1.68596
   vertex 2.45668 2.45668 -0.847218
  endloop
 endfacet
 facet normal 0.789414 0.603906 -0.110107
  outer loop
   vertex 2.45668 2.45668 -0.847218
   vertex 2.73167 2.17906 -0.398333
   vertex 2.99655 1.76989 -0.74349
  endloop
 endfacet
 facet normal 0.757726 0.633692 -0.155839
  outer loop
   vertex 2.40156 2.40156 -1.69122
   vertex 2.78786 1.94094 -1.68596
   vertex 2.3078 2.3078 -2.52837
  endloop
 endfacet
 facet normal 0.744669 0.628248 -0.225329
  outer loop
   vertex 2.3078 2.3078 -2.52837
   vertex 2.66226 1.79866 -2.77648
   vertex 2.1723 2.1723 -3.35396
  endloop
 endfacet
 facet normal 0.768353 0.617302 -0.169033
  outer loop
   vertex 2.66226 1.79866 -2.77648
   vertex 2.3078 2.3078 -2.52837
   vertex 2.78786 1.94094 -1.68596
  endloop
 endfacet
 facet normal 0.724948 0.618482 -0.303199
  outer loop
   vertex 2.1723 2.1723 -3.35396
   vertex 2.48831 1.71639 -3.52835
   vertex 1.99009 1.99009 -4.1613
  endloop
 endfacet
 facet normal 0.752003 0.613483 -0.241104
  outer loop
   vertex 2.48831 1.71639 -3.52835
   vertex 2.1723 2.1723 -3.35396
   vertex 2.66226 1.79866 -2.77648
  endloop
 endfacet
 facet normal 0.696541 0.599717 -0.393917
  outer loop
   vertex 1.99009 1.99009 -4.1613
   vertex 2.2266 1.49079 -4.50325
   vertex 1.75352 1.75352 -4.93979
  endloop
 endfacet
 facet normal 0.770349 0.565993 -0.293624
  outer loop
   vertex 2.2266 1.49079 -4.50325
   vertex 1.99009 1.99009 -4.1613
   vertex 2.60354 1.28802 -3.90517
  endloop
 endfacet
 facet normal 0.762214 0.530868 -0.370418
  outer loop
   vertex 2.60354 1.28802 -3.90517
   vertex 1.99009 1.99009 -4.1613
   vertex 2.48831 1.71639 -3.52835
  endloop
 endfacet
 facet normal 0.713251 0.492255 -0.498956
  outer loop
   vertex 1.75352 1.75352 -4.93979
   vertex 2.18624 0.906042 -5.1573
   vertex 1.45095 1.45095 -5.67079
  endloop
 endfacet
 facet normal 0.721861 0.49319 -0.48547
  outer loop
   vertex 2.2266 1.49079 -4.50325
   vertex 2.18624 0.906042 -5.1573
   vertex 1.75352 1.75352 -4.93979
  endloop
 endfacet
 facet normal 0.622307 0.451465 -0.639464
  outer loop
   vertex 1.68242 0.696941 -5.97787
   vertex 1.06547 1.06547 -6.31808
   vertex 1.45095 1.45095 -5.67079
  endloop
 endfacet
 facet normal 0.710155 0.441388 -0.548504
  outer loop
   vertex 1.68242 0.696941 -5.97787
   vertex 1.45095 1.45095 -5.67079
   vertex 2.18624 0.906042 -5.1573
  endloop
 endfacet
 facet normal 0.457346 0.358234 -0.813943
  outer loop
   vertex 1.25226 0.518703 -6.45377
   vertex 0.578359 0.578359 -6.80617
   vertex 1.06547 1.06547 -6.31808
  endloop
 endfacet
 facet normal 0.610467 0.380887 -0.694446
  outer loop
   vertex 1.25226 0.518703 -6.45377
   vertex 1.06547 1.06547 -6.31808
   vertex 1.68242 0.696941 -5.97787
  endloop
 endfacet
 facet normal 0.956922 0.290279 -0.00611955
  outer loop
   vertex 3.23539 1.33322 -0.01
   vertex 3.43182 0.68565 -0.01
   vertex 3.3654 0.889475 -0.729234
  endloop
 endfacet
 facet normal 0.981759 0.186319 -0.0378773
  outer loop
   vertex 3.43374 0.675561 -0.01
   vertex 3.47187 0.39641 -0.394755
   vertex 3.43182 0.68565 -0.01
  endloop
 endfacet
 facet normal 0.981759 0.186317 -0.0378756
  outer loop
   vertex 3.43182 0.68565 -0.01
   vertex 3.47187 0.39641 -0.394755
   vertex 3.3654 0.889475 -0.729234
  endloop
 endfacet
 facet normal 0.881891 0.471381 -0.00821435
  outer loop
   vertex 2.91131 1.94215 -0.01
   vertex 3.23039 1.34518 -0.01
   vertex 2.99655 1.76989 -0.74349
  endloop
 endfacet
 facet normal 0.920425 0.384452 -0.0708188
  outer loop
   vertex 3.23539 1.33322 -0.01
   vertex 3.3654 0.889475 -0.729234
   vertex 3.23039 1.34518 -0.01
  endloop
 endfacet
 facet normal 0.92042 0.384462 -0.0708259
  outer loop
   vertex 3.23039 1.34518 -0.01
   vertex 3.3654 0.889475 -0.729234
   vertex 2.99655 1.76989 -0.74349
  endloop
 endfacet
 facet normal 0.824434 0.564759 -0.0368213
  outer loop
   vertex 2.90566 1.95038 -0.01
   vertex 2.91131 1.94215 -0.01
   vertex 2.99655 1.76989 -0.74349
  endloop
 endfacet
 facet normal 0.824435 0.564757 -0.0368206
  outer loop
   vertex 2.99655 1.76989 -0.74349
   vertex 2.73167 2.17906 -0.398333
   vertex 2.90566 1.95038 -0.01
  endloop
 endfacet
 facet normal 0.930147 0.302802 -0.207695
  outer loop
   vertex 3.15156 0.623909 -2.77735
   vertex 2.86264 1.24376 -3.16755
   vertex 3.057 1.28763 -2.23319
  endloop
 endfacet
 facet normal 0.949564 0.268324 -0.162268
  outer loop
   vertex 3.15156 0.623909 -2.77735
   vertex 3.057 1.28763 -2.23319
   vertex 3.3416 0.615733 -1.67876
  endloop
 endfacet
 facet normal 0.928346 0.275883 -0.249123
  outer loop
   vertex 2.90747 0.612793 -3.69926
   vertex 2.86264 1.24376 -3.16755
   vertex 3.15156 0.623909 -2.77735
  endloop
 endfacet
 facet normal 0.856926 0.489148 -0.162514
  outer loop
   vertex 3.057 1.28763 -2.23319
   vertex 2.66226 1.79866 -2.77648
   vertex 2.78786 1.94094 -1.68596
  endloop
 endfacet
 facet normal 0.867159 0.455335 -0.201754
  outer loop
   vertex 2.86264 1.24376 -3.16755
   vertex 2.66226 1.79866 -2.77648
   vertex 3.057 1.28763 -2.23319
  endloop
 endfacet
 facet normal 0.842533 0.478529 -0.247282
  outer loop
   vertex 2.86264 1.24376 -3.16755
   vertex 2.48831 1.71639 -3.52835
   vertex 2.66226 1.79866 -2.77648
  endloop
 endfacet
 facet normal 0.871156 0.472052 -0.135106
  outer loop
   vertex 3.057 1.28763 -2.23319
   vertex 2.78786 1.94094 -1.68596
   vertex 3.15169 1.35407 -1.39048
  endloop
 endfacet
 facet normal 0.946927 0.294169 -0.129594
  outer loop
   vertex 3.3416 0.615733 -1.67876
   vertex 3.057 1.28763 -2.23319
   vertex 3.15169 1.35407 -1.39048
  endloop
 endfacet
 facet normal 0.89131 0.296616 -0.342907
  outer loop
   vertex 2.62709 0.523523 -4.50525
   vertex 2.60354 1.28802 -3.90517
   vertex 2.90747 0.612793 -3.69926
  endloop
 endfacet
 facet normal 0.901242 0.314878 -0.297683
  outer loop
   vertex 2.86264 1.24376 -3.16755
   vertex 2.90747 0.612793 -3.69926
   vertex 2.60354 1.28802 -3.90517
  endloop
 endfacet
 facet normal 0.922149 0.385898 -0.0268954
  outer loop
   vertex 3.15169 1.35407 -1.39048
   vertex 2.99655 1.76989 -0.74349
   vertex 3.3654 0.889475 -0.729234
  endloop
 endfacet
 facet normal 0.867919 0.485689 -0.104035
  outer loop
   vertex 3.15169 1.35407 -1.39048
   vertex 2.78786 1.94094 -1.68596
   vertex 2.99655 1.76989 -0.74349
  endloop
 endfacet
 facet normal 0.952156 0.286477 -0.106447
  outer loop
   vertex 3.3416 0.615733 -1.67876
   vertex 3.15169 1.35407 -1.39048
   vertex 3.3654 0.889475 -0.729234
  endloop
 endfacet
 facet normal 0.84158 0.349306 -0.411982
  outer loop
   vertex 2.62709 0.523523 -4.50525
   vertex 2.2266 1.49079 -4.50325
   vertex 2.60354 1.28802 -3.90517
  endloop
 endfacet
 facet normal 0.844327 0.463545 -0.268771
  outer loop
   vertex 2.48831 1.71639 -3.52835
   vertex 2.86264 1.24376 -3.16755
   vertex 2.60354 1.28802 -3.90517
  endloop
 endfacet
 facet normal 0.857687 0.35589 -0.371101
  outer loop
   vertex 2.62709 0.523523 -4.50525
   vertex 2.18624 0.906042 -5.1573
   vertex 2.2266 1.49079 -4.50325
  endloop
 endfacet
 facet normal 0.0950797 0.229543 -0.968643
  outer loop
   vertex 0 0 -7
   vertex 1.5567e-16 0.817923 -6.80617
   vertex 0.578359 0.578359 -6.80617
  endloop
 endfacet
 facet normal 0.677446 0.734947 -0.0303302
  outer loop
   vertex 2.46727 2.48147 -0.01
   vertex 2.47466 2.47466 -0.01
   vertex 2.45668 2.45668 -0.847218
  endloop
 endfacet
 facet normal 0.677446 0.734947 -0.0303302
  outer loop
   vertex 2.46727 2.48147 -0.01
   vertex 2.45668 2.45668 -0.847218
   vertex 2.17468 2.73529 -0.394755
  endloop
 endfacet
 facet normal 0.634153 0.772718 0.0275083
  outer loop
   vertex 1.95033 2.90571 -0.01
   vertex 2.46727 2.48147 -0.01
   vertex 2.17468 2.73529 -0.394755
  endloop
 endfacet
 facet normal 0.0395911 0.998755 -0.0303344
  outer loop
   vertex 6.66076e-16 3.4997 -0.01
   vertex 0.00980969 3.49931 -0.01
   vertex 0.390753 3.47241 -0.398333
  endloop
 endfacet
 facet normal 0.039594 0.998755 -0.0303314
  outer loop
   vertex 6.66076e-16 3.4997 -0.01
   vertex 0.390753 3.47241 -0.398333
   vertex 6.61237e-16 3.47427 -0.847218
  endloop
 endfacet
 facet normal 0.0979808 0.994816 0.0272169
  outer loop
   vertex 0.00980969 3.49931 -0.01
   vertex 0.675484 3.43374 -0.01
   vertex 0.390753 3.47241 -0.398333
  endloop
 endfacet
 facet normal 0.637635 0.764873 -0.0916019
  outer loop
   vertex 1.92748 2.79826 -1.67876
   vertex 2.45668 2.45668 -0.847218
   vertex 2.40156 2.40156 -1.69122
  endloop
 endfacet
 facet normal 0.608308 0.791269 -0.0620953
  outer loop
   vertex 1.75074 3.00865 -0.729234
   vertex 2.45668 2.45668 -0.847218
   vertex 1.92748 2.79826 -1.67876
  endloop
 endfacet
 facet normal 0.600131 0.791805 -0.113528
  outer loop
   vertex 2.17468 2.73529 -0.394755
   vertex 2.45668 2.45668 -0.847218
   vertex 1.75074 3.00865 -0.729234
  endloop
 endfacet
 facet normal 0.631501 0.759561 -0.155799
  outer loop
   vertex 1.92748 2.79826 -1.67876
   vertex 2.40156 2.40156 -1.69122
   vertex 2.3078 2.3078 -2.52837
  endloop
 endfacet
 facet normal 0.626522 0.746134 -0.225286
  outer loop
   vertex 1.78732 2.66966 -2.77735
   vertex 2.3078 2.3078 -2.52837
   vertex 2.1723 2.1723 -3.35396
  endloop
 endfacet
 facet normal 0.615784 0.769652 -0.16866
  outer loop
   vertex 2.3078 2.3078 -2.52837
   vertex 1.78732 2.66966 -2.77735
   vertex 1.92748 2.79826 -1.67876
  endloop
 endfacet
 facet normal 0.611626 0.730833 -0.30298
  outer loop
   vertex 1.62258 2.4892 -3.69926
   vertex 2.1723 2.1723 -3.35396
   vertex 1.99009 1.99009 -4.1613
  endloop
 endfacet
 facet normal 0.598318 0.759409 -0.255567
  outer loop
   vertex 2.1723 2.1723 -3.35396
   vertex 1.62258 2.4892 -3.69926
   vertex 1.78732 2.66966 -2.77735
  endloop
 endfacet
 facet normal 0.599197 0.696999 -0.393899
  outer loop
   vertex 1.48745 2.22782 -4.50525
   vertex 1.99009 1.99009 -4.1613
   vertex 1.75352 1.75352 -4.93979
  endloop
 endfacet
 facet normal 0.581197 0.740445 -0.337566
  outer loop
   vertex 1.48745 2.22782 -4.50525
   vertex 1.62258 2.4892 -3.69926
   vertex 1.99009 1.99009 -4.1613
  endloop
 endfacet
 facet normal 0.492118 0.713355 -0.498942
  outer loop
   vertex 1.45095 1.45095 -5.67079
   vertex 0.905236 2.18657 -5.1573
   vertex 1.75352 1.75352 -4.93979
  endloop
 endfacet
 facet normal 0.493027 0.721701 -0.485872
  outer loop
   vertex 0.905236 2.18657 -5.1573
   vertex 1.48745 2.22782 -4.50525
   vertex 1.75352 1.75352 -4.93979
  endloop
 endfacet
 facet normal 0.451443 0.622325 -0.639461
  outer loop
   vertex 1.06547 1.06547 -6.31808
   vertex 0.696838 1.68246 -5.97787
   vertex 1.45095 1.45095 -5.67079
  endloop
 endfacet
 facet normal 0.441359 0.710237 -0.548421
  outer loop
   vertex 1.45095 1.45095 -5.67079
   vertex 0.696838 1.68246 -5.97787
   vertex 0.905236 2.18657 -5.1573
  endloop
 endfacet
 facet normal 0.358234 0.457346 -0.813943
  outer loop
   vertex 0.578359 0.578359 -6.80617
   vertex 0.518703 1.25226 -6.45377
   vertex 1.06547 1.06547 -6.31808
  endloop
 endfacet
 facet normal 0.380888 0.610481 -0.694433
  outer loop
   vertex 1.06547 1.06547 -6.31808
   vertex 0.518703 1.25226 -6.45377
   vertex 0.696838 1.68246 -5.97787
  endloop
 endfacet
 facet normal 0.193862 0.468025 -0.862189
  outer loop
   vertex 0.518703 1.25226 -6.45377
   vertex 0.578359 0.578359 -6.80617
   vertex 1.5567e-16 0.817923 -6.80617
  endloop
 endfacet
 facet normal 0.0878459 0.991912 -0.0916193
  outer loop
   vertex 0.598865 3.34376 -1.68596
   vertex 6.464e-16 3.39631 -1.69122
   vertex 6.61237e-16 3.47427 -0.847218
  endloop
 endfacet
 facet normal 0.126215 0.989942 -0.0639174
  outer loop
   vertex 0.867378 3.37038 -0.74349
   vertex 0.598865 3.34376 -1.68596
   vertex 6.61237e-16 3.47427 -0.847218
  endloop
 endfacet
 facet normal 0.131174 0.985226 -0.110107
  outer loop
   vertex 6.61237e-16 3.47427 -0.847218
   vertex 0.390753 3.47241 -0.398333
   vertex 0.867378 3.37038 -0.74349
  endloop
 endfacet
 facet normal 0.0877058 0.983881 -0.155839
  outer loop
   vertex 6.464e-16 3.39631 -1.69122
   vertex 0.598865 3.34376 -1.68596
   vertex 6.21163e-16 3.26372 -2.52837
  endloop
 endfacet
 facet normal 0.0823223 0.970799 -0.225329
  outer loop
   vertex 6.21163e-16 3.26372 -2.52837
   vertex 0.610656 3.15434 -2.77648
   vertex 5.84692e-16 3.07209 -3.35396
  endloop
 endfacet
 facet normal 0.106809 0.979806 -0.169033
  outer loop
   vertex 0.610656 3.15434 -2.77648
   vertex 6.21163e-16 3.26372 -2.52837
   vertex 0.598865 3.34376 -1.68596
  endloop
 endfacet
 facet normal 0.0752828 0.949949 -0.303199
  outer loop
   vertex 5.84692e-16 3.07209 -3.35396
   vertex 0.54583 2.97317 -3.52835
   vertex 5.35649e-16 2.81441 -4.1613
  endloop
 endfacet
 facet normal 0.0979484 0.965544 -0.241104
  outer loop
   vertex 0.54583 2.97317 -3.52835
   vertex 5.84692e-16 3.07209 -3.35396
   vertex 0.610656 3.15434 -2.77648
  endloop
 endfacet
 facet normal 0.0684644 0.916592 -0.393917
  outer loop
   vertex 5.35649e-16 2.81441 -4.1613
   vertex 0.520297 2.62859 -4.50325
   vertex 4.71974e-16 2.47984 -4.93979
  endloop
 endfacet
 facet normal 0.163586 0.914347 -0.370418
  outer loop
   vertex 0.930218 2.75175 -3.90517
   vertex 5.35649e-16 2.81441 -4.1613
   vertex 0.54583 2.97317 -3.52835
  endloop
 endfacet
 facet normal 0.144501 0.944936 -0.293623
  outer loop
   vertex 0.520297 2.62859 -4.50325
   vertex 5.35649e-16 2.81441 -4.1613
   vertex 0.930218 2.75175 -3.90517
  endloop
 endfacet
 facet normal 0.156268 0.852422 -0.498956
  outer loop
   vertex 4.71974e-16 2.47984 -4.93979
   vertex 0.905236 2.18657 -5.1573
   vertex 3.90537e-16 2.05196 -5.67079
  endloop
 endfacet
 facet normal 0.161695 0.85917 -0.48547
  outer loop
   vertex 0.520297 2.62859 -4.50325
   vertex 0.905236 2.18657 -5.1573
   vertex 4.71974e-16 2.47984 -4.93979
  endloop
 endfacet
 facet normal 0.120803 0.759271 -0.639464
  outer loop
   vertex 0.696838 1.68246 -5.97787
   vertex 2.86781e-16 1.50681 -6.31808
   vertex 3.90537e-16 2.05196 -5.67079
  endloop
 endfacet
 facet normal 0.190047 0.814264 -0.548504
  outer loop
   vertex 0.696838 1.68246 -5.97787
   vertex 3.90537e-16 2.05196 -5.67079
   vertex 0.905236 2.18657 -5.1573
  endloop
 endfacet
 facet normal 0.0700827 0.576702 -0.813943
  outer loop
   vertex 2.86781e-16 1.50681 -6.31808
   vertex 0.518703 1.25226 -6.45377
   vertex 1.5567e-16 0.817923 -6.80617
  endloop
 endfacet
 facet normal 0.162337 0.700993 -0.694446
  outer loop
   vertex 0.518703 1.25226 -6.45377
   vertex 2.86781e-16 1.50681 -6.31808
   vertex 0.696838 1.68246 -5.97787
  endloop
 endfacet
 facet normal 0.471388 0.881905 -0.00611946
  outer loop
   vertex 1.34503 3.23049 -0.01
   vertex 1.94184 2.91149 -0.01
   vertex 1.75074 3.00865 -0.729234
  endloop
 endfacet
 facet normal 0.562461 0.825956 -0.0378771
  outer loop
   vertex 1.95033 2.90571 -0.01
   vertex 2.17468 2.73529 -0.394755
   vertex 1.94184 2.91149 -0.01
  endloop
 endfacet
 facet normal 0.562463 0.825954 -0.0378756
  outer loop
   vertex 1.94184 2.91149 -0.01
   vertex 2.17468 2.73529 -0.394755
   vertex 1.75074 3.00865 -0.729234
  endloop
 endfacet
 facet normal 0.290275 0.956908 -0.00821437
  outer loop
   vertex 0.685299 3.43191 -0.01
   vertex 1.33304 3.23542 -0.01
   vertex 0.867378 3.37038 -0.74349
  endloop
 endfacet
 facet normal 0.378984 0.922689 -0.0708227
  outer loop
   vertex 1.34503 3.23049 -0.01
   vertex 1.75074 3.00865 -0.729234
   vertex 1.33304 3.23542 -0.01
  endloop
 endfacet
 facet normal 0.37898 0.922691 -0.0708257
  outer loop
   vertex 1.33304 3.23542 -0.01
   vertex 1.75074 3.00865 -0.729234
   vertex 0.867378 3.37038 -0.74349
  endloop
 endfacet
 facet normal 0.183623 0.982307 -0.0368199
  outer loop
   vertex 0.675484 3.43374 -0.01
   vertex 0.685299 3.43191 -0.01
   vertex 0.867378 3.37038 -0.74349
  endloop
 endfacet
 facet normal 0.18362 0.982307 -0.0368207
  outer loop
   vertex 0.867378 3.37038 -0.74349
   vertex 0.390753 3.47241 -0.398333
   vertex 0.675484 3.43374 -0.01
  endloop
 endfacet
 facet normal 0.481709 0.861177 -0.162268
  outer loop
   vertex 1.78732 2.66966 -2.77735
   vertex 1.25114 3.07211 -2.23319
   vertex 1.92748 2.79826 -1.67876
  endloop
 endfacet
 facet normal 0.461569 0.877587 -0.129594
  outer loop
   vertex 1.92748 2.79826 -1.67876
   vertex 1.25114 3.07211 -2.23319
   vertex 1.27111 3.18605 -1.39048
  endloop
 endfacet
 facet normal 0.470706 0.875845 -0.106448
  outer loop
   vertex 1.92748 2.79826 -1.67876
   vertex 1.27111 3.18605 -1.39048
   vertex 1.75074 3.00865 -0.729234
  endloop
 endfacet
 facet normal 0.25739 0.934132 -0.247282
  outer loop
   vertex 1.14472 2.90366 -3.16755
   vertex 0.54583 2.97317 -3.52835
   vertex 0.610656 3.15434 -2.77648
  endloop
 endfacet
 facet normal 0.269254 0.924805 -0.268771
  outer loop
   vertex 0.54583 2.97317 -3.52835
   vertex 1.14472 2.90366 -3.16755
   vertex 0.930218 2.75175 -3.90517
  endloop
 endfacet
 facet normal 0.260058 0.951819 -0.162514
  outer loop
   vertex 1.25114 3.07211 -2.23319
   vertex 0.610656 3.15434 -2.77648
   vertex 0.598865 3.34376 -1.68596
  endloop
 endfacet
 facet normal 0.291204 0.935145 -0.201754
  outer loop
   vertex 1.14472 2.90366 -3.16755
   vertex 0.610656 3.15434 -2.77648
   vertex 1.25114 3.07211 -2.23319
  endloop
 endfacet
 facet normal 0.4436 0.871827 -0.207695
  outer loop
   vertex 1.78732 2.66966 -2.77735
   vertex 1.14472 2.90366 -3.16755
   vertex 1.25114 3.07211 -2.23319
  endloop
 endfacet
 facet normal 0.46136 0.851519 -0.249123
  outer loop
   vertex 1.62258 2.4892 -3.69926
   vertex 1.14472 2.90366 -3.16755
   vertex 1.78732 2.66966 -2.77735
  endloop
 endfacet
 facet normal 0.282209 0.949792 -0.135106
  outer loop
   vertex 1.25114 3.07211 -2.23319
   vertex 0.598865 3.34376 -1.68596
   vertex 1.27111 3.18605 -1.39048
  endloop
 endfacet
 facet normal 0.270277 0.957145 -0.104035
  outer loop
   vertex 1.27111 3.18605 -1.39048
   vertex 0.598865 3.34376 -1.68596
   vertex 0.867378 3.37038 -0.74349
  endloop
 endfacet
 facet normal 0.379187 0.924929 -0.0268955
  outer loop
   vertex 1.27111 3.18605 -1.39048
   vertex 0.867378 3.37038 -0.74349
   vertex 1.75074 3.00865 -0.729234
  endloop
 endfacet
 facet normal 0.420512 0.839991 -0.342907
  outer loop
   vertex 1.48745 2.22782 -4.50525
   vertex 0.930218 2.75175 -3.90517
   vertex 1.62258 2.4892 -3.69926
  endloop
 endfacet
 facet normal 0.414622 0.859927 -0.297683
  outer loop
   vertex 1.14472 2.90366 -3.16755
   vertex 1.62258 2.4892 -3.69926
   vertex 0.930218 2.75175 -3.90517
  endloop
 endfacet
 facet normal 0.354824 0.858128 -0.371101
  outer loop
   vertex 1.48745 2.22782 -4.50525
   vertex 0.905236 2.18657 -5.1573
   vertex 0.520297 2.62859 -4.50325
  endloop
 endfacet
 facet normal 0.34809 0.842083 -0.411982
  outer loop
   vertex 1.48745 2.22782 -4.50525
   vertex 0.520297 2.62859 -4.50325
   vertex 0.930218 2.75175 -3.90517
  endloop
 endfacet
 facet normal -0.0950797 0.229543 -0.968643
  outer loop
   vertex 0 0 -7
   vertex -0.578359 0.578359 -6.80617
   vertex 1.5567e-16 0.817923 -6.80617
  endloop
 endfacet
 facet normal -0.0406657 0.998712 -0.0303301
  outer loop
   vertex -0.0100419 3.49929 -0.01
   vertex 6.66076e-16 3.4997 -0.01
   vertex 6.61237e-16 3.47427 -0.847218
  endloop
 endfacet
 facet normal -0.0406597 0.998713 -0.0303301
  outer loop
   vertex -0.0100419 3.49929 -0.01
   vertex 6.61237e-16 3.47427 -0.847218
   vertex -0.39641 3.47187 -0.394755
  endloop
 endfacet
 facet normal -0.0979798 0.994808 0.0275085
  outer loop
   vertex -0.675561 3.43374 -0.01
   vertex -0.0100419 3.49929 -0.01
   vertex -0.39641 3.47187 -0.394755
  endloop
 endfacet
 facet normal -0.678226 0.734227 -0.0303273
  outer loop
   vertex -2.47466 2.47466 -0.01
   vertex -2.46745 2.48132 -0.01
   vertex -2.17906 2.73167 -0.398333
  endloop
 endfacet
 facet normal -0.678229 0.734224 -0.0303314
  outer loop
   vertex -2.47466 2.47466 -0.01
   vertex -2.17906 2.73167 -0.398333
   vertex -2.45668 2.45668 -0.847218
  endloop
 endfacet
 facet normal -0.634158 0.772724 0.0272167
  outer loop
   vertex -2.46745 2.48132 -0.01
   vertex -1.95038 2.90566 -0.01
   vertex -2.17906 2.73167 -0.398333
  endloop
 endfacet
 facet normal -0.0899711 0.991723 -0.0916019
  outer loop
   vertex -0.615733 3.3416 -1.67876
   vertex 6.61237e-16 3.47427 -0.847218
   vertex 6.464e-16 3.39631 -1.69122
  endloop
 endfacet
 facet normal -0.135534 0.984247 -0.113528
  outer loop
   vertex -0.39641 3.47187 -0.394755
   vertex 6.61237e-16 3.47427 -0.847218
   vertex -0.889475 3.3654 -0.729234
  endloop
 endfacet
 facet normal -0.129373 0.98965 -0.0620952
  outer loop
   vertex -0.889475 3.3654 -0.729234
   vertex 6.61237e-16 3.47427 -0.847218
   vertex -0.615733 3.3416 -1.67876
  endloop
 endfacet
 facet normal -0.0905513 0.98363 -0.155799
  outer loop
   vertex -0.615733 3.3416 -1.67876
   vertex 6.464e-16 3.39631 -1.69122
   vertex 6.21163e-16 3.26372 -2.52837
  endloop
 endfacet
 facet normal -0.0845787 0.970615 -0.225286
  outer loop
   vertex -0.623909 3.15156 -2.77735
   vertex 6.21163e-16 3.26372 -2.52837
   vertex 5.84692e-16 3.07209 -3.35396
  endloop
 endfacet
 facet normal -0.108801 0.979651 -0.168661
  outer loop
   vertex 6.21163e-16 3.26372 -2.52837
   vertex -0.623909 3.15156 -2.77735
   vertex -0.615733 3.3416 -1.67876
  endloop
 endfacet
 facet normal -0.084292 0.949262 -0.30298
  outer loop
   vertex -0.612793 2.90747 -3.69926
   vertex 5.84692e-16 3.07209 -3.35396
   vertex 5.35649e-16 2.81441 -4.1613
  endloop
 endfacet
 facet normal -0.113908 0.960058 -0.255567
  outer loop
   vertex 5.84692e-16 3.07209 -3.35396
   vertex -0.612793 2.90747 -3.69926
   vertex -0.623909 3.15156 -2.77735
  endloop
 endfacet
 facet normal -0.0691563 0.916549 -0.393898
  outer loop
   vertex -0.523523 2.62709 -4.50525
   vertex 5.35649e-16 2.81441 -4.1613
   vertex 4.71974e-16 2.47984 -4.93979
  endloop
 endfacet
 facet normal -0.112605 0.934543 -0.337565
  outer loop
   vertex -0.523523 2.62709 -4.50525
   vertex -0.612793 2.90747 -3.69926
   vertex 5.35649e-16 2.81441 -4.1613
  endloop
 endfacet
 facet normal -0.156438 0.852399 -0.498942
  outer loop
   vertex -0.906042 2.18624 -5.1573
   vertex 4.71974e-16 2.47984 -4.93979
   vertex 3.90537e-16 2.05196 -5.67079
  endloop
 endfacet
 facet normal -0.161697 0.858943 -0.485872
  outer loop
   vertex -0.906042 2.18624 -5.1573
   vertex -0.523523 2.62709 -4.50525
   vertex 4.71974e-16 2.47984 -4.93979
  endloop
 endfacet
 facet normal -0.120832 0.759269 -0.639461
  outer loop
   vertex 2.86781e-16 1.50681 -6.31808
   vertex -0.696941 1.68242 -5.97787
   vertex 3.90537e-16 2.05196 -5.67079
  endloop
 endfacet
 facet normal -0.190126 0.814301 -0.548421
  outer loop
   vertex 3.90537e-16 2.05196 -5.67079
   vertex -0.696941 1.68242 -5.97787
   vertex -0.906042 2.18624 -5.1573
  endloop
 endfacet
 facet normal -0.0700827 0.576702 -0.813943
  outer loop
   vertex 1.5567e-16 0.817923 -6.80617
   vertex -0.518703 1.25226 -6.45377
   vertex 2.86781e-16 1.50681 -6.31808
  endloop
 endfacet
 facet normal -0.162347 0.701004 -0.694433
  outer loop
   vertex 2.86781e-16 1.50681 -6.31808
   vertex -0.518703 1.25226 -6.45377
   vertex -0.696941 1.68242 -5.97787
  endloop
 endfacet
 facet normal -0.193862 0.468025 -0.862189
  outer loop
   vertex -0.518703 1.25226 -6.45377
   vertex 1.5567e-16 0.817923 -6.80617
   vertex -0.578359 0.578359 -6.80617
  endloop
 endfacet
 facet normal -0.639271 0.763504 -0.0916193
  outer loop
   vertex -1.94094 2.78786 -1.68596
   vertex -2.40156 2.40156 -1.69122
   vertex -2.45668 2.45668 -0.847218
  endloop
 endfacet
 facet normal -0.603906 0.789414 -0.110107
  outer loop
   vertex -2.45668 2.45668 -0.847218
   vertex -2.17906 2.73167 -0.398333
   vertex -1.76989 2.99655 -0.74349
  endloop
 endfacet
 facet normal -0.610747 0.789242 -0.0639174
  outer loop
   vertex -1.76989 2.99655 -0.74349
   vertex -1.94094 2.78786 -1.68596
   vertex -2.45668 2.45668 -0.847218
  endloop
 endfacet
 facet normal -0.633692 0.757726 -0.155839
  outer loop
   vertex -2.40156 2.40156 -1.69122
   vertex -1.94094 2.78786 -1.68596
   vertex -2.3078 2.3078 -2.52837
  endloop
 endfacet
 facet normal -0.628248 0.744669 -0.225329
  outer loop
   vertex -2.3078 2.3078 -2.52837
   vertex -1.79866 2.66226 -2.77648
   vertex -2.1723 2.1723 -3.35396
  endloop
 endfacet
 facet normal -0.617302 0.768353 -0.169033
  outer loop
   vertex -1.79866 2.66226 -2.77648
   vertex -2.3078 2.3078 -2.52837
   vertex -1.94094 2.78786 -1.68596
  endloop
 endfacet
 facet normal -0.618482 0.724948 -0.303199
  outer loop
   vertex -2.1723 2.1723 -3.35396
   vertex -1.71639 2.48831 -3.52835
   vertex -1.99009 1.99009 -4.1613
  endloop
 endfacet
 facet normal -0.613483 0.752003 -0.241104
  outer loop
   vertex -1.71639 2.48831 -3.52835
   vertex -2.1723 2.1723 -3.35396
   vertex -1.79866 2.66226 -2.77648
  endloop
 endfacet
 facet normal -0.599717 0.696541 -0.393917
  outer loop
   vertex -1.99009 1.99009 -4.1613
   vertex -1.49079 2.2266 -4.50325
   vertex -1.75352 1.75352 -4.93979
  endloop
 endfacet
 facet normal -0.565993 0.770349 -0.293624
  outer loop
   vertex -1.49079 2.2266 -4.50325
   vertex -1.99009 1.99009 -4.1613
   vertex -1.28802 2.60354 -3.90517
  endloop
 endfacet
 facet normal -0.530868 0.762214 -0.370418
  outer loop
   vertex -1.28802 2.60354 -3.90517
   vertex -1.99009 1.99009 -4.1613
   vertex -1.71639 2.48831 -3.52835
  endloop
 endfacet
 facet normal -0.492255 0.713251 -0.498956
  outer loop
   vertex -0.906042 2.18624 -5.1573
   vertex -1.45095 1.45095 -5.67079
   vertex -1.75352 1.75352 -4.93979
  endloop
 endfacet
 facet normal -0.49319 0.721861 -0.48547
  outer loop
   vertex -1.49079 2.2266 -4.50325
   vertex -0.906042 2.18624 -5.1573
   vertex -1.75352 1.75352 -4.93979
  endloop
 endfacet
 facet normal -0.451465 0.622307 -0.639464
  outer loop
   vertex -0.696941 1.68242 -5.97787
   vertex -1.06547 1.06547 -6.31808
   vertex -1.45095 1.45095 -5.67079
  endloop
 endfacet
 facet normal -0.441388 0.710155 -0.548504
  outer loop
   vertex -0.696941 1.68242 -5.97787
   vertex -1.45095 1.45095 -5.67079
   vertex -0.906042 2.18624 -5.1573
  endloop
 endfacet
 facet normal -0.358234 0.457346 -0.813943
  outer loop
   vertex -1.06547 1.06547 -6.31808
   vertex -0.518703 1.25226 -6.45377
   vertex -0.578359 0.578359 -6.80617
  endloop
 endfacet
 facet normal -0.380887 0.610467 -0.694446
  outer loop
   vertex -0.518703 1.25226 -6.45377
   vertex -1.06547 1.06547 -6.31808
   vertex -0.696941 1.68242 -5.97787
  endloop
 endfacet
 facet normal -0.290279 0.956922 -0.00611955
  outer loop
   vertex -1.33322 3.23539 -0.01
   vertex -0.68565 3.43182 -0.01
   vertex -0.889475 3.3654 -0.729234
  endloop
 endfacet
 facet normal -0.186319 0.981759 -0.0378773
  outer loop
   vertex -0.675561 3.43374 -0.01
   vertex -0.39641 3.47187 -0.394755
   vertex -0.68565 3.43182 -0.01
  endloop
 endfacet
 facet normal -0.186317 0.981759 -0.0378756
  outer loop
   vertex -0.68565 3.43182 -0.01
   vertex -0.39641 3.47187 -0.394755
   vertex -0.889475 3.3654 -0.729234
  endloop
 endfacet
 facet normal -0.471381 0.881891 -0.00821435
  outer loop
   vertex -1.94215 2.91131 -0.01
   vertex -1.34518 3.23039 -0.01
   vertex -1.76989 2.99655 -0.74349
  endloop
 endfacet
 facet normal -0.384452 0.920425 -0.0708188
  outer loop
   vertex -1.33322 3.23539 -0.01
   vertex -0.889475 3.3654 -0.729234
   vertex -1.34518 3.23039 -0.01
  endloop
 endfacet
 facet normal -0.384462 0.92042 -0.0708259
  outer loop
   vertex -1.34518 3.23039 -0.01
   vertex -0.889475 3.3654 -0.729234
   vertex -1.76989 2.99655 -0.74349
  endloop
 endfacet
 facet normal -0.564759 0.824434 -0.0368213
  outer loop
   vertex -1.95038 2.90566 -0.01
   vertex -1.94215 2.91131 -0.01
   vertex -1.76989 2.99655 -0.74349
  endloop
 endfacet
 facet normal -0.564757 0.824435 -0.0368206
  outer loop
   vertex -1.76989 2.99655 -0.74349
   vertex -2.17906 2.73167 -0.398333
   vertex -1.95038 2.90566 -0.01
  endloop
 endfacet
 facet normal -0.302802 0.930147 -0.207695
  outer loop
   vertex -0.623909 3.15156 -2.77735
   vertex -1.24376 2.86264 -3.16755
   vertex -1.28763 3.057 -2.23319
  endloop
 endfacet
 facet normal -0.268324 0.949564 -0.162268
  outer loop
   vertex -0.623909 3.15156 -2.77735
   vertex -1.28763 3.057 -2.23319
   vertex -0.615733 3.3416 -1.67876
  endloop
 endfacet
 facet normal -0.275883 0.928346 -0.249123
  outer loop
   vertex -0.612793 2.90747 -3.69926
   vertex -1.24376 2.86264 -3.16755
   vertex -0.623909 3.15156 -2.77735
  endloop
 endfacet
 facet normal -0.455335 0.867159 -0.201754
  outer loop
   vertex -1.24376 2.86264 -3.16755
   vertex -1.79866 2.66226 -2.77648
   vertex -1.28763 3.057 -2.23319
  endloop
 endfacet
 facet normal -0.489148 0.856926 -0.162514
  outer loop
   vertex -1.28763 3.057 -2.23319
   vertex -1.79866 2.66226 -2.77648
   vertex -1.94094 2.78786 -1.68596
  endloop
 endfacet
 facet normal -0.294169 0.946927 -0.129594
  outer loop
   vertex -0.615733 3.3416 -1.67876
   vertex -1.28763 3.057 -2.23319
   vertex -1.35407 3.15169 -1.39048
  endloop
 endfacet
 facet normal -0.472052 0.871156 -0.135106
  outer loop
   vertex -1.28763 3.057 -2.23319
   vertex -1.94094 2.78786 -1.68596
   vertex -1.35407 3.15169 -1.39048
  endloop
 endfacet
 facet normal -0.478529 0.842533 -0.247282
  outer loop
   vertex -1.24376 2.86264 -3.16755
   vertex -1.71639 2.48831 -3.52835
   vertex -1.79866 2.66226 -2.77648
  endloop
 endfacet
 facet normal -0.296616 0.89131 -0.342907
  outer loop
   vertex -0.523523 2.62709 -4.50525
   vertex -1.28802 2.60354 -3.90517
   vertex -0.612793 2.90747 -3.69926
  endloop
 endfacet
 facet normal -0.314878 0.901242 -0.297683
  outer loop
   vertex -1.24376 2.86264 -3.16755
   vertex -0.612793 2.90747 -3.69926
   vertex -1.28802 2.60354 -3.90517
  endloop
 endfacet
 facet normal -0.385898 0.922149 -0.0268954
  outer loop
   vertex -1.35407 3.15169 -1.39048
   vertex -1.76989 2.99655 -0.74349
   vertex -0.889475 3.3654 -0.729234
  endloop
 endfacet
 facet normal -0.485689 0.867919 -0.104035
  outer loop
   vertex -1.35407 3.15169 -1.39048
   vertex -1.94094 2.78786 -1.68596
   vertex -1.76989 2.99655 -0.74349
  endloop
 endfacet
 facet normal -0.286477 0.952156 -0.106447
  outer loop
   vertex -0.615733 3.3416 -1.67876
   vertex -1.35407 3.15169 -1.39048
   vertex -0.889475 3.3654 -0.729234
  endloop
 endfacet
 facet normal -0.35589 0.857687 -0.371101
  outer loop
   vertex -0.523523 2.62709 -4.50525
   vertex -0.906042 2.18624 -5.1573
   vertex -1.49079 2.2266 -4.50325
  endloop
 endfacet
 facet normal -0.349306 0.84158 -0.411982
  outer loop
   vertex -0.523523 2.62709 -4.50525
   vertex -1.49079 2.2266 -4.50325
   vertex -1.28802 2.60354 -3.90517
  endloop
 endfacet
 facet normal -0.463545 0.844327 -0.268771
  outer loop
   vertex -1.71639 2.48831 -3.52835
   vertex -1.24376 2.86264 -3.16755
   vertex -1.28802 2.60354 -3.90517
  endloop
 endfacet
 facet normal -0.229543 0.0950797 -0.968643
  outer loop
   vertex 0 0 -7
   vertex -0.817923 3.11341e-16 -6.80617
   vertex -0.578359 0.578359 -6.80617
  endloop
 endfacet
 facet normal -0.734947 0.677446 -0.0303302
  outer loop
   vertex -2.48147 2.46727 -0.01
   vertex -2.47466 2.47466 -0.01
   vertex -2.45668 2.45668 -0.847218
  endloop
 endfacet
 facet normal -0.734947 0.677446 -0.0303302
  outer loop
   vertex -2.48147 2.46727 -0.01
   vertex -2.45668 2.45668 -0.847218
   vertex -2.73529 2.17468 -0.394755
  endloop
 endfacet
 facet normal -0.772718 0.634153 0.0275083
  outer loop
   vertex -2.90571 1.95033 -0.01
   vertex -2.48147 2.46727 -0.01
   vertex -2.73529 2.17468 -0.394755
  endloop
 endfacet
 facet normal -0.998755 0.0395911 -0.0303344
  outer loop
   vertex -3.4997 1.33215e-15 -0.01
   vertex -3.49931 0.00980969 -0.01
   vertex -3.47241 0.390753 -0.398333
  endloop
 endfacet
 facet normal -0.998755 0.039594 -0.0303314
  outer loop
   vertex -3.4997 1.33215e-15 -0.01
   vertex -3.47241 0.390753 -0.398333
   vertex -3.47427 1.32247e-15 -0.847218
  endloop
 endfacet
 facet normal -0.994816 0.0979808 0.0272169
  outer loop
   vertex -3.49931 0.00980969 -0.01
   vertex -3.43374 0.675484 -0.01
   vertex -3.47241 0.390753 -0.398333
  endloop
 endfacet
 facet normal -0.764873 0.637635 -0.0916019
  outer loop
   vertex -2.79826 1.92748 -1.67876
   vertex -2.45668 2.45668 -0.847218
   vertex -2.40156 2.40156 -1.69122
  endloop
 endfacet
 facet normal -0.791269 0.608308 -0.0620953
  outer loop
   vertex -3.00865 1.75074 -0.729234
   vertex -2.45668 2.45668 -0.847218
   vertex -2.79826 1.92748 -1.67876
  endloop
 endfacet
 facet normal -0.791805 0.600131 -0.113528
  outer loop
   vertex -2.73529 2.17468 -0.394755
   vertex -2.45668 2.45668 -0.847218
   vertex -3.00865 1.75074 -0.729234
  endloop
 endfacet
 facet normal -0.759561 0.631501 -0.155799
  outer loop
   vertex -2.79826 1.92748 -1.67876
   vertex -2.40156 2.40156 -1.69122
   vertex -2.3078 2.3078 -2.52837
  endloop
 endfacet
 facet normal -0.746134 0.626522 -0.225286
  outer loop
   vertex -2.66966 1.78732 -2.77735
   vertex -2.3078 2.3078 -2.52837
   vertex -2.1723 2.1723 -3.35396
  endloop
 endfacet
 facet normal -0.769652 0.615784 -0.16866
  outer loop
   vertex -2.3078 2.3078 -2.52837
   vertex -2.66966 1.78732 -2.77735
   vertex -2.79826 1.92748 -1.67876
  endloop
 endfacet
 facet normal -0.730833 0.611626 -0.30298
  outer loop
   vertex -2.4892 1.62258 -3.69926
   vertex -2.1723 2.1723 -3.35396
   vertex -1.99009 1.99009 -4.1613
  endloop
 endfacet
 facet normal -0.759409 0.598318 -0.255567
  outer loop
   vertex -2.1723 2.1723 -3.35396
   vertex -2.4892 1.62258 -3.69926
   vertex -2.66966 1.78732 -2.77735
  endloop
 endfacet
 facet normal -0.696999 0.599197 -0.393899
  outer loop
   vertex -2.22782 1.48745 -4.50525
   vertex -1.99009 1.99009 -4.1613
   vertex -1.75352 1.75352 -4.93979
  endloop
 endfacet
 facet normal -0.740445 0.581197 -0.337566
  outer loop
   vertex -2.22782 1.48745 -4.50525
   vertex -2.4892 1.62258 -3.69926
   vertex -1.99009 1.99009 -4.1613
  endloop
 endfacet
 facet normal -0.713355 0.492118 -0.498942
  outer loop
   vertex -1.45095 1.45095 -5.67079
   vertex -2.18657 0.905236 -5.1573
   vertex -1.75352 1.75352 -4.93979
  endloop
 endfacet
 facet normal -0.721701 0.493027 -0.485872
  outer loop
   vertex -2.18657 0.905236 -5.1573
   vertex -2.22782 1.48745 -4.50525
   vertex -1.75352 1.75352 -4.93979
  endloop
 endfacet
 facet normal -0.622325 0.451443 -0.639461
  outer loop
   vertex -1.06547 1.06547 -6.31808
   vertex -1.68246 0.696838 -5.97787
   vertex -1.45095 1.45095 -5.67079
  endloop
 endfacet
 facet normal -0.710237 0.441359 -0.548421
  outer loop
   vertex -1.45095 1.45095 -5.67079
   vertex -1.68246 0.696838 -5.97787
   vertex -2.18657 0.905236 -5.1573
  endloop
 endfacet
 facet normal -0.457346 0.358234 -0.813943
  outer loop
   vertex -0.578359 0.578359 -6.80617
   vertex -1.25226 0.518703 -6.45377
   vertex -1.06547 1.06547 -6.31808
  endloop
 endfacet
 facet normal -0.610481 0.380888 -0.694433
  outer loop
   vertex -1.06547 1.06547 -6.31808
   vertex -1.25226 0.518703 -6.45377
   vertex -1.68246 0.696838 -5.97787
  endloop
 endfacet
 facet normal -0.468025 0.193862 -0.862189
  outer loop
   vertex -1.25226 0.518703 -6.45377
   vertex -0.578359 0.578359 -6.80617
   vertex -0.817923 3.11341e-16 -6.80617
  endloop
 endfacet
 facet normal -0.991912 0.0878459 -0.0916193
  outer loop
   vertex -3.34376 0.598865 -1.68596
   vertex -3.39631 1.2928e-15 -1.69122
   vertex -3.47427 1.32247e-15 -0.847218
  endloop
 endfacet
 facet normal -0.989942 0.126215 -0.0639174
  outer loop
   vertex -3.37038 0.867378 -0.74349
   vertex -3.34376 0.598865 -1.68596
   vertex -3.47427 1.32247e-15 -0.847218
  endloop
 endfacet
 facet normal -0.985226 0.131174 -0.110107
  outer loop
   vertex -3.47427 1.32247e-15 -0.847218
   vertex -3.47241 0.390753 -0.398333
   vertex -3.37038 0.867378 -0.74349
  endloop
 endfacet
 facet normal -0.983881 0.0877058 -0.155839
  outer loop
   vertex -3.39631 1.2928e-15 -1.69122
   vertex -3.34376 0.598865 -1.68596
   vertex -3.26372 1.24233e-15 -2.52837
  endloop
 endfacet
 facet normal -0.970799 0.0823223 -0.225329
  outer loop
   vertex -3.26372 1.24233e-15 -2.52837
   vertex -3.15434 0.610656 -2.77648
   vertex -3.07209 1.16938e-15 -3.35396
  endloop
 endfacet
 facet normal -0.979806 0.106809 -0.169033
  outer loop
   vertex -3.15434 0.610656 -2.77648
   vertex -3.26372 1.24233e-15 -2.52837
   vertex -3.34376 0.598865 -1.68596
  endloop
 endfacet
 facet normal -0.949949 0.0752828 -0.303199
  outer loop
   vertex -3.07209 1.16938e-15 -3.35396
   vertex -2.97317 0.54583 -3.52835
   vertex -2.81441 1.0713e-15 -4.1613
  endloop
 endfacet
 facet normal -0.965544 0.0979484 -0.241104
  outer loop
   vertex -2.97317 0.54583 -3.52835
   vertex -3.07209 1.16938e-15 -3.35396
   vertex -3.15434 0.610656 -2.77648
  endloop
 endfacet
 facet normal -0.916592 0.0684644 -0.393917
  outer loop
   vertex -2.81441 1.0713e-15 -4.1613
   vertex -2.62859 0.520297 -4.50325
   vertex -2.47984 9.43948e-16 -4.93979
  endloop
 endfacet
 facet normal -0.914347 0.163586 -0.370418
  outer loop
   vertex -2.75175 0.930218 -3.90517
   vertex -2.81441 1.0713e-15 -4.1613
   vertex -2.97317 0.54583 -3.52835
  endloop
 endfacet
 facet normal -0.944936 0.144501 -0.293623
  outer loop
   vertex -2.62859 0.520297 -4.50325
   vertex -2.81441 1.0713e-15 -4.1613
   vertex -2.75175 0.930218 -3.90517
  endloop
 endfacet
 facet normal -0.852422 0.156268 -0.498956
  outer loop
   vertex -2.47984 9.43948e-16 -4.93979
   vertex -2.18657 0.905236 -5.1573
   vertex -2.05196 7.81074e-16 -5.67079
  endloop
 endfacet
 facet normal -0.85917 0.161695 -0.48547
  outer loop
   vertex -2.62859 0.520297 -4.50325
   vertex -2.18657 0.905236 -5.1573
   vertex -2.47984 9.43948e-16 -4.93979
  endloop
 endfacet
 facet normal -0.759271 0.120803 -0.639464
  outer loop
   vertex -1.68246 0.696838 -5.97787
   vertex -1.50681 5.73563e-16 -6.31808
   vertex -2.05196 7.81074e-16 -5.67079
  endloop
 endfacet
 facet normal -0.814264 0.190047 -0.548504
  outer loop
   vertex -1.68246 0.696838 -5.97787
   vertex -2.05196 7.81074e-16 -5.67079
   vertex -2.18657 0.905236 -5.1573
  endloop
 endfacet
 facet normal -0.576702 0.0700827 -0.813943
  outer loop
   vertex -1.50681 5.73563e-16 -6.31808
   vertex -1.25226 0.518703 -6.45377
   vertex -0.817923 3.11341e-16 -6.80617
  endloop
 endfacet
 facet normal -0.700993 0.162337 -0.694446
  outer loop
   vertex -1.25226 0.518703 -6.45377
   vertex -1.50681 5.73563e-16 -6.31808
   vertex -1.68246 0.696838 -5.97787
  endloop
 endfacet
 facet normal -0.881905 0.471388 -0.00611946
  outer loop
   vertex -3.23049 1.34503 -0.01
   vertex -2.91149 1.94184 -0.01
   vertex -3.00865 1.75074 -0.729234
  endloop
 endfacet
 facet normal -0.825956 0.562461 -0.0378771
  outer loop
   vertex -2.90571 1.95033 -0.01
   vertex -2.73529 2.17468 -0.394755
   vertex -2.91149 1.94184 -0.01
  endloop
 endfacet
 facet normal -0.825954 0.562463 -0.0378756
  outer loop
   vertex -2.91149 1.94184 -0.01
   vertex -2.73529 2.17468 -0.394755
   vertex -3.00865 1.75074 -0.729234
  endloop
 endfacet
 facet normal -0.956908 0.290275 -0.00821437
  outer loop
   vertex -3.43191 0.685299 -0.01
   vertex -3.23542 1.33304 -0.01
   vertex -3.37038 0.867378 -0.74349
  endloop
 endfacet
 facet normal -0.922689 0.378984 -0.0708227
  outer loop
   vertex -3.23049 1.34503 -0.01
   vertex -3.00865 1.75074 -0.729234
   vertex -3.23542 1.33304 -0.01
  endloop
 endfacet
 facet normal -0.922691 0.37898 -0.0708257
  outer loop
   vertex -3.23542 1.33304 -0.01
   vertex -3.00865 1.75074 -0.729234
   vertex -3.37038 0.867378 -0.74349
  endloop
 endfacet
 facet normal -0.982307 0.183623 -0.0368199
  outer loop
   vertex -3.43374 0.675484 -0.01
   vertex -3.43191 0.685299 -0.01
   vertex -3.37038 0.867378 -0.74349
  endloop
 endfacet
 facet normal -0.982307 0.18362 -0.0368207
  outer loop
   vertex -3.37038 0.867378 -0.74349
   vertex -3.47241 0.390753 -0.398333
   vertex -3.43374 0.675484 -0.01
  endloop
 endfacet
 facet normal -0.851519 0.46136 -0.249123
  outer loop
   vertex -2.4892 1.62258 -3.69926
   vertex -2.90366 1.14472 -3.16755
   vertex -2.66966 1.78732 -2.77735
  endloop
 endfacet
 facet normal -0.861177 0.481709 -0.162268
  outer loop
   vertex -2.66966 1.78732 -2.77735
   vertex -3.07211 1.25114 -2.23319
   vertex -2.79826 1.92748 -1.67876
  endloop
 endfacet
 facet normal -0.871827 0.4436 -0.207695
  outer loop
   vertex -2.66966 1.78732 -2.77735
   vertex -2.90366 1.14472 -3.16755
   vertex -3.07211 1.25114 -2.23319
  endloop
 endfacet
 facet normal -0.839991 0.420512 -0.342907
  outer loop
   vertex -2.22782 1.48745 -4.50525
   vertex -2.75175 0.930218 -3.90517
   vertex -2.4892 1.62258 -3.69926
  endloop
 endfacet
 facet normal -0.859927 0.414622 -0.297683
  outer loop
   vertex -2.90366 1.14472 -3.16755
   vertex -2.4892 1.62258 -3.69926
   vertex -2.75175 0.930218 -3.90517
  endloop
 endfacet
 facet normal -0.924805 0.269254 -0.268771
  outer loop
   vertex -2.97317 0.54583 -3.52835
   vertex -2.90366 1.14472 -3.16755
   vertex -2.75175 0.930218 -3.90517
  endloop
 endfacet
 facet normal -0.842083 0.34809 -0.411982
  outer loop
   vertex -2.22782 1.48745 -4.50525
   vertex -2.62859 0.520297 -4.50325
   vertex -2.75175 0.930218 -3.90517
  endloop
 endfacet
 facet normal -0.877587 0.461569 -0.129594
  outer loop
   vertex -2.79826 1.92748 -1.67876
   vertex -3.07211 1.25114 -2.23319
   vertex -3.18605 1.27111 -1.39048
  endloop
 endfacet
 facet normal -0.875845 0.470706 -0.106448
  outer loop
   vertex -2.79826 1.92748 -1.67876
   vertex -3.18605 1.27111 -1.39048
   vertex -3.00865 1.75074 -0.729234
  endloop
 endfacet
 facet normal -0.949792 0.282209 -0.135106
  outer loop
   vertex -3.07211 1.25114 -2.23319
   vertex -3.34376 0.598865 -1.68596
   vertex -3.18605 1.27111 -1.39048
  endloop
 endfacet
 facet normal -0.951819 0.260058 -0.162514
  outer loop
   vertex -3.07211 1.25114 -2.23319
   vertex -3.15434 0.610656 -2.77648
   vertex -3.34376 0.598865 -1.68596
  endloop
 endfacet
 facet normal -0.935145 0.291204 -0.201754
  outer loop
   vertex -2.90366 1.14472 -3.16755
   vertex -3.15434 0.610656 -2.77648
   vertex -3.07211 1.25114 -2.23319
  endloop
 endfacet
 facet normal -0.934132 0.25739 -0.247282
  outer loop
   vertex -2.90366 1.14472 -3.16755
   vertex -2.97317 0.54583 -3.52835
   vertex -3.15434 0.610656 -2.77648
  endloop
 endfacet
 facet normal -0.957145 0.270277 -0.104035
  outer loop
   vertex -3.18605 1.27111 -1.39048
   vertex -3.34376 0.598865 -1.68596
   vertex -3.37038 0.867378 -0.74349
  endloop
 endfacet
 facet normal -0.858128 0.354824 -0.371101
  outer loop
   vertex -2.22782 1.48745 -4.50525
   vertex -2.18657 0.905236 -5.1573
   vertex -2.62859 0.520297 -4.50325
  endloop
 endfacet
 facet normal -0.924929 0.379187 -0.0268955
  outer loop
   vertex -3.18605 1.27111 -1.39048
   vertex -3.37038 0.867378 -0.74349
   vertex -3.00865 1.75074 -0.729234
  endloop
 endfacet
 facet normal -0.229543 -0.0950797 -0.968643
  outer loop
   vertex 0 0 -7
   vertex -0.578359 -0.578359 -6.80617
   vertex -0.817923 3.11341e-16 -6.80617
  endloop
 endfacet
 facet normal -0.998712 -0.0406657 -0.0303301
  outer loop
   vertex -3.49929 -0.0100419 -0.01
   vertex -3.4997 1.33215e-15 -0.01
   vertex -3.47427 1.32247e-15 -0.847218
  endloop
 endfacet
 facet normal -0.998713 -0.0406597 -0.0303301
  outer loop
   vertex -3.49929 -0.0100419 -0.01
   vertex -3.47427 1.32247e-15 -0.847218
   vertex -3.47187 -0.39641 -0.394755
  endloop
 endfacet
 facet normal -0.994808 -0.0979798 0.0275085
  outer loop
   vertex -3.43374 -0.675561 -0.01
   vertex -3.49929 -0.0100419 -0.01
   vertex -3.47187 -0.39641 -0.394755
  endloop
 endfacet
 facet normal -0.734227 -0.678226 -0.0303273
  outer loop
   vertex -2.47466 -2.47466 -0.01
   vertex -2.48132 -2.46745 -0.01
   vertex -2.73167 -2.17906 -0.398333
  endloop
 endfacet
 facet normal -0.734224 -0.678229 -0.0303314
  outer loop
   vertex -2.47466 -2.47466 -0.01
   vertex -2.73167 -2.17906 -0.398333
   vertex -2.45668 -2.45668 -0.847218
  endloop
 endfacet
 facet normal -0.772724 -0.634158 0.0272167
  outer loop
   vertex -2.48132 -2.46745 -0.01
   vertex -2.90566 -1.95038 -0.01
   vertex -2.73167 -2.17906 -0.398333
  endloop
 endfacet
 facet normal -0.991723 -0.0899711 -0.0916019
  outer loop
   vertex -3.3416 -0.615733 -1.67876
   vertex -3.47427 1.32247e-15 -0.847218
   vertex -3.39631 1.2928e-15 -1.69122
  endloop
 endfacet
 facet normal -0.98965 -0.129373 -0.0620952
  outer loop
   vertex -3.3654 -0.889475 -0.729234
   vertex -3.47427 1.32247e-15 -0.847218
   vertex -3.3416 -0.615733 -1.67876
  endloop
 endfacet
 facet normal -0.984247 -0.135534 -0.113528
  outer loop
   vertex -3.47187 -0.39641 -0.394755
   vertex -3.47427 1.32247e-15 -0.847218
   vertex -3.3654 -0.889475 -0.729234
  endloop
 endfacet
 facet normal -0.98363 -0.0905513 -0.155799
  outer loop
   vertex -3.3416 -0.615733 -1.67876
   vertex -3.39631 1.2928e-15 -1.69122
   vertex -3.26372 1.24233e-15 -2.52837
  endloop
 endfacet
 facet normal -0.970615 -0.0845787 -0.225286
  outer loop
   vertex -3.15156 -0.623909 -2.77735
   vertex -3.26372 1.24233e-15 -2.52837
   vertex -3.07209 1.16938e-15 -3.35396
  endloop
 endfacet
 facet normal -0.979651 -0.108801 -0.168661
  outer loop
   vertex -3.26372 1.24233e-15 -2.52837
   vertex -3.15156 -0.623909 -2.77735
   vertex -3.3416 -0.615733 -1.67876
  endloop
 endfacet
 facet normal -0.949262 -0.084292 -0.30298
  outer loop
   vertex -2.90747 -0.612793 -3.69926
   vertex -3.07209 1.16938e-15 -3.35396
   vertex -2.81441 1.0713e-15 -4.1613
  endloop
 endfacet
 facet normal -0.960058 -0.113908 -0.255567
  outer loop
   vertex -3.07209 1.16938e-15 -3.35396
   vertex -2.90747 -0.612793 -3.69926
   vertex -3.15156 -0.623909 -2.77735
  endloop
 endfacet
 facet normal -0.916549 -0.0691563 -0.393898
  outer loop
   vertex -2.62709 -0.523523 -4.50525
   vertex -2.81441 1.0713e-15 -4.1613
   vertex -2.47984 9.43948e-16 -4.93979
  endloop
 endfacet
 facet normal -0.934543 -0.112605 -0.337565
  outer loop
   vertex -2.62709 -0.523523 -4.50525
   vertex -2.90747 -0.612793 -3.69926
   vertex -2.81441 1.0713e-15 -4.1613
  endloop
 endfacet
 facet normal -0.852399 -0.156438 -0.498942
  outer loop
   vertex -2.18624 -0.906042 -5.1573
   vertex -2.47984 9.43948e-16 -4.93979
   vertex -2.05196 7.81074e-16 -5.67079
  endloop
 endfacet
 facet normal -0.858943 -0.161697 -0.485872
  outer loop
   vertex -2.18624 -0.906042 -5.1573
   vertex -2.62709 -0.523523 -4.50525
   vertex -2.47984 9.43948e-16 -4.93979
  endloop
 endfacet
 facet normal -0.759269 -0.120832 -0.639461
  outer loop
   vertex -1.50681 5.73563e-16 -6.31808
   vertex -1.68242 -0.696941 -5.97787
   vertex -2.05196 7.81074e-16 -5.67079
  endloop
 endfacet
 facet normal -0.814301 -0.190126 -0.548421
  outer loop
   vertex -2.05196 7.81074e-16 -5.67079
   vertex -1.68242 -0.696941 -5.97787
   vertex -2.18624 -0.906042 -5.1573
  endloop
 endfacet
 facet normal -0.576702 -0.0700827 -0.813943
  outer loop
   vertex -1.25226 -0.518703 -6.45377
   vertex -1.50681 5.73563e-16 -6.31808
   vertex -0.817923 3.11341e-16 -6.80617
  endloop
 endfacet
 facet normal -0.701004 -0.162347 -0.694433
  outer loop
   vertex -1.50681 5.73563e-16 -6.31808
   vertex -1.25226 -0.518703 -6.45377
   vertex -1.68242 -0.696941 -5.97787
  endloop
 endfacet
 facet normal -0.468025 -0.193862 -0.862189
  outer loop
   vertex -0.578359 -0.578359 -6.80617
   vertex -1.25226 -0.518703 -6.45377
   vertex -0.817923 3.11341e-16 -6.80617
  endloop
 endfacet
 facet normal -0.763504 -0.639271 -0.0916193
  outer loop
   vertex -2.78786 -1.94094 -1.68596
   vertex -2.40156 -2.40156 -1.69122
   vertex -2.45668 -2.45668 -0.847218
  endloop
 endfacet
 facet normal -0.789242 -0.610747 -0.0639174
  outer loop
   vertex -2.99655 -1.76989 -0.74349
   vertex -2.78786 -1.94094 -1.68596
   vertex -2.45668 -2.45668 -0.847218
  endloop
 endfacet
 facet normal -0.789414 -0.603906 -0.110107
  outer loop
   vertex -2.45668 -2.45668 -0.847218
   vertex -2.73167 -2.17906 -0.398333
   vertex -2.99655 -1.76989 -0.74349
  endloop
 endfacet
 facet normal -0.757726 -0.633692 -0.155839
  outer loop
   vertex -2.40156 -2.40156 -1.69122
   vertex -2.78786 -1.94094 -1.68596
   vertex -2.3078 -2.3078 -2.52837
  endloop
 endfacet
 facet normal -0.744669 -0.628248 -0.225329
  outer loop
   vertex -2.3078 -2.3078 -2.52837
   vertex -2.66226 -1.79866 -2.77648
   vertex -2.1723 -2.1723 -3.35396
  endloop
 endfacet
 facet normal -0.768353 -0.617302 -0.169033
  outer loop
   vertex -2.66226 -1.79866 -2.77648
   vertex -2.3078 -2.3078 -2.52837
   vertex -2.78786 -1.94094 -1.68596
  endloop
 endfacet
 facet normal -0.724948 -0.618482 -0.303199
  outer loop
   vertex -2.1723 -2.1723 -3.35396
   vertex -2.48831 -1.71639 -3.52835
   vertex -1.99009 -1.99009 -4.1613
  endloop
 endfacet
 facet normal -0.752003 -0.613483 -0.241104
  outer loop
   vertex -2.48831 -1.71639 -3.52835
   vertex -2.1723 -2.1723 -3.35396
   vertex -2.66226 -1.79866 -2.77648
  endloop
 endfacet
 facet normal -0.696541 -0.599717 -0.393917
  outer loop
   vertex -1.99009 -1.99009 -4.1613
   vertex -2.2266 -1.49079 -4.50325
   vertex -1.75352 -1.75352 -4.93979
  endloop
 endfacet
 facet normal -0.762214 -0.530868 -0.370418
  outer loop
   vertex -2.60354 -1.28802 -3.90517
   vertex -1.99009 -1.99009 -4.1613
   vertex -2.48831 -1.71639 -3.52835
  endloop
 endfacet
 facet normal -0.770349 -0.565993 -0.293624
  outer loop
   vertex -2.2266 -1.49079 -4.50325
   vertex -1.99009 -1.99009 -4.1613
   vertex -2.60354 -1.28802 -3.90517
  endloop
 endfacet
 facet normal -0.713251 -0.492255 -0.498956
  outer loop
   vertex -2.18624 -0.906042 -5.1573
   vertex -1.45095 -1.45095 -5.67079
   vertex -1.75352 -1.75352 -4.93979
  endloop
 endfacet
 facet normal -0.721861 -0.49319 -0.48547
  outer loop
   vertex -2.2266 -1.49079 -4.50325
   vertex -2.18624 -0.906042 -5.1573
   vertex -1.75352 -1.75352 -4.93979
  endloop
 endfacet
 facet normal -0.622307 -0.451465 -0.639464
  outer loop
   vertex -1.68242 -0.696941 -5.97787
   vertex -1.06547 -1.06547 -6.31808
   vertex -1.45095 -1.45095 -5.67079
  endloop
 endfacet
 facet normal -0.710155 -0.441388 -0.548504
  outer loop
   vertex -1.68242 -0.696941 -5.97787
   vertex -1.45095 -1.45095 -5.67079
   vertex -2.18624 -0.906042 -5.1573
  endloop
 endfacet
 facet normal -0.457346 -0.358234 -0.813943
  outer loop
   vertex -1.25226 -0.518703 -6.45377
   vertex -0.578359 -0.578359 -6.80617
   vertex -1.06547 -1.06547 -6.31808
  endloop
 endfacet
 facet normal -0.610467 -0.380887 -0.694446
  outer loop
   vertex -1.25226 -0.518703 -6.45377
   vertex -1.06547 -1.06547 -6.31808
   vertex -1.68242 -0.696941 -5.97787
  endloop
 endfacet
 facet normal -0.956922 -0.290279 -0.00611955
  outer loop
   vertex -3.23539 -1.33322 -0.01
   vertex -3.43182 -0.68565 -0.01
   vertex -3.3654 -0.889475 -0.729234
  endloop
 endfacet
 facet normal -0.981759 -0.186319 -0.0378773
  outer loop
   vertex -3.43374 -0.675561 -0.01
   vertex -3.47187 -0.39641 -0.394755
   vertex -3.43182 -0.68565 -0.01
  endloop
 endfacet
 facet normal -0.981759 -0.186317 -0.0378756
  outer loop
   vertex -3.43182 -0.68565 -0.01
   vertex -3.47187 -0.39641 -0.394755
   vertex -3.3654 -0.889475 -0.729234
  endloop
 endfacet
 facet normal -0.881891 -0.471381 -0.00821435
  outer loop
   vertex -2.91131 -1.94215 -0.01
   vertex -3.23039 -1.34518 -0.01
   vertex -2.99655 -1.76989 -0.74349
  endloop
 endfacet
 facet normal -0.920425 -0.384452 -0.0708188
  outer loop
   vertex -3.23539 -1.33322 -0.01
   vertex -3.3654 -0.889475 -0.729234
   vertex -3.23039 -1.34518 -0.01
  endloop
 endfacet
 facet normal -0.92042 -0.384462 -0.0708259
  outer loop
   vertex -3.23039 -1.34518 -0.01
   vertex -3.3654 -0.889475 -0.729234
   vertex -2.99655 -1.76989 -0.74349
  endloop
 endfacet
 facet normal -0.824434 -0.564759 -0.0368213
  outer loop
   vertex -2.90566 -1.95038 -0.01
   vertex -2.91131 -1.94215 -0.01
   vertex -2.99655 -1.76989 -0.74349
  endloop
 endfacet
 facet normal -0.824435 -0.564757 -0.0368206
  outer loop
   vertex -2.99655 -1.76989 -0.74349
   vertex -2.73167 -2.17906 -0.398333
   vertex -2.90566 -1.95038 -0.01
  endloop
 endfacet
 facet normal -0.949564 -0.268324 -0.162268
  outer loop
   vertex -3.15156 -0.623909 -2.77735
   vertex -3.057 -1.28763 -2.23319
   vertex -3.3416 -0.615733 -1.67876
  endloop
 endfacet
 facet normal -0.952156 -0.286477 -0.106447
  outer loop
   vertex -3.3416 -0.615733 -1.67876
   vertex -3.15169 -1.35407 -1.39048
   vertex -3.3654 -0.889475 -0.729234
  endloop
 endfacet
 facet normal -0.946927 -0.294169 -0.129594
  outer loop
   vertex -3.3416 -0.615733 -1.67876
   vertex -3.057 -1.28763 -2.23319
   vertex -3.15169 -1.35407 -1.39048
  endloop
 endfacet
 facet normal -0.930147 -0.302802 -0.207695
  outer loop
   vertex -3.15156 -0.623909 -2.77735
   vertex -2.86264 -1.24376 -3.16755
   vertex -3.057 -1.28763 -2.23319
  endloop
 endfacet
 facet normal -0.928346 -0.275883 -0.249123
  outer loop
   vertex -2.90747 -0.612793 -3.69926
   vertex -2.86264 -1.24376 -3.16755
   vertex -3.15156 -0.623909 -2.77735
  endloop
 endfacet
 facet normal -0.844327 -0.463545 -0.268771
  outer loop
   vertex -2.48831 -1.71639 -3.52835
   vertex -2.86264 -1.24376 -3.16755
   vertex -2.60354 -1.28802 -3.90517
  endloop
 endfacet
 facet normal -0.89131 -0.296616 -0.342907
  outer loop
   vertex -2.62709 -0.523523 -4.50525
   vertex -2.60354 -1.28802 -3.90517
   vertex -2.90747 -0.612793 -3.69926
  endloop
 endfacet
 facet normal -0.901242 -0.314878 -0.297683
  outer loop
   vertex -2.86264 -1.24376 -3.16755
   vertex -2.90747 -0.612793 -3.69926
   vertex -2.60354 -1.28802 -3.90517
  endloop
 endfacet
 facet normal -0.84158 -0.349306 -0.411982
  outer loop
   vertex -2.62709 -0.523523 -4.50525
   vertex -2.2266 -1.49079 -4.50325
   vertex -2.60354 -1.28802 -3.90517
  endloop
 endfacet
 facet normal -0.922149 -0.385898 -0.0268954
  outer loop
   vertex -3.15169 -1.35407 -1.39048
   vertex -2.99655 -1.76989 -0.74349
   vertex -3.3654 -0.889475 -0.729234
  endloop
 endfacet
 facet normal -0.867919 -0.485689 -0.104035
  outer loop
   vertex -3.15169 -1.35407 -1.39048
   vertex -2.78786 -1.94094 -1.68596
   vertex -2.99655 -1.76989 -0.74349
  endloop
 endfacet
 facet normal -0.871156 -0.472052 -0.135106
  outer loop
   vertex -3.057 -1.28763 -2.23319
   vertex -2.78786 -1.94094 -1.68596
   vertex -3.15169 -1.35407 -1.39048
  endloop
 endfacet
 facet normal -0.842533 -0.478529 -0.247282
  outer loop
   vertex -2.86264 -1.24376 -3.16755
   vertex -2.48831 -1.71639 -3.52835
   vertex -2.66226 -1.79866 -2.77648
  endloop
 endfacet
 facet normal -0.856926 -0.489148 -0.162514
  outer loop
   vertex -3.057 -1.28763 -2.23319
   vertex -2.66226 -1.79866 -2.77648
   vertex -2.78786 -1.94094 -1.68596
  endloop
 endfacet
 facet normal -0.867159 -0.455335 -0.201754
  outer loop
   vertex -2.86264 -1.24376 -3.16755
   vertex -2.66226 -1.79866 -2.77648
   vertex -3.057 -1.28763 -2.23319
  endloop
 endfacet
 facet normal -0.857687 -0.35589 -0.371101
  outer loop
   vertex -2.62709 -0.523523 -4.50525
   vertex -2.18624 -0.906042 -5.1573
   vertex -2.2266 -1.49079 -4.50325
  endloop
 endfacet
 facet normal -0.0950797 -0.229543 -0.968643
  outer loop
   vertex 0 0 -7
   vertex -4.15121e-16 -0.817923 -6.80617
   vertex -0.578359 -0.578359 -6.80617
  endloop
 endfacet
 facet normal -0.677446 -0.734947 -0.0303302
  outer loop
   vertex -2.46727 -2.48147 -0.01
   vertex -2.47466 -2.47466 -0.01
   vertex -2.45668 -2.45668 -0.847218
  endloop
 endfacet
 facet normal -0.677446 -0.734947 -0.0303302
  outer loop
   vertex -2.46727 -2.48147 -0.01
   vertex -2.45668 -2.45668 -0.847218
   vertex -2.17468 -2.73529 -0.394755
  endloop
 endfacet
 facet normal -0.634153 -0.772718 0.0275083
  outer loop
   vertex -1.95033 -2.90571 -0.01
   vertex -2.46727 -2.48147 -0.01
   vertex -2.17468 -2.73529 -0.394755
  endloop
 endfacet
 facet normal -0.0395911 -0.998755 -0.0303344
  outer loop
   vertex -1.7762e-15 -3.4997 -0.01
   vertex -0.00980969 -3.49931 -0.01
   vertex -0.390753 -3.47241 -0.398333
  endloop
 endfacet
 facet normal -0.039594 -0.998755 -0.0303314
  outer loop
   vertex -1.7762e-15 -3.4997 -0.01
   vertex -0.390753 -3.47241 -0.398333
   vertex -1.7633e-15 -3.47427 -0.847218
  endloop
 endfacet
 facet normal -0.0979808 -0.994816 0.0272169
  outer loop
   vertex -0.00980969 -3.49931 -0.01
   vertex -0.675484 -3.43374 -0.01
   vertex -0.390753 -3.47241 -0.398333
  endloop
 endfacet
 facet normal -0.637635 -0.764873 -0.0916019
  outer loop
   vertex -1.92748 -2.79826 -1.67876
   vertex -2.45668 -2.45668 -0.847218
   vertex -2.40156 -2.40156 -1.69122
  endloop
 endfacet
 facet normal -0.600131 -0.791805 -0.113528
  outer loop
   vertex -2.17468 -2.73529 -0.394755
   vertex -2.45668 -2.45668 -0.847218
   vertex -1.75074 -3.00865 -0.729234
  endloop
 endfacet
 facet normal -0.608308 -0.791269 -0.0620953
  outer loop
   vertex -1.75074 -3.00865 -0.729234
   vertex -2.45668 -2.45668 -0.847218
   vertex -1.92748 -2.79826 -1.67876
  endloop
 endfacet
 facet normal -0.631501 -0.759561 -0.155799
  outer loop
   vertex -1.92748 -2.79826 -1.67876
   vertex -2.40156 -2.40156 -1.69122
   vertex -2.3078 -2.3078 -2.52837
  endloop
 endfacet
 facet normal -0.626522 -0.746134 -0.225286
  outer loop
   vertex -1.78732 -2.66966 -2.77735
   vertex -2.3078 -2.3078 -2.52837
   vertex -2.1723 -2.1723 -3.35396
  endloop
 endfacet
 facet normal -0.615784 -0.769652 -0.16866
  outer loop
   vertex -2.3078 -2.3078 -2.52837
   vertex -1.78732 -2.66966 -2.77735
   vertex -1.92748 -2.79826 -1.67876
  endloop
 endfacet
 facet normal -0.611626 -0.730833 -0.30298
  outer loop
   vertex -1.62258 -2.4892 -3.69926
   vertex -2.1723 -2.1723 -3.35396
   vertex -1.99009 -1.99009 -4.1613
  endloop
 endfacet
 facet normal -0.598318 -0.759409 -0.255567
  outer loop
   vertex -2.1723 -2.1723 -3.35396
   vertex -1.62258 -2.4892 -3.69926
   vertex -1.78732 -2.66966 -2.77735
  endloop
 endfacet
 facet normal -0.599197 -0.696999 -0.393899
  outer loop
   vertex -1.48745 -2.22782 -4.50525
   vertex -1.99009 -1.99009 -4.1613
   vertex -1.75352 -1.75352 -4.93979
  endloop
 endfacet
 facet normal -0.581197 -0.740445 -0.337566
  outer loop
   vertex -1.48745 -2.22782 -4.50525
   vertex -1.62258 -2.4892 -3.69926
   vertex -1.99009 -1.99009 -4.1613
  endloop
 endfacet
 facet normal -0.492118 -0.713355 -0.498942
  outer loop
   vertex -1.45095 -1.45095 -5.67079
   vertex -0.905236 -2.18657 -5.1573
   vertex -1.75352 -1.75352 -4.93979
  endloop
 endfacet
 facet normal -0.493027 -0.721701 -0.485872
  outer loop
   vertex -0.905236 -2.18657 -5.1573
   vertex -1.48745 -2.22782 -4.50525
   vertex -1.75352 -1.75352 -4.93979
  endloop
 endfacet
 facet normal -0.451443 -0.622325 -0.639461
  outer loop
   vertex -1.06547 -1.06547 -6.31808
   vertex -0.696838 -1.68246 -5.97787
   vertex -1.45095 -1.45095 -5.67079
  endloop
 endfacet
 facet normal -0.441359 -0.710237 -0.548421
  outer loop
   vertex -1.45095 -1.45095 -5.67079
   vertex -0.696838 -1.68246 -5.97787
   vertex -0.905236 -2.18657 -5.1573
  endloop
 endfacet
 facet normal -0.358234 -0.457346 -0.813943
  outer loop
   vertex -0.518703 -1.25226 -6.45377
   vertex -1.06547 -1.06547 -6.31808
   vertex -0.578359 -0.578359 -6.80617
  endloop
 endfacet
 facet normal -0.380888 -0.610481 -0.694433
  outer loop
   vertex -1.06547 -1.06547 -6.31808
   vertex -0.518703 -1.25226 -6.45377
   vertex -0.696838 -1.68246 -5.97787
  endloop
 endfacet
 facet normal -0.193862 -0.468025 -0.862189
  outer loop
   vertex -4.15121e-16 -0.817923 -6.80617
   vertex -0.518703 -1.25226 -6.45377
   vertex -0.578359 -0.578359 -6.80617
  endloop
 endfacet
 facet normal -0.0878459 -0.991912 -0.0916193
  outer loop
   vertex -0.598865 -3.34376 -1.68596
   vertex -1.72373e-15 -3.39631 -1.69122
   vertex -1.7633e-15 -3.47427 -0.847218
  endloop
 endfacet
 facet normal -0.126215 -0.989942 -0.0639174
  outer loop
   vertex -0.867378 -3.37038 -0.74349
   vertex -0.598865 -3.34376 -1.68596
   vertex -1.7633e-15 -3.47427 -0.847218
  endloop
 endfacet
 facet normal -0.131174 -0.985226 -0.110107
  outer loop
   vertex -1.7633e-15 -3.47427 -0.847218
   vertex -0.390753 -3.47241 -0.398333
   vertex -0.867378 -3.37038 -0.74349
  endloop
 endfacet
 facet normal -0.0877058 -0.983881 -0.155839
  outer loop
   vertex -1.72373e-15 -3.39631 -1.69122
   vertex -0.598865 -3.34376 -1.68596
   vertex -1.65644e-15 -3.26372 -2.52837
  endloop
 endfacet
 facet normal -0.0823223 -0.970799 -0.225329
  outer loop
   vertex -1.65644e-15 -3.26372 -2.52837
   vertex -0.610656 -3.15434 -2.77648
   vertex -1.55918e-15 -3.07209 -3.35396
  endloop
 endfacet
 facet normal -0.106809 -0.979806 -0.169033
  outer loop
   vertex -0.610656 -3.15434 -2.77648
   vertex -1.65644e-15 -3.26372 -2.52837
   vertex -0.598865 -3.34376 -1.68596
  endloop
 endfacet
 facet normal -0.0752828 -0.949949 -0.303199
  outer loop
   vertex -1.55918e-15 -3.07209 -3.35396
   vertex -0.54583 -2.97317 -3.52835
   vertex -1.4284e-15 -2.81441 -4.1613
  endloop
 endfacet
 facet normal -0.0979484 -0.965544 -0.241104
  outer loop
   vertex -0.54583 -2.97317 -3.52835
   vertex -1.55918e-15 -3.07209 -3.35396
   vertex -0.610656 -3.15434 -2.77648
  endloop
 endfacet
 facet normal -0.0684644 -0.916592 -0.393917
  outer loop
   vertex -1.4284e-15 -2.81441 -4.1613
   vertex -0.520297 -2.62859 -4.50325
   vertex -1.2586e-15 -2.47984 -4.93979
  endloop
 endfacet
 facet normal -0.163586 -0.914347 -0.370418
  outer loop
   vertex -0.930218 -2.75175 -3.90517
   vertex -1.4284e-15 -2.81441 -4.1613
   vertex -0.54583 -2.97317 -3.52835
  endloop
 endfacet
 facet normal -0.144501 -0.944936 -0.293623
  outer loop
   vertex -0.520297 -2.62859 -4.50325
   vertex -1.4284e-15 -2.81441 -4.1613
   vertex -0.930218 -2.75175 -3.90517
  endloop
 endfacet
 facet normal -0.156268 -0.852422 -0.498956
  outer loop
   vertex -1.2586e-15 -2.47984 -4.93979
   vertex -0.905236 -2.18657 -5.1573
   vertex -1.04143e-15 -2.05196 -5.67079
  endloop
 endfacet
 facet normal -0.161695 -0.85917 -0.48547
  outer loop
   vertex -0.520297 -2.62859 -4.50325
   vertex -0.905236 -2.18657 -5.1573
   vertex -1.2586e-15 -2.47984 -4.93979
  endloop
 endfacet
 facet normal -0.120803 -0.759271 -0.639464
  outer loop
   vertex -0.696838 -1.68246 -5.97787
   vertex -7.64751e-16 -1.50681 -6.31808
   vertex -1.04143e-15 -2.05196 -5.67079
  endloop
 endfacet
 facet normal -0.190047 -0.814264 -0.548504
  outer loop
   vertex -0.696838 -1.68246 -5.97787
   vertex -1.04143e-15 -2.05196 -5.67079
   vertex -0.905236 -2.18657 -5.1573
  endloop
 endfacet
 facet normal -0.0700827 -0.576702 -0.813943
  outer loop
   vertex -0.518703 -1.25226 -6.45377
   vertex -4.15121e-16 -0.817923 -6.80617
   vertex -7.64751e-16 -1.50681 -6.31808
  endloop
 endfacet
 facet normal -0.162337 -0.700993 -0.694446
  outer loop
   vertex -0.518703 -1.25226 -6.45377
   vertex -7.64751e-16 -1.50681 -6.31808
   vertex -0.696838 -1.68246 -5.97787
  endloop
 endfacet
 facet normal -0.471388 -0.881905 -0.00611946
  outer loop
   vertex -1.34503 -3.23049 -0.01
   vertex -1.94184 -2.91149 -0.01
   vertex -1.75074 -3.00865 -0.729234
  endloop
 endfacet
 facet normal -0.562461 -0.825956 -0.0378771
  outer loop
   vertex -1.95033 -2.90571 -0.01
   vertex -2.17468 -2.73529 -0.394755
   vertex -1.94184 -2.91149 -0.01
  endloop
 endfacet
 facet normal -0.562463 -0.825954 -0.0378756
  outer loop
   vertex -1.94184 -2.91149 -0.01
   vertex -2.17468 -2.73529 -0.394755
   vertex -1.75074 -3.00865 -0.729234
  endloop
 endfacet
 facet normal -0.290275 -0.956908 -0.00821437
  outer loop
   vertex -0.685299 -3.43191 -0.01
   vertex -1.33304 -3.23542 -0.01
   vertex -0.867378 -3.37038 -0.74349
  endloop
 endfacet
 facet normal -0.378984 -0.922689 -0.0708227
  outer loop
   vertex -1.34503 -3.23049 -0.01
   vertex -1.75074 -3.00865 -0.729234
   vertex -1.33304 -3.23542 -0.01
  endloop
 endfacet
 facet normal -0.37898 -0.922691 -0.0708257
  outer loop
   vertex -1.33304 -3.23542 -0.01
   vertex -1.75074 -3.00865 -0.729234
   vertex -0.867378 -3.37038 -0.74349
  endloop
 endfacet
 facet normal -0.183623 -0.982307 -0.0368199
  outer loop
   vertex -0.675484 -3.43374 -0.01
   vertex -0.685299 -3.43191 -0.01
   vertex -0.867378 -3.37038 -0.74349
  endloop
 endfacet
 facet normal -0.18362 -0.982307 -0.0368207
  outer loop
   vertex -0.867378 -3.37038 -0.74349
   vertex -0.390753 -3.47241 -0.398333
   vertex -0.675484 -3.43374 -0.01
  endloop
 endfacet
 facet normal -0.25739 -0.934132 -0.247282
  outer loop
   vertex -1.14472 -2.90366 -3.16755
   vertex -0.54583 -2.97317 -3.52835
   vertex -0.610656 -3.15434 -2.77648
  endloop
 endfacet
 facet normal -0.260058 -0.951819 -0.162514
  outer loop
   vertex -1.25114 -3.07211 -2.23319
   vertex -0.610656 -3.15434 -2.77648
   vertex -0.598865 -3.34376 -1.68596
  endloop
 endfacet
 facet normal -0.291204 -0.935145 -0.201754
  outer loop
   vertex -1.14472 -2.90366 -3.16755
   vertex -0.610656 -3.15434 -2.77648
   vertex -1.25114 -3.07211 -2.23319
  endloop
 endfacet
 facet normal -0.46136 -0.851519 -0.249123
  outer loop
   vertex -1.62258 -2.4892 -3.69926
   vertex -1.14472 -2.90366 -3.16755
   vertex -1.78732 -2.66966 -2.77735
  endloop
 endfacet
 facet normal -0.4436 -0.871827 -0.207695
  outer loop
   vertex -1.78732 -2.66966 -2.77735
   vertex -1.14472 -2.90366 -3.16755
   vertex -1.25114 -3.07211 -2.23319
  endloop
 endfacet
 facet normal -0.481709 -0.861177 -0.162268
  outer loop
   vertex -1.78732 -2.66966 -2.77735
   vertex -1.25114 -3.07211 -2.23319
   vertex -1.92748 -2.79826 -1.67876
  endloop
 endfacet
 facet normal -0.269254 -0.924805 -0.268771
  outer loop
   vertex -0.54583 -2.97317 -3.52835
   vertex -1.14472 -2.90366 -3.16755
   vertex -0.930218 -2.75175 -3.90517
  endloop
 endfacet
 facet normal -0.379187 -0.924929 -0.0268955
  outer loop
   vertex -1.27111 -3.18605 -1.39048
   vertex -0.867378 -3.37038 -0.74349
   vertex -1.75074 -3.00865 -0.729234
  endloop
 endfacet
 facet normal -0.470706 -0.875845 -0.106448
  outer loop
   vertex -1.92748 -2.79826 -1.67876
   vertex -1.27111 -3.18605 -1.39048
   vertex -1.75074 -3.00865 -0.729234
  endloop
 endfacet
 facet normal -0.270277 -0.957145 -0.104035
  outer loop
   vertex -1.27111 -3.18605 -1.39048
   vertex -0.598865 -3.34376 -1.68596
   vertex -0.867378 -3.37038 -0.74349
  endloop
 endfacet
 facet normal -0.282209 -0.949792 -0.135106
  outer loop
   vertex -1.25114 -3.07211 -2.23319
   vertex -0.598865 -3.34376 -1.68596
   vertex -1.27111 -3.18605 -1.39048
  endloop
 endfacet
 facet normal -0.461569 -0.877587 -0.129594
  outer loop
   vertex -1.92748 -2.79826 -1.67876
   vertex -1.25114 -3.07211 -2.23319
   vertex -1.27111 -3.18605 -1.39048
  endloop
 endfacet
 facet normal -0.420512 -0.839991 -0.342907
  outer loop
   vertex -1.48745 -2.22782 -4.50525
   vertex -0.930218 -2.75175 -3.90517
   vertex -1.62258 -2.4892 -3.69926
  endloop
 endfacet
 facet normal -0.414622 -0.859927 -0.297683
  outer loop
   vertex -1.14472 -2.90366 -3.16755
   vertex -1.62258 -2.4892 -3.69926
   vertex -0.930218 -2.75175 -3.90517
  endloop
 endfacet
 facet normal -0.354824 -0.858128 -0.371101
  outer loop
   vertex -1.48745 -2.22782 -4.50525
   vertex -0.905236 -2.18657 -5.1573
   vertex -0.520297 -2.62859 -4.50325
  endloop
 endfacet
 facet normal -0.34809 -0.842083 -0.411982
  outer loop
   vertex -1.48745 -2.22782 -4.50525
   vertex -0.520297 -2.62859 -4.50325
   vertex -0.930218 -2.75175 -3.90517
  endloop
 endfacet
 facet normal 0.0950797 -0.229543 -0.968643
  outer loop
   vertex 0 0 -7
   vertex 0.578359 -0.578359 -6.80617
   vertex -4.15121e-16 -0.817923 -6.80617
  endloop
 endfacet
 facet normal 0.0406657 -0.998712 -0.0303301
  outer loop
   vertex 0.0100419 -3.49929 -0.01
   vertex -1.7762e-15 -3.4997 -0.01
   vertex -1.7633e-15 -3.47427 -0.847218
  endloop
 endfacet
 facet normal 0.0406597 -0.998713 -0.0303301
  outer loop
   vertex 0.0100419 -3.49929 -0.01
   vertex -1.7633e-15 -3.47427 -0.847218
   vertex 0.39641 -3.47187 -0.394755
  endloop
 endfacet
 facet normal 0.0979798 -0.994808 0.0275085
  outer loop
   vertex 0.675561 -3.43374 -0.01
   vertex 0.0100419 -3.49929 -0.01
   vertex 0.39641 -3.47187 -0.394755
  endloop
 endfacet
 facet normal 0.678226 -0.734227 -0.0303273
  outer loop
   vertex 2.47466 -2.47466 -0.01
   vertex 2.46745 -2.48132 -0.01
   vertex 2.17906 -2.73167 -0.398333
  endloop
 endfacet
 facet normal 0.678229 -0.734224 -0.0303314
  outer loop
   vertex 2.47466 -2.47466 -0.01
   vertex 2.17906 -2.73167 -0.398333
   vertex 2.45668 -2.45668 -0.847218
  endloop
 endfacet
 facet normal 0.634158 -0.772724 0.0272167
  outer loop
   vertex 2.46745 -2.48132 -0.01
   vertex 1.95038 -2.90566 -0.01
   vertex 2.17906 -2.73167 -0.398333
  endloop
 endfacet
 facet normal 0.0899711 -0.991723 -0.0916019
  outer loop
   vertex 0.615733 -3.3416 -1.67876
   vertex -1.7633e-15 -3.47427 -0.847218
   vertex -1.72373e-15 -3.39631 -1.69122
  endloop
 endfacet
 facet normal 0.135534 -0.984247 -0.113528
  outer loop
   vertex 0.39641 -3.47187 -0.394755
   vertex -1.7633e-15 -3.47427 -0.847218
   vertex 0.889475 -3.3654 -0.729234
  endloop
 endfacet
 facet normal 0.129373 -0.98965 -0.0620952
  outer loop
   vertex 0.889475 -3.3654 -0.729234
   vertex -1.7633e-15 -3.47427 -0.847218
   vertex 0.615733 -3.3416 -1.67876
  endloop
 endfacet
 facet normal 0.0905513 -0.98363 -0.155799
  outer loop
   vertex 0.615733 -3.3416 -1.67876
   vertex -1.72373e-15 -3.39631 -1.69122
   vertex -1.65644e-15 -3.26372 -2.52837
  endloop
 endfacet
 facet normal 0.0845787 -0.970615 -0.225286
  outer loop
   vertex 0.623909 -3.15156 -2.77735
   vertex -1.65644e-15 -3.26372 -2.52837
   vertex -1.55918e-15 -3.07209 -3.35396
  endloop
 endfacet
 facet normal 0.108801 -0.979651 -0.168661
  outer loop
   vertex -1.65644e-15 -3.26372 -2.52837
   vertex 0.623909 -3.15156 -2.77735
   vertex 0.615733 -3.3416 -1.67876
  endloop
 endfacet
 facet normal 0.084292 -0.949262 -0.30298
  outer loop
   vertex 0.612793 -2.90747 -3.69926
   vertex -1.55918e-15 -3.07209 -3.35396
   vertex -1.4284e-15 -2.81441 -4.1613
  endloop
 endfacet
 facet normal 0.113908 -0.960058 -0.255567
  outer loop
   vertex -1.55918e-15 -3.07209 -3.35396
   vertex 0.612793 -2.90747 -3.69926
   vertex 0.623909 -3.15156 -2.77735
  endloop
 endfacet
 facet normal 0.0691563 -0.916549 -0.393898
  outer loop
   vertex 0.523523 -2.62709 -4.50525
   vertex -1.4284e-15 -2.81441 -4.1613
   vertex -1.2586e-15 -2.47984 -4.93979
  endloop
 endfacet
 facet normal 0.112605 -0.934543 -0.337565
  outer loop
   vertex 0.523523 -2.62709 -4.50525
   vertex 0.612793 -2.90747 -3.69926
   vertex -1.4284e-15 -2.81441 -4.1613
  endloop
 endfacet
 facet normal 0.156438 -0.852399 -0.498942
  outer loop
   vertex 0.906042 -2.18624 -5.1573
   vertex -1.2586e-15 -2.47984 -4.93979
   vertex -1.04143e-15 -2.05196 -5.67079
  endloop
 endfacet
 facet normal 0.161697 -0.858943 -0.485872
  outer loop
   vertex 0.906042 -2.18624 -5.1573
   vertex 0.523523 -2.62709 -4.50525
   vertex -1.2586e-15 -2.47984 -4.93979
  endloop
 endfacet
 facet normal 0.120832 -0.759269 -0.639461
  outer loop
   vertex -7.64751e-16 -1.50681 -6.31808
   vertex 0.696941 -1.68242 -5.97787
   vertex -1.04143e-15 -2.05196 -5.67079
  endloop
 endfacet
 facet normal 0.190126 -0.814301 -0.548421
  outer loop
   vertex -1.04143e-15 -2.05196 -5.67079
   vertex 0.696941 -1.68242 -5.97787
   vertex 0.906042 -2.18624 -5.1573
  endloop
 endfacet
 facet normal 0.0700827 -0.576702 -0.813943
  outer loop
   vertex -4.15121e-16 -0.817923 -6.80617
   vertex 0.518703 -1.25226 -6.45377
   vertex -7.64751e-16 -1.50681 -6.31808
  endloop
 endfacet
 facet normal 0.162347 -0.701004 -0.694433
  outer loop
   vertex -7.64751e-16 -1.50681 -6.31808
   vertex 0.518703 -1.25226 -6.45377
   vertex 0.696941 -1.68242 -5.97787
  endloop
 endfacet
 facet normal 0.193862 -0.468025 -0.862189
  outer loop
   vertex 0.518703 -1.25226 -6.45377
   vertex -4.15121e-16 -0.817923 -6.80617
   vertex 0.578359 -0.578359 -6.80617
  endloop
 endfacet
 facet normal 0.639271 -0.763504 -0.0916193
  outer loop
   vertex 1.94094 -2.78786 -1.68596
   vertex 2.40156 -2.40156 -1.69122
   vertex 2.45668 -2.45668 -0.847218
  endloop
 endfacet
 facet normal 0.610747 -0.789242 -0.0639174
  outer loop
   vertex 1.76989 -2.99655 -0.74349
   vertex 1.94094 -2.78786 -1.68596
   vertex 2.45668 -2.45668 -0.847218
  endloop
 endfacet
 facet normal 0.603906 -0.789414 -0.110107
  outer loop
   vertex 2.45668 -2.45668 -0.847218
   vertex 2.17906 -2.73167 -0.398333
   vertex 1.76989 -2.99655 -0.74349
  endloop
 endfacet
 facet normal 0.633692 -0.757726 -0.155839
  outer loop
   vertex 2.40156 -2.40156 -1.69122
   vertex 1.94094 -2.78786 -1.68596
   vertex 2.3078 -2.3078 -2.52837
  endloop
 endfacet
 facet normal 0.628248 -0.744669 -0.225329
  outer loop
   vertex 2.3078 -2.3078 -2.52837
   vertex 1.79866 -2.66226 -2.77648
   vertex 2.1723 -2.1723 -3.35396
  endloop
 endfacet
 facet normal 0.617302 -0.768353 -0.169033
  outer loop
   vertex 1.79866 -2.66226 -2.77648
   vertex 2.3078 -2.3078 -2.52837
   vertex 1.94094 -2.78786 -1.68596
  endloop
 endfacet
 facet normal 0.618482 -0.724948 -0.303199
  outer loop
   vertex 2.1723 -2.1723 -3.35396
   vertex 1.71639 -2.48831 -3.52835
   vertex 1.99009 -1.99009 -4.1613
  endloop
 endfacet
 facet normal 0.613483 -0.752003 -0.241104
  outer loop
   vertex 1.71639 -2.48831 -3.52835
   vertex 2.1723 -2.1723 -3.35396
   vertex 1.79866 -2.66226 -2.77648
  endloop
 endfacet
 facet normal 0.599717 -0.696541 -0.393917
  outer loop
   vertex 1.99009 -1.99009 -4.1613
   vertex 1.49079 -2.2266 -4.50325
   vertex 1.75352 -1.75352 -4.93979
  endloop
 endfacet
 facet normal 0.530868 -0.762214 -0.370418
  outer loop
   vertex 1.28802 -2.60354 -3.90517
   vertex 1.99009 -1.99009 -4.1613
   vertex 1.71639 -2.48831 -3.52835
  endloop
 endfacet
 facet normal 0.565993 -0.770349 -0.293624
  outer loop
   vertex 1.49079 -2.2266 -4.50325
   vertex 1.99009 -1.99009 -4.1613
   vertex 1.28802 -2.60354 -3.90517
  endloop
 endfacet
 facet normal 0.492255 -0.713251 -0.498956
  outer loop
   vertex 0.906042 -2.18624 -5.1573
   vertex 1.45095 -1.45095 -5.67079
   vertex 1.75352 -1.75352 -4.93979
  endloop
 endfacet
 facet normal 0.49319 -0.721861 -0.48547
  outer loop
   vertex 1.49079 -2.2266 -4.50325
   vertex 0.906042 -2.18624 -5.1573
   vertex 1.75352 -1.75352 -4.93979
  endloop
 endfacet
 facet normal 0.451465 -0.622307 -0.639464
  outer loop
   vertex 0.696941 -1.68242 -5.97787
   vertex 1.06547 -1.06547 -6.31808
   vertex 1.45095 -1.45095 -5.67079
  endloop
 endfacet
 facet normal 0.441388 -0.710155 -0.548504
  outer loop
   vertex 0.696941 -1.68242 -5.97787
   vertex 1.45095 -1.45095 -5.67079
   vertex 0.906042 -2.18624 -5.1573
  endloop
 endfacet
 facet normal 0.358234 -0.457346 -0.813943
  outer loop
   vertex 1.06547 -1.06547 -6.31808
   vertex 0.518703 -1.25226 -6.45377
   vertex 0.578359 -0.578359 -6.80617
  endloop
 endfacet
 facet normal 0.380887 -0.610467 -0.694446
  outer loop
   vertex 0.518703 -1.25226 -6.45377
   vertex 1.06547 -1.06547 -6.31808
   vertex 0.696941 -1.68242 -5.97787
  endloop
 endfacet
 facet normal 0.290279 -0.956922 -0.00611955
  outer loop
   vertex 1.33322 -3.23539 -0.01
   vertex 0.68565 -3.43182 -0.01
   vertex 0.889475 -3.3654 -0.729234
  endloop
 endfacet
 facet normal 0.186319 -0.981759 -0.0378773
  outer loop
   vertex 0.675561 -3.43374 -0.01
   vertex 0.39641 -3.47187 -0.394755
   vertex 0.68565 -3.43182 -0.01
  endloop
 endfacet
 facet normal 0.186317 -0.981759 -0.0378756
  outer loop
   vertex 0.68565 -3.43182 -0.01
   vertex 0.39641 -3.47187 -0.394755
   vertex 0.889475 -3.3654 -0.729234
  endloop
 endfacet
 facet normal 0.471381 -0.881891 -0.00821435
  outer loop
   vertex 1.94215 -2.91131 -0.01
   vertex 1.34518 -3.23039 -0.01
   vertex 1.76989 -2.99655 -0.74349
  endloop
 endfacet
 facet normal 0.384452 -0.920425 -0.0708188
  outer loop
   vertex 1.33322 -3.23539 -0.01
   vertex 0.889475 -3.3654 -0.729234
   vertex 1.34518 -3.23039 -0.01
  endloop
 endfacet
 facet normal 0.384462 -0.92042 -0.0708259
  outer loop
   vertex 1.34518 -3.23039 -0.01
   vertex 0.889475 -3.3654 -0.729234
   vertex 1.76989 -2.99655 -0.74349
  endloop
 endfacet
 facet normal 0.564759 -0.824434 -0.0368213
  outer loop
   vertex 1.95038 -2.90566 -0.01
   vertex 1.94215 -2.91131 -0.01
   vertex 1.76989 -2.99655 -0.74349
  endloop
 endfacet
 facet normal 0.564757 -0.824435 -0.0368206
  outer loop
   vertex 1.76989 -2.99655 -0.74349
   vertex 2.17906 -2.73167 -0.398333
   vertex 1.95038 -2.90566 -0.01
  endloop
 endfacet
 facet normal 0.463545 -0.844327 -0.268771
  outer loop
   vertex 1.71639 -2.48831 -3.52835
   vertex 1.24376 -2.86264 -3.16755
   vertex 1.28802 -2.60354 -3.90517
  endloop
 endfacet
 facet normal 0.296616 -0.89131 -0.342907
  outer loop
   vertex 0.523523 -2.62709 -4.50525
   vertex 1.28802 -2.60354 -3.90517
   vertex 0.612793 -2.90747 -3.69926
  endloop
 endfacet
 facet normal 0.314878 -0.901242 -0.297683
  outer loop
   vertex 1.24376 -2.86264 -3.16755
   vertex 0.612793 -2.90747 -3.69926
   vertex 1.28802 -2.60354 -3.90517
  endloop
 endfacet
 facet normal 0.349306 -0.84158 -0.411982
  outer loop
   vertex 0.523523 -2.62709 -4.50525
   vertex 1.49079 -2.2266 -4.50325
   vertex 1.28802 -2.60354 -3.90517
  endloop
 endfacet
 facet normal 0.478529 -0.842533 -0.247282
  outer loop
   vertex 1.24376 -2.86264 -3.16755
   vertex 1.71639 -2.48831 -3.52835
   vertex 1.79866 -2.66226 -2.77648
  endloop
 endfacet
 facet normal 0.489148 -0.856926 -0.162514
  outer loop
   vertex 1.28763 -3.057 -2.23319
   vertex 1.79866 -2.66226 -2.77648
   vertex 1.94094 -2.78786 -1.68596
  endloop
 endfacet
 facet normal 0.455335 -0.867159 -0.201754
  outer loop
   vertex 1.24376 -2.86264 -3.16755
   vertex 1.79866 -2.66226 -2.77648
   vertex 1.28763 -3.057 -2.23319
  endloop
 endfacet
 facet normal 0.485689 -0.867919 -0.104035
  outer loop
   vertex 1.35407 -3.15169 -1.39048
   vertex 1.94094 -2.78786 -1.68596
   vertex 1.76989 -2.99655 -0.74349
  endloop
 endfacet
 facet normal 0.385898 -0.922149 -0.0268954
  outer loop
   vertex 1.35407 -3.15169 -1.39048
   vertex 1.76989 -2.99655 -0.74349
   vertex 0.889475 -3.3654 -0.729234
  endloop
 endfacet
 facet normal 0.275883 -0.928346 -0.249123
  outer loop
   vertex 0.612793 -2.90747 -3.69926
   vertex 1.24376 -2.86264 -3.16755
   vertex 0.623909 -3.15156 -2.77735
  endloop
 endfacet
 facet normal 0.302802 -0.930147 -0.207695
  outer loop
   vertex 0.623909 -3.15156 -2.77735
   vertex 1.24376 -2.86264 -3.16755
   vertex 1.28763 -3.057 -2.23319
  endloop
 endfacet
 facet normal 0.268324 -0.949564 -0.162268
  outer loop
   vertex 0.623909 -3.15156 -2.77735
   vertex 1.28763 -3.057 -2.23319
   vertex 0.615733 -3.3416 -1.67876
  endloop
 endfacet
 facet normal 0.472052 -0.871156 -0.135106
  outer loop
   vertex 1.28763 -3.057 -2.23319
   vertex 1.94094 -2.78786 -1.68596
   vertex 1.35407 -3.15169 -1.39048
  endloop
 endfacet
 facet normal 0.35589 -0.857687 -0.371101
  outer loop
   vertex 0.523523 -2.62709 -4.50525
   vertex 0.906042 -2.18624 -5.1573
   vertex 1.49079 -2.2266 -4.50325
  endloop
 endfacet
 facet normal 0.294169 -0.946927 -0.129594
  outer loop
   vertex 0.615733 -3.3416 -1.67876
   vertex 1.28763 -3.057 -2.23319
   vertex 1.35407 -3.15169 -1.39048
  endloop
 endfacet
 facet normal 0.286477 -0.952156 -0.106447
  outer loop
   vertex 0.615733 -3.3416 -1.67876
   vertex 1.35407 -3.15169 -1.39048
   vertex 0.889475 -3.3654 -0.729234
  endloop
 endfacet
 facet normal 0.970799 -0.0823223 -0.225329
  outer loop
   vertex 3.26372 0 -2.52837
   vertex 3.15434 -0.610656 -2.77648
   vertex 3.07209 0 -3.35396
  endloop
 endfacet
 facet normal 0.983881 -0.0877058 -0.155839
  outer loop
   vertex 3.39631 0 -1.69122
   vertex 3.34376 -0.598865 -1.68596
   vertex 3.26372 0 -2.52837
  endloop
 endfacet
 facet normal 0.979806 -0.106809 -0.169033
  outer loop
   vertex 3.15434 -0.610656 -2.77648
   vertex 3.26372 0 -2.52837
   vertex 3.34376 -0.598865 -1.68596
  endloop
 endfacet
 facet normal 0.949949 -0.0752828 -0.303199
  outer loop
   vertex 3.07209 0 -3.35396
   vertex 2.97317 -0.54583 -3.52835
   vertex 2.81441 0 -4.1613
  endloop
 endfacet
 facet normal 0.965544 -0.0979484 -0.241104
  outer loop
   vertex 2.97317 -0.54583 -3.52835
   vertex 3.07209 0 -3.35396
   vertex 3.15434 -0.610656 -2.77648
  endloop
 endfacet
 facet normal 0.991912 -0.0878459 -0.0916193
  outer loop
   vertex 3.34376 -0.598865 -1.68596
   vertex 3.39631 0 -1.69122
   vertex 3.47427 0 -0.847218
  endloop
 endfacet
 facet normal 0.998755 -0.0395911 -0.0303344
  outer loop
   vertex 3.4997 0 -0.01
   vertex 3.49931 -0.00980969 -0.01
   vertex 3.47241 -0.390753 -0.398333
  endloop
 endfacet
 facet normal 0.998755 -0.039594 -0.0303314
  outer loop
   vertex 3.4997 0 -0.01
   vertex 3.47241 -0.390753 -0.398333
   vertex 3.47427 0 -0.847218
  endloop
 endfacet
 facet normal 0.989942 -0.126215 -0.0639174
  outer loop
   vertex 3.37038 -0.867378 -0.74349
   vertex 3.34376 -0.598865 -1.68596
   vertex 3.47427 0 -0.847218
  endloop
 endfacet
 facet normal 0.985226 -0.131174 -0.110107
  outer loop
   vertex 3.47427 0 -0.847218
   vertex 3.47241 -0.390753 -0.398333
   vertex 3.37038 -0.867378 -0.74349
  endloop
 endfacet
 facet normal 0.229543 -0.0950797 -0.968643
  outer loop
   vertex 0 0 -7
   vertex 0.817923 0 -6.80617
   vertex 0.578359 -0.578359 -6.80617
  endloop
 endfacet
 facet normal 0.994816 -0.0979808 0.0272169
  outer loop
   vertex 3.49931 -0.00980969 -0.01
   vertex 3.43374 -0.675484 -0.01
   vertex 3.47241 -0.390753 -0.398333
  endloop
 endfacet
 facet normal 0.734947 -0.677446 -0.0303302
  outer loop
   vertex 2.48147 -2.46727 -0.01
   vertex 2.47466 -2.47466 -0.01
   vertex 2.45668 -2.45668 -0.847218
  endloop
 endfacet
 facet normal 0.734947 -0.677446 -0.0303302
  outer loop
   vertex 2.48147 -2.46727 -0.01
   vertex 2.45668 -2.45668 -0.847218
   vertex 2.73529 -2.17468 -0.394755
  endloop
 endfacet
 facet normal 0.772718 -0.634153 0.0275083
  outer loop
   vertex 2.90571 -1.95033 -0.01
   vertex 2.48147 -2.46727 -0.01
   vertex 2.73529 -2.17468 -0.394755
  endloop
 endfacet
 facet normal 0.916592 -0.0684644 -0.393917
  outer loop
   vertex 2.81441 0 -4.1613
   vertex 2.62859 -0.520297 -4.50325
   vertex 2.47984 0 -4.93979
  endloop
 endfacet
 facet normal 0.914347 -0.163586 -0.370418
  outer loop
   vertex 2.75175 -0.930218 -3.90517
   vertex 2.81441 0 -4.1613
   vertex 2.97317 -0.54583 -3.52835
  endloop
 endfacet
 facet normal 0.944936 -0.144501 -0.293623
  outer loop
   vertex 2.62859 -0.520297 -4.50325
   vertex 2.81441 0 -4.1613
   vertex 2.75175 -0.930218 -3.90517
  endloop
 endfacet
 facet normal 0.852422 -0.156268 -0.498956
  outer loop
   vertex 2.47984 0 -4.93979
   vertex 2.18657 -0.905236 -5.1573
   vertex 2.05196 0 -5.67079
  endloop
 endfacet
 facet normal 0.85917 -0.161695 -0.48547
  outer loop
   vertex 2.62859 -0.520297 -4.50325
   vertex 2.18657 -0.905236 -5.1573
   vertex 2.47984 0 -4.93979
  endloop
 endfacet
 facet normal 0.759271 -0.120803 -0.639464
  outer loop
   vertex 1.68246 -0.696838 -5.97787
   vertex 1.50681 0 -6.31808
   vertex 2.05196 0 -5.67079
  endloop
 endfacet
 facet normal 0.814264 -0.190047 -0.548504
  outer loop
   vertex 1.68246 -0.696838 -5.97787
   vertex 2.05196 0 -5.67079
   vertex 2.18657 -0.905236 -5.1573
  endloop
 endfacet
 facet normal 0.576702 -0.0700827 -0.813943
  outer loop
   vertex 1.50681 0 -6.31808
   vertex 1.25226 -0.518703 -6.45377
   vertex 0.817923 0 -6.80617
  endloop
 endfacet
 facet normal 0.700993 -0.162337 -0.694446
  outer loop
   vertex 1.25226 -0.518703 -6.45377
   vertex 1.50681 0 -6.31808
   vertex 1.68246 -0.696838 -5.97787
  endloop
 endfacet
 facet normal 0.468025 -0.193862 -0.862189
  outer loop
   vertex 1.25226 -0.518703 -6.45377
   vertex 0.578359 -0.578359 -6.80617
   vertex 0.817923 0 -6.80617
  endloop
 endfacet
 facet normal 0.764873 -0.637635 -0.0916019
  outer loop
   vertex 2.79826 -1.92748 -1.67876
   vertex 2.45668 -2.45668 -0.847218
   vertex 2.40156 -2.40156 -1.69122
  endloop
 endfacet
 facet normal 0.791269 -0.608308 -0.0620953
  outer loop
   vertex 3.00865 -1.75074 -0.729234
   vertex 2.45668 -2.45668 -0.847218
   vertex 2.79826 -1.92748 -1.67876
  endloop
 endfacet
 facet normal 0.791805 -0.600131 -0.113528
  outer loop
   vertex 2.73529 -2.17468 -0.394755
   vertex 2.45668 -2.45668 -0.847218
   vertex 3.00865 -1.75074 -0.729234
  endloop
 endfacet
 facet normal 0.759561 -0.631501 -0.155799
  outer loop
   vertex 2.79826 -1.92748 -1.67876
   vertex 2.40156 -2.40156 -1.69122
   vertex 2.3078 -2.3078 -2.52837
  endloop
 endfacet
 facet normal 0.746134 -0.626522 -0.225286
  outer loop
   vertex 2.66966 -1.78732 -2.77735
   vertex 2.3078 -2.3078 -2.52837
   vertex 2.1723 -2.1723 -3.35396
  endloop
 endfacet
 facet normal 0.769652 -0.615784 -0.16866
  outer loop
   vertex 2.3078 -2.3078 -2.52837
   vertex 2.66966 -1.78732 -2.77735
   vertex 2.79826 -1.92748 -1.67876
  endloop
 endfacet
 facet normal 0.730833 -0.611626 -0.30298
  outer loop
   vertex 2.4892 -1.62258 -3.69926
   vertex 2.1723 -2.1723 -3.35396
   vertex 1.99009 -1.99009 -4.1613
  endloop
 endfacet
 facet normal 0.759409 -0.598318 -0.255567
  outer loop
   vertex 2.1723 -2.1723 -3.35396
   vertex 2.4892 -1.62258 -3.69926
   vertex 2.66966 -1.78732 -2.77735
  endloop
 endfacet
 facet normal 0.696999 -0.599197 -0.393899
  outer loop
   vertex 2.22782 -1.48745 -4.50525
   vertex 1.99009 -1.99009 -4.1613
   vertex 1.75352 -1.75352 -4.93979
  endloop
 endfacet
 facet normal 0.740445 -0.581197 -0.337566
  outer loop
   vertex 2.22782 -1.48745 -4.50525
   vertex 2.4892 -1.62258 -3.69926
   vertex 1.99009 -1.99009 -4.1613
  endloop
 endfacet
 facet normal 0.713355 -0.492118 -0.498942
  outer loop
   vertex 1.45095 -1.45095 -5.67079
   vertex 2.18657 -0.905236 -5.1573
   vertex 1.75352 -1.75352 -4.93979
  endloop
 endfacet
 facet normal 0.721701 -0.493027 -0.485872
  outer loop
   vertex 2.18657 -0.905236 -5.1573
   vertex 2.22782 -1.48745 -4.50525
   vertex 1.75352 -1.75352 -4.93979
  endloop
 endfacet
 facet normal 0.622325 -0.451443 -0.639461
  outer loop
   vertex 1.06547 -1.06547 -6.31808
   vertex 1.68246 -0.696838 -5.97787
   vertex 1.45095 -1.45095 -5.67079
  endloop
 endfacet
 facet normal 0.710237 -0.441359 -0.548421
  outer loop
   vertex 1.45095 -1.45095 -5.67079
   vertex 1.68246 -0.696838 -5.97787
   vertex 2.18657 -0.905236 -5.1573
  endloop
 endfacet
 facet normal 0.457346 -0.358234 -0.813943
  outer loop
   vertex 0.578359 -0.578359 -6.80617
   vertex 1.25226 -0.518703 -6.45377
   vertex 1.06547 -1.06547 -6.31808
  endloop
 endfacet
 facet normal 0.610481 -0.380888 -0.694433
  outer loop
   vertex 1.06547 -1.06547 -6.31808
   vertex 1.25226 -0.518703 -6.45377
   vertex 1.68246 -0.696838 -5.97787
  endloop
 endfacet
 facet normal 0.881905 -0.471388 -0.00611946
  outer loop
   vertex 3.23049 -1.34503 -0.01
   vertex 2.91149 -1.94184 -0.01
   vertex 3.00865 -1.75074 -0.729234
  endloop
 endfacet
 facet normal 0.825956 -0.562461 -0.0378771
  outer loop
   vertex 2.90571 -1.95033 -0.01
   vertex 2.73529 -2.17468 -0.394755
   vertex 2.91149 -1.94184 -0.01
  endloop
 endfacet
 facet normal 0.825954 -0.562463 -0.0378756
  outer loop
   vertex 2.91149 -1.94184 -0.01
   vertex 2.73529 -2.17468 -0.394755
   vertex 3.00865 -1.75074 -0.729234
  endloop
 endfacet
 facet normal 0.956908 -0.290275 -0.00821437
  outer loop
   vertex 3.43191 -0.685299 -0.01
   vertex 3.23542 -1.33304 -0.01
   vertex 3.37038 -0.867378 -0.74349
  endloop
 endfacet
 facet normal 0.922689 -0.378984 -0.0708227
  outer loop
   vertex 3.23049 -1.34503 -0.01
   vertex 3.00865 -1.75074 -0.729234
   vertex 3.23542 -1.33304 -0.01
  endloop
 endfacet
 facet normal 0.922691 -0.37898 -0.0708257
  outer loop
   vertex 3.23542 -1.33304 -0.01
   vertex 3.00865 -1.75074 -0.729234
   vertex 3.37038 -0.867378 -0.74349
  endloop
 endfacet
 facet normal 0.982307 -0.183623 -0.0368199
  outer loop
   vertex 3.43374 -0.675484 -0.01
   vertex 3.43191 -0.685299 -0.01
   vertex 3.37038 -0.867378 -0.74349
  endloop
 endfacet
 facet normal 0.982307 -0.18362 -0.0368207
  outer loop
   vertex 3.37038 -0.867378 -0.74349
   vertex 3.47241 -0.390753 -0.398333
   vertex 3.43374 -0.675484 -0.01
  endloop
 endfacet
 facet normal 0.875845 -0.470706 -0.106448
  outer loop
   vertex 2.79826 -1.92748 -1.67876
   vertex 3.18605 -1.27111 -1.39048
   vertex 3.00865 -1.75074 -0.729234
  endloop
 endfacet
 facet normal 0.924929 -0.379187 -0.0268955
  outer loop
   vertex 3.18605 -1.27111 -1.39048
   vertex 3.37038 -0.867378 -0.74349
   vertex 3.00865 -1.75074 -0.729234
  endloop
 endfacet
 facet normal 0.924805 -0.269254 -0.268771
  outer loop
   vertex 2.97317 -0.54583 -3.52835
   vertex 2.90366 -1.14472 -3.16755
   vertex 2.75175 -0.930218 -3.90517
  endloop
 endfacet
 facet normal 0.934132 -0.25739 -0.247282
  outer loop
   vertex 2.90366 -1.14472 -3.16755
   vertex 2.97317 -0.54583 -3.52835
   vertex 3.15434 -0.610656 -2.77648
  endloop
 endfacet
 facet normal 0.842083 -0.34809 -0.411982
  outer loop
   vertex 2.22782 -1.48745 -4.50525
   vertex 2.62859 -0.520297 -4.50325
   vertex 2.75175 -0.930218 -3.90517
  endloop
 endfacet
 facet normal 0.839991 -0.420512 -0.342907
  outer loop
   vertex 2.22782 -1.48745 -4.50525
   vertex 2.75175 -0.930218 -3.90517
   vertex 2.4892 -1.62258 -3.69926
  endloop
 endfacet
 facet normal 0.859927 -0.414622 -0.297683
  outer loop
   vertex 2.90366 -1.14472 -3.16755
   vertex 2.4892 -1.62258 -3.69926
   vertex 2.75175 -0.930218 -3.90517
  endloop
 endfacet
 facet normal 0.877587 -0.461569 -0.129594
  outer loop
   vertex 2.79826 -1.92748 -1.67876
   vertex 3.07211 -1.25114 -2.23319
   vertex 3.18605 -1.27111 -1.39048
  endloop
 endfacet
 facet normal 0.861177 -0.481709 -0.162268
  outer loop
   vertex 2.66966 -1.78732 -2.77735
   vertex 3.07211 -1.25114 -2.23319
   vertex 2.79826 -1.92748 -1.67876
  endloop
 endfacet
 facet normal 0.957145 -0.270277 -0.104035
  outer loop
   vertex 3.18605 -1.27111 -1.39048
   vertex 3.34376 -0.598865 -1.68596
   vertex 3.37038 -0.867378 -0.74349
  endloop
 endfacet
 facet normal 0.951819 -0.260058 -0.162514
  outer loop
   vertex 3.07211 -1.25114 -2.23319
   vertex 3.15434 -0.610656 -2.77648
   vertex 3.34376 -0.598865 -1.68596
  endloop
 endfacet
 facet normal 0.935145 -0.291204 -0.201754
  outer loop
   vertex 2.90366 -1.14472 -3.16755
   vertex 3.15434 -0.610656 -2.77648
   vertex 3.07211 -1.25114 -2.23319
  endloop
 endfacet
 facet normal 0.949792 -0.282209 -0.135106
  outer loop
   vertex 3.07211 -1.25114 -2.23319
   vertex 3.34376 -0.598865 -1.68596
   vertex 3.18605 -1.27111 -1.39048
  endloop
 endfacet
 facet normal 0.871827 -0.4436 -0.207695
  outer loop
   vertex 2.66966 -1.78732 -2.77735
   vertex 2.90366 -1.14472 -3.16755
   vertex 3.07211 -1.25114 -2.23319
  endloop
 endfacet
 facet normal 0.858128 -0.354824 -0.371101
  outer loop
   vertex 2.18657 -0.905236 -5.1573
   vertex 2.62859 -0.520297 -4.50325
   vertex 2.22782 -1.48745 -4.50525
  endloop
 endfacet
 facet normal 0.851519 -0.46136 -0.249123
  outer loop
   vertex 2.4892 -1.62258 -3.69926
   vertex 2.90366 -1.14472 -3.16755
   vertex 2.66966 -1.78732 -2.77735
  endloop
 endfacet
endsolid
