Geometry.HideCompounds = 1;

//Mesh.CharacteristicLengthFactor = 0.10; // Fine
Mesh.CharacteristicLengthFactor = <<Meshsize>>;  // Medium
//Mesh.CharacteristicLengthFactor = 0.4;  // Coarse

// Mesh.CharacteristicLengthFromPoints = 0;
//Mesh.CharacteristicLengthFromCurvature = 1;

Mesh.Algorithm    = 6; // (1=MeshAdapt, 2=Automatic, 5=Delaunay, 6=Frontal, 7=bamg, 8=delquad) (Default=2)
Mesh.RecombineAll = 0;

Mesh.RemeshAlgorithm = 1; // (0=no split, 1=automatic, 2=automatic only with metis) (Default=0)

Mesh.RemeshParametrization = 7; // (0=harmonic_circle, 1=conformal_spectral, 2=rbf, 3=harmonic_plane, 4=convex_circle, 5=convex_plane, 6=harmonic square, 7=conformal_fe) (Default=4)

Mesh.Algorithm3D    = 4; // (1=Delaunay, 4=Frontal, 5=Frontal Delaunay, 6=Frontal Hex, 7=MMG3D, 9=R-tree) (Default=1)
Mesh.Recombine3DAll = 0;

Mesh.Optimize = 1;
Mesh.OptimizeNetgen = 1;

Mesh.Smoothing = 0;

Merge "LVEndo_T23_CSPAMM_clipped_scale.stl";
Merge "LVEpi_T23_CSPAMM_clipped_scale.stl";

CreateTopology;

ll[] = Line "*";
L_LV_base = newl; Compound Line(L_LV_base) = ll[1];
L_epi_base = newl; Compound Line(L_epi_base) = ll[0];
Physical Line("EPI_BASE") = {L_epi_base};

ss[] = Surface "*";
S_LV = news; Compound Surface(S_LV) = ss[0];
S_epi = news; Compound Surface(S_epi) = ss[1];
Physical Surface("LV") = {S_LV};
Physical Surface("epi") = {S_epi};
//
LL_base = newll; Line Loop(LL_base) = {L_LV_base, L_epi_base};
S_base = news; Plane Surface(S_base) = {LL_base};
Physical Surface("BASE") = {S_base};

SL_wall = newsl; Surface Loop(SL_wall) = {S_LV, S_epi, S_base};
V_wall = newv; Volume(V_wall) = {SL_wall};
Physical Volume("WALL") = {V_wall};


//
//// P1 = newp; Point(P1) = {36., 74., 70.};
//// Field[1] = Attractor;
//// Field[1].NodesList = {P1};
//// Field[2] = Threshold;
//// Field[2].IField = 1;
//// Field[2].LcMin = 100.;
//// Field[2].LcMax = 100.;
//// Field[2].DistMin = 0.;
//// Field[2].DistMax = 10.;
//// Background Field = 2;
//
//// Field[1] = Box;
//// Field[1].VIn = 5.;
//// Field[1].VOut = 5.;
//// Field[1].XMin = 30.; 
//// Field[1].XMax = 40.;
//// Field[1].YMin = 70.;
//// Field[1].YMax = 80.;
//// Field[1].ZMin = 69.;
//// Field[1].ZMax = 71.;
//// Background Field = 1;








